Accession Number,Author,Author Affiliation,Descriptors,Geographic Descriptors,Geographic Region,Named person,Publication Date,Publication Type,Source,Title,Update Code
1189500,"Clark, E.; Fishman, L.",Unlisted; Unlisted,Social Accounting. Statistical Data National Income and Wealth Distribution of Personal Income and Wealth          (8.22),U.S.,Northern America,,February 1950,Journal Article,"Review of Economics and Statistics, February 1950, v. 32, pp. 106-07",Further remarks on estimating the size distribution of a given aggregate income,201104
1195012,"Chamberlin, E. H.",Unlisted,Product Differentiation. Sales Effort          (2.1336),,,,May 1950,Journal Article,"American Economic Review, May 1950, v. 40, pp. 85-92",Product heterogeneity and public policy,201104
1190011,"Kendall, M. G.",Unlisted,Identification and Estimation of Parameters. Tests of Hypotheses. Prediction General          (7.230),,,,May 1950,Journal Article,"Economica, N.S., May 1950, v. 17, pp. 127-45",The statistical approach,201104
1191011,"Wallace, E.",Unlisted,Health. Education. Welfare. Poverty History          (21.1),Canada,Northern America,,August 1950,Journal Article,"Canadian Journal of Economics and Political Science, August 1950, v. 16, pp. 383-93","The origin of the social welfare state in Canada, 1867-1900",201104
1191252,"Beer, S. H.",Unlisted,"General Contemporary Economic Conditions, Policy, and Planning          (6)",U.K.,Europe,,March 1950,Journal Article,"Social Research, March 1950, v. 17, pp. 35-64",British planning under the Labor government,201104
1190704,"Smithies, A.",Unlisted,Dollar Shortage          (11.302)Economic Integration. Customs Unions General          (11.40),Europe,Europe,,May 1950,Journal Article,"Quarterly Journal of Economics, May 1950, v. 64, pp. 159-82",European unification and the dollar problem,201104
1191675,"Collier, W. W.",Unlisted,Income Tax State and Local          (10.4201),,,,September 1950,Journal Article,"National Tax Journal, September 1950, v. 3, pp. 193-220",Oregon's withholding tax,201104
1194482,"Kurihara, K. K.",Unlisted,Underemployment. Full Employment          (2.311),,,,August 1950,Journal Article,"Journal of Political Economy, August 1950, v. 58, pp. 353-58",The United Nations and full employment. [Review],201104
1194075,"Schickele, R.",Unlisted,Resource Use under Uncertainty          (16.43),U.S.,Northern America,,August 1950,Journal Article,"Journal of Farm Economics, August 1950, v. 32, pp. 356-74",Farmers adaptations to income uncertainty [in the northern Great Plains],201104
1195024,,,History of Economic Thought. Biography Individuals (A-Z)          (4.8),,,"TAYLOR, FRED MANVILLE",September 1950,Journal Article,"American Economic Review, September 1950, v. 40, pp. 500a",Fred Manville Taylor,201104
1189696,,,Food Processing. Tobacco. Beverages General          (15.5280),U.K.,Europe,,Part 4 1950,Journal Article,"Journal of the Royal Statistical Society, Series A, Part 4 1950, v. 113, pp. 487-508",U.K. tobacco statistics,201104
1192603,"Garvy, G.",Unlisted,Old Age Economics and Assistance          (21.4),U.S.,Northern America,,August 1950,Journal Article,"Review of Economics and Statistics, August 1950, v. 32, pp. 223-26",The effect of private pension plans on personal savings,201104
1189371,"Schurr, S. H.",Unlisted,Atomic Industries          (15.9),U.S.,Northern America,,February 1950,Journal Article,"Review of Economics and Statistics, February 1950, v. 32, pp. 100-02",The Cowles Commission atomic power cost estimates a reply [followed by W. Isard's rejoinder],201104
1191337,"Chandler, A. D., Jr.",Unlisted,Railroads History          (15.821),U.S.,Northern America,,May 1950,Journal Article,"Explorations in Entrepreneurial History, May 1950, v. 2, pp. 180-202",Henry Varnum Poor business analyst,201104
1189691,,,Agricultural Statistics          (16.05),,,,Part 3 1950,Journal Article,"Journal of the Royal Statistical Society, Series A, Part 3 1950, v. 113, pp. 376-95","Oil and fats statistics, contributed by the Economics and Statistics Department of Lever Brothers and Unilever Limited",201104
1192386,"Morgan, D. J.",Unlisted,Commodity Agreements          (11.241),Sri Lanka,Asia,,March 1950,Journal Article,"Three Banks Review, March 1950, v. 5, pp. 21-30",The approach to international commodity problems,201104
1190982,"Fels, R.",Unlisted,Economic Systems. Planning General          (3.0)Trade Union Organization Theory          (19.401),,,,January 1950,Journal Article,"Southern Economic Journal, January 1950, v. 16, pp. 284-96",An ideology for a laboristic economy,201104
1191733,"Mors, W. P.",Unlisted,Consumer Finance General          (9.80),U.S.,Northern America,,October 1950,Journal Article,"Journal of Business, October 1950, v. 23, pp. 199-218",State regulation of retail instalment financing progress and problems. Pt. I,201104
1194159,"Wolfson, T.",Unlisted,Textiles. Leather. Clothing General          (15.5260)Industrial Relations. Collective Bargaining Case Studies          (19.58),U.S.,Northern America,,October 1950,Journal Article,"Industrial and Labor Relations Review, October 1950, v. 4, pp. 33-43",Role of the ILGWU in stabilizing the women's garment industry,201104
1193162,"Clarenbach, F. A.",Unlisted,Regional Planning and Development. Housing General          (22.0),U.S.,Northern America,,November 1950,Journal Article,"Land Economics, November 1950, v. 26, pp. 394-97",Curricula in city and regional planning at the University of Wisconsin,201104
1193388,"Buehler, A. G.",Unlisted,Taxation and Other Revenue General          (10.40),,,,December 1950,Journal Article,"National Tax Journal, December 1950, v. 3, pp. 283-97",The capitalization of taxes,201104
1194980,"Singer, H. W.",Unlisted,Capital Movements. Foreign Assistance Theory. Transfer Problem          (11.351),,,,May 1950,Journal Article,"American Economic Review, May 1950, v. 40, pp. 473-85",The distribution of gains between investing and borrowing countries,201104
1194466,,,Commercial Banks History          (9.31),U.K.,Europe,,December 1950,Journal Article,"Three Banks Review, December 1950, v. 8, pp. 35-41",Some reminiscences of Drummonds Bank,201104
1190094,"Sargent, J. R.",Unlisted,Sterling Area          (11.301)International Adjustment Mechanisms Negotiated Schemes Regional Schemes          (11.3333),,,,November 1950,Journal Article,"Bulletin of the Institute of Economics and Statistics (Oxford University), November 1950, v. 12, pp. 327-33",E.P.U. and the future of sterling policy,201104
1191899,"Sangarappillai, P.",Unlisted,"Value, Price, and Allocation Theory General          (2.10)",,,,November 1950,Journal Article,"Ceylon Economist, November 1950, v. 1, pp. 124-42",The theory of value,201104
1195940,"Froehlich, W.",Unlisted,Teaching of Economics          (1.3),U.S.,Northern America,,September 1950,Journal Article,"Review of Social Economy, September 1950, v. 8, pp. 70-76",Religious perspectives of college teaching in economics,201104
1191568,"Patinkin, D.",Unlisted,General Equilibrium General          (2.140),,,,1950,Journal Article,"Review of Economic Studies, 1950, v. 18, iss. 1, pp. 42-61",A reconsideration of the general equilibrium theory of money,201104
1190211,"Brozen, Y.",Unlisted,Growth and Development Theory General          (2.340)Capitalist System          (3.1),U.S.,Northern America,,May 1950,Journal Article,"American Economic Review, May 1950, v. 40, pp. 136-43",Capitalism and economic progress discussion,201104
1189163,"Smith, L. P. F.",Unlisted,Agricultural Productivity- Technological Change          (16.22),U.K.,Europe,,January 1950,Journal Article,"Manchester School of Economic and Social Studies, January 1950, v. 18, pp. 1-13",The productivity of British agriculture,201104
1191021,"Grampp, W. D.",Unlisted,Other Government Policies toward the Market. Public Enterprise Direct Controls Rent Control          (15.442),U.K.,Europe,,April 1950,Journal Article,"Southern Economic Journal, April 1950, v. 16, pp. 425-47",Some effects of rent control,201104
1192640,"Croteau, J. T.",Unlisted,Agricultural Cooperatives General          (16.60),,,,October 1950,Journal Article,"Agricultural History, October 1950, v. 24, pp. 227-38",The caisses populaires Desjardins of Quebec a modern system of people's banks,201104
1194107,"Paul, A. B.",Unlisted,Food Processing. Tobacco. Beverages General          (15.5280),U.S.,Northern America,,November 1950,Journal Article,"Journal of Farm Economics, November 1950, v. 32, pp. 584-89","Some economic changes in food manufacturing. [The qualitative and quantitative analysis of retail butter and margarine sales, followed by J. N. Morgan's reply]",201104
1192628,"Rao, V. K. R. V.",Unlisted,"General Contemporary Economic Conditions, Policy, and Planning          (6)",India; Nepal,Asia,,January 1950,Journal Article,"Indian Journal of Economics, January 1950, v. 30, pp. 225-43",Presidential address. [Assessment of Indian economy],201104
1192943,"Brandenburg, D. J.",Unlisted,Agriculture History          (16.1),France,Europe,,April 1950,Journal Article,"Agricultural History, April 1950, v. 24, pp. 96-108",Agriculture in the Encyclopedic an essay in French intellectual history,201104
1191068,"Fuerst, E.",Unlisted,Social Accounting. Statistical Data National Income and Wealth General          (8.20),,,,March 1950,Journal Article,"Economic Journal, March 1950, v. 60, pp. 170-74",The presentation of national income statistics,201104
1189461,"Broude, H. W.",Unlisted,Location of Industry          (15.501)Metals History          (15.5221)Iron and Steel          (15.5222),U.K.,Europe,,December 1950,Journal Article,"Explorations in Entrepreneurial History, December 1950, v. 3, pp. 103-34",Locational decisions and their relation to industrial development,201104
1191037,"Kindleberger, C. P.",Unlisted,Dollar Shortage          (11.302),,,,November 1950,Journal Article,"Canadian Journal of Economics and Political Science, November 1950, v. 16, pp. 529-37",International disequilibrium. [Review],201104
1190991,"Shapiro, E.; Solomon, E.",Unlisted; Unlisted,International Adjustment Mechanisms General          (11.330),,,,January 1950,Journal Article,"Southern Economic Journal, January 1950, v. 16, pp. 310-25",International monetary relations,201104
1192814,"Dean, J.",Unlisted,Marketing Product Policies          (14.53),U.S.,Northern America,,October 1950,Journal Article,"Journal of Business, October 1950, v. 23, pp. 248-58",Product-line policy,201104
1192167,"Weaver, F.",Unlisted,Taxation and Other Revenue General          (10.40),U.K.,Europe,,August 1950,Journal Article,"Review of Economics and Statistics, August 1950, v. 32, pp. 201-13",Taxation and redistribution in the United Kingdom,201104
1192935,"Oliphant, J. O.",Unlisted,Agriculture History          (16.1),U.S.,Northern America,,January 1950,Journal Article,"Agricultural History, January 1950, v. 24, pp. 42-58","Encroachments of cattlemen on Indian reservations in the Pacific Northwest, 1870-1890",201104
1190598,"Gini, C.",Unlisted,Relation of Economics to Other Disciplines          (1.17),,,,July-September 1950,Journal Article,"Banca Nazionale del Lavoro Quarterly Review, July-September 1950, v. 3, pp. 151-70",Economy and sociology,201104
1192939,"Chambers, J. D.",Unlisted,Textiles. Leather. Clothing History          (15.5261),,,,June 1950,Journal Article,"Business History Review, June 1950, v. 24, pp. 65-109","The memoir of a Nottingham lace merchant, William Cripps, 1798-1884",201104
1189034,"Cochran, T. C.",Unlisted,Railroads History          (15.821),U.S.,Northern America,,1950,Journal Article,"Economic History Association. The Tasks of Economic History, 1950, v. 10, pp. 53-67",Land grants and railroad entrepreneur-ship,201104
1195447,"Noyes, C. R.",Unlisted,Methodology General          (1.10),,,,August 1950,Journal Article,"Quarterly Journal of Economics, August 1950, v. 64, pp. 483-87",Isolationism in economic method a comment,201104
1195833,"Petshek, K. R.",Unlisted,Wage and Employment Policies          (19.592),Netherlands,Europe,,November 1950,Journal Article,"Quarterly Journal of Economics, November 1950, v. 64, pp. 633-41",Employment as an element in the wage bargain,201104
1194967,"Weston, J. F.",Unlisted,Profit          (2.242),,,,March 1950,Journal Article,"American Economic Review, March 1950, v. 40, pp. 40-60",A generalized uncertainty theory of profit,201104
1190927,"Manne, A. S.",Unlisted,Quantitative Trade and Exchange Restrictions          (11.34),Latin America,Latin America and the Caribbean,,May 1950,Journal Article,"Review of Economics and Statistics, May 1950, v. 32, pp. 169-71",Multicompensatory trade an alternative approach,201104
1189515,"Vaswani, M. H.",Unlisted,Systems of Wage Payments. Incentives          (19.593),Italy,Europe,,October 1950,Journal Article,"Indian Journal of Economics, October 1950, v. 31, pp. 107-14",Problem of incentives in industry,201104
1193773,"Barlowe, R.; Timmons, J. F.",Unlisted; Unlisted,Land Economics Ownership and Tenure General          (17.340),U.S.,Northern America,,February 1950,Journal Article,"Journal of Farm Economics, February 1950, v. 32, pp. 30-47",What has happened to the agricultural ladder?,201104
1189431,"Dean, A. H.",Unlisted,Pensions. Fringe Benefits          (19.596),U.S.,Northern America,,July 1950,Journal Article,"Harvard Business Review, July 1950, v. 28, iss. 4, pp. 25-40",Accounting for the cost of pensions a lien on production. Pt. I,201104
1193352,"Anderson, C. J.",Unlisted,Business Finance Sources of Funds          (14.42),U.S.,Northern America,,September 1950,Journal Article,"Harvard Business Review, September 1950, v. 28, iss. 5, pp. 79-89",Trends in the supply of equity capital,201104
1189689,"Menzler, F. A. A.",Unlisted,Transportation General          (15.80),U.K.,Europe,,Part 3 1950,Journal Article,"Journal of the Royal Statistical Society, Series A, Part 3 1950, v. 113, pp. 352-75",Rail and road statistics,201104
1194149,"Aull, G. H.; Gabbard, L. P.; Timmons, J. F.",Unlisted; Unlisted; Unlisted,Natural Resources. Land Economics Conservation General          (17.20),,,,February 1950,Journal Article,"Journal of Farm Economics, February 1950, v. 32, pp. 95-111",United Nations Scientific Conference on the Conservation and Utilization of Resources,201104
1190770,"Clover, V. T.",Unlisted,Consumer Motivation. Brand Preference          (14.521)Retailing          (15.543),,,,July 1950,Journal Article,"Journal of Marketing, July 1950, v. 15, pp. 66-70",Relative importance of impulse-buying in retail stores [in Texas],201104
1189942,"Johnson, D. G.",Unlisted,Methodology General          (1.10),,,,February 1950,Journal Article,"Journal of Farm Economics, February 1950, v. 32, pp. 123-28",Resource efficiency and policy,201104
1189414,"Pikler, A.",Unlisted,Relation of Economics to Other Disciplines          (1.17),,,,January 1950,Journal Article,"Econometrica, January 1950, v. 18, pp. 101",The entropy-ophelimity analogy of Lisman,201104
1190190,"Sweezy, P. M.",Unlisted,"Capitalist System          (3.1)Socialist, Marxist, Communist Schools General          (4.50)",U.S.,Northern America,,1950,Journal Article,"Science and Society, 1950, v. 14, iss. 2, pp. 134-67",The transition from feudalism to capitalism. [Followed by Dobb's reply] [Review],201104
1189666,"Anderson, R. H.",Unlisted,Farm Management History          (16.41),,,,July 1950,Journal Article,"Agricultural History, July 1950, v. 24, pp. 113-20","Agriculture among the Shakers, chiefly at Mount Lebanon [New York]",201104
1195679,"Harrod, R.",Unlisted,International Adjustment Mechanisms Negotiated Schemes Regional Schemes          (11.3333)Economic Integration. Customs Unions General          (11.40),Europe,Europe,,1950,Journal Article,"Public Finance, 1950, v. 5, iss. 4, pp. 538-46",European economic co-operation a British viewpoint,201104
1192946,"David, D. K.",Unlisted,Capitalist System          (3.1),U.S.,Northern America,,January 1950,Journal Article,"Harvard Business Review, January 1950, v. 28, iss. 1, pp. 25-32",The danger of drifting,201104
1189406,"Shoup, C. S.",Unlisted,History of Economic Thought. Biography Individuals (A-Z)          (4.8),,,"RICARDO, DAVID",1950,Journal Article,"Public Finance, 1950, v. 5, iss. 2, pp. 101-18",Ricardo on the taxation of profits,201104
1191071,"Bogen, J. I.",Unlisted,Business Finance Sources of Funds          (14.42),U.S.,Northern America,,June 1950,Journal Article,"Journal of Finance, June 1950, v. 5, pp. 170-78",The importance of equity financing in the American economy,201104
1192821,"Banks, S.",Unlisted,Sales Forecasting          (14.522),U.K.,Europe,,January 1950,Journal Article,"Journal of Business, January 1950, v. 23, pp. 48-57",The prediction of dress purchases for a mail-order house,201104
1191201,"Simpson, E. S.",Unlisted,"Inflation and Growth          (2.3424)General Contemporary Economic Conditions, Policy, and Planning          (6)",Italy,Europe,,1950,Journal Article,"Review of Economic Studies, 1950, v. 17, iss. 3, pp. 203-25","Inflation, deflation and employment in Italy",201104
1192948,"Garrett, S.",Unlisted,War and Defense Economics Labor Force. Consumption Labor and Manpower          (13.61),U.S.,Northern America,,December 1950,Journal Article,"Industrial Relations Research Association. Proceedings, December 1950, v. 3, pp. 25-33",The emergency dispute provisions of the Taft-Hartley Act as a framework for wartime dispute settlement,201104
1191033,"Shannon, F. J.",Unlisted,Income Tax State and Local          (10.4201),,,,April 1950,Journal Article,"Southern Economic Journal, April 1950, v. 16, pp. 471-75",Kentucky's recent income tax experience,201104
1193005,"Higgins, B.",Unlisted,"Growth, Stagnation in Developed Economies          (2.3404)",U.S.,Northern America,,June 1950,Journal Article,"Economic Journal, June 1950, v. 60, pp. 255-74",The theory of increasing under-employment,201104
1191000,"Wansbrough, V. C.",Unlisted,Extractive Industries Other Mining          (15.533),Canada,Northern America,,August 1950,Journal Article,"Canadian Journal of Economics and Political Science, August 1950, v. 16, pp. 334-39",Implications of Canadian iron ore production,201104
1194115,"Darrah, L. B.; Kearl, C. D.",Unlisted; Unlisted,Resource Combination and Allocation General          (16.420),Africa; South Africa,Africa,,November 1950,Journal Article,"Journal of Farm Economics, November 1950, v. 32, pp. 652-57",Changes in time of starting chicks,201104
1189119,"Qureshi, D. M.",Unlisted,Agricultural Marketing General          (16.50),Pakistan,Asia,,July 1950,Journal Article,"Pakistan Economic Journal, July 1950, v. 1, iss. 4, pp. 39-42",Market research its importance and necessity in Pakistan,201104
1195023,,,History of Economic Thought. Biography Individuals (A-Z)          (4.8),,,"GAY, EDWIN FRANCIS",December 1950,Journal Article,"American Economic Review, December 1950, v. 40, pp. 784a",Edwin Francis Gay,201104
1193343,"Stanley, W. F.",Unlisted,The Firm Stockholder Relations          (14.221),U.S.,Northern America,,July 1950,Journal Article,"Harvard Business Review, July 1950, v. 28, iss. 4, pp. 66-72",A key to good stockholder relations,201104
1189481,"Roller, E. F.",Unlisted,Agricultural Cooperatives General          (16.60),U.S.,Northern America,,November 1950,Journal Article,"Journal of Farm Economics, November 1950, v. 32, pp. 1048-58",Vertical integration of agricultural cooperatives,201104
1194902,"Elder, A. A.",Unlisted,Textiles. Leather. Clothing General          (15.5260)Trade Union Organization Structure. Organization. Administration          (19.43),U.S.,Northern America,,July 1950,Journal Article,"Industrial and Labor Relations Review, July 1950, v. 3, pp. 627-29",The International Ladies' Garment Workers' Union Training Institute,201104
1190170,"Curran, K. J.",Unlisted,Tying and Exclusive Dealing Contracts          (15.344),U.S.,Northern America,,October 1950,Journal Article,"Journal of Marketing, October 1950, v. 15, pp. 133-44",Exclusive dealing and public policy,201104
1193180,"Gaertner, J. A.",Unlisted,Urban-Metropolitan Studies Redevelopment          (22.31),,,,February 1950,Journal Article,"Land Economics, February 1950, v. 26, pp. 84-87",Does urban planning change civic attitudes?,201104
1193187,"Pronin, D.",Unlisted,Land Economics Conservation          (17.32),Russia; U.S.S.R.,Asia; Europe,,February 1950,Journal Article,"Land Economics, February 1950, v. 26, pp. 97-99","'Soil conservation in the USSR,' a reply",201104
1195768,"Soper, C. S.",Unlisted,Stability of Market Equilibrium          (2.1321),,,,December 1950,Journal Article,"Economic Journal, December 1950, v. 60, pp. 839",Risk and the cobweb theorem,201104
1191511,"Laight, J. C.",Unlisted,Railroads General          (15.820),Africa; South Africa,Africa,,September 1950,Journal Article,"South African Journal of Economics, September 1950, v. 18, pp. 296-306",Railway expenditure and the volume of traffic. [Review],201104
1192107,"Ahmed, R.",Unlisted,Structure of International Trade General          (11.20)Textiles. Leather. Clothing General          (15.5260),India; Nepal; Pakistan,Asia,,December 1950,Journal Article,"Pakistan Economic Journal, December 1950, v. 2, iss. 2, pp. 52-65",Indo-Pakistan trade with special reference to jute,201104
1194150,"Shepherd, G.",Unlisted,Agriculture Government Programs and Policies Price and Income Policies Price Supports and Stabilization Policies          (16.721),U.S.,Northern America,,November 1950,Journal Article,"Journal of Farm Economics, November 1950, v. 32, pp. 954-55",CCC operations and marketing discussion,201104
1192393,"Lovett, R. W.",Unlisted,Distributive Trades History          (15.541),,,,December 1950,Journal Article,"Business History Review, December 1950, v. 24, pp. 210-15",Publisher and advertiser extraordinary [of Maine] the E. C. Allen collection,201104
1189532,"Powell, J. C.",Unlisted,Agricultural Information and Education Services          (16.04)Land Economics Ownership and Tenure General          (17.340),,,,November 1950,Journal Article,"Journal of Farm Economics, November 1950, v. 32, pp. 1076-99",The landlord-tenant relationship program in North Carolina,201104
1190158,"Domar, E. D.",Unlisted,"Capitalist System          (3.1)Socialist, Marxist, Communist Schools General          (4.50)History of Economic Thought. Biography Individuals (A-Z)          (4.8)",U.S.,Northern America,"VARGA, EUGEN",March 1950,Journal Article,"American Economic Review, March 1950, v. 40, pp. 132-51",The Varga controversy,201104
1192864,"Teper, L.",Unlisted,Wage Differentials. Wage Structures Occupational          (19.331),U.S.,Northern America,,December 1950,Journal Article,"Industrial Relations Research Association. Proceedings, December 1950, v. 3, pp. 243-48",Collection and use of occupational wage statistics discussion,201104
1193724,"Turner, R. C.",Unlisted,Other Government Policies toward the Market. Public Enterprise Direct Controls General          (15.440),U.S.,Northern America,,March 1950,Journal Article,"Journal of Finance, March 1950, v. 5, pp. 3-23",Recent development and evaluation of direct controls,201104
1190863,"Kravis, I. B.; Mintzes, J.",Unlisted; Unlisted,Statistical Data (not Elsewhere Classified) Price          (8.54),Russia; U.S.S.R.,Asia; Europe,,May 1950,Journal Article,"Review of Economics and Statistics, May 1950, v. 32, pp. 164-68","Food prices in the Soviet Union, 1936-50",201104
1191101,"Reeves, H. C.; Spalding, H. A.",Unlisted; Unlisted,Property Tax          (10.43)Coal Mining          (15.532),,,,June 1950,Journal Article,"National Tax Journal, June 1950, v. 3, pp. 173-78",Assessment of coal producing properties in Kentucky,201104
1192809,"Cairns, J. F.",Unlisted,Discipline of Economic History          (5.01),,,,December 1950,Journal Article,"Economic Record, December 1950, v. 26, pp. 239-53",Some problems in the use of theory in history,201104
1193025,"Harris, M.",Unlisted,Land Economics Ownership and Tenure General          (17.340),,,,August 1950,Journal Article,"Land Economics, August 1950, v. 26, pp. 258-67",A new agricultural ladder,201104
1193238,"Sayers, R. S.",Unlisted,Technological Change General          (2.3440)Research. Innovation. Automation          (15.27),U.K.,Europe,,June 1950,Journal Article,"Economic Journal, June 1950, v. 60, pp. 275-91","The springs of technical progress in Britain, 1919-39",201104
1192089,"Sharif, M. R.",Unlisted,Property Tax          (10.43)Land Tenure Reform          (17.341),Pakistan,Asia,,August 1950,Journal Article,"Pakistan Economic Journal, August 1950, v. 2, iss. 1, pp. 55-64",Abolition of zamindari a financial proposition,201104
1189531,"Rao, B. S.",Unlisted,International Monetary Fund. Bank for International Settlements          (11.3331),,,,November 1950,Journal Article,"Economia Internazionale, November 1950, v. 3, pp. 1074-82",Exchange rate adjustments and the International Monetary Fund,201104
1191360,"Albertario, P.",Unlisted,Trade Policy General          (11.230),Italy,Europe,,July-September 1950,Journal Article,"Banca Nazionale del Lavoro Quarterly Review, July-September 1950, v. 3, pp. 181-92",Italian agriculture in the framework of the new customs tariff,201104
1190970,"Helleiner, K. F.",Unlisted,Economic History Medieval (to 1500)          (5.2)Security and Money Markets History          (9.51),Europe,Europe,,May 1950,Journal Article,"Canadian Journal of Economics and Political Science, May 1950, v. 16, pp. 242-47",Medieval money dealers. [Review],201104
1189229,"Isaac, J. E.",Unlisted,"Stabilization, Growth, and Employment Policies Wage Aspects          (12.32)",Australia; New Zealand,Oceania,,June 1950,Journal Article,"Economic Record, June 1950, v. 26, pp. 1-17",A wages policy for Australia,201104
1195510,"Seidman, J.",Unlisted,Trade Union Organization Political Aspects          (19.403),U.S.,Northern America,,October 1950,Journal Article,"Industrial and Labor Relations Review, October 1950, v. 4, pp. 55-69",Labor policy of the Communist Party during World War II.,201104
1192904,"Beck, M.",Unlisted,Income Tax Business General          (10.4220),U.S.,Northern America,,December 1950,Journal Article,"National Tax Journal, December 1950, v. 3, pp. 353",Ability to shift the corporate in- come tax seven industrial groups Correction,201104
1189522,"Lewis, R. A.",Unlisted,Railroads History          (15.821)Labor Supply. Labor Market History          (19.21),U.K.,Europe,,1950,Journal Article,"Economic History Review, Second Series, 1950, v. 3, iss. 1, pp. 107-18",Edwin Chadwick and the railway labourers,201104
