Abstract,Accession Number,Author,Author Affiliation,Availability,Availability Note,Descriptors,Geographic Descriptors,Geographic Region,ISSN,Keywords,Language,Named person,Publication Date,Publication Type,Publisher Information,Source,Title,Update Code
,0065747,"Kourilsky, Marilyn",,http//www.tandfonline.com.turing.library.northwestern.edu/loi/vece20,,Teaching of Economics          (0120),,,00220485,,,,Spring 1972,Journal Article,,"Journal of Economic Education, Spring 1972, v. 3, iss. 2, pp. 86-93",Learning Through Advocacy An Experimental Evaluation of an Adversary Instructional Model,199006
,0065137,"Ulveling, Edwin F.",,http//ajae.oxfordjournals.org.turing.library.northwestern.edu/content/by/year,,Agriculture--Farm Management          (7160)Land Ownership and Tenure; Land Reform          (7171),,,00029092,,,,February 1972,Journal Article,,"American Journal of Agricultural Economics, February 1972, v. 54, iss. 1, pp. 142-43","Optimal Sizes of Farms Under Varying Tenure Forms, Including Renting, Ownership, State, and Collective Structures Comment",199006
,0070066,"Enriquez, Bill",,http//lawschool.unm.edu/NRJ/,,Conservation and Pollution          (7220),U.S.; Mexico,Northern America; Latin America and the Caribbean,00280739,,,,October 1972,Journal Article,,"Natural Resources Journal, October 1972, v. 12, iss. 4, pp. 567-77",International Legal Implications of Industrial Development Along the Mexican-U.S. Border,199006
,0067664,"Vermerght, R.; Broeckx, F.",,,,"Consumer Economics--Living Standards, Composition of Overall Expenditures, and Empirical Consumption and Savings Studies          (9211)",Argentina; Brazil; Paraguay; Uruguay,Latin America and the Caribbean,00130575,,Dutch,,April 1972,Journal Article,,"Economisch en Sociaal Tijdschrift, April 1972, v. 26, iss. 2, pp. 121-29",Onderzoek naar koopkrachtpariteiten in vier Zuid-Amerikaanse landen. (Research of Purchasing Power in Four South-American Countries. With English summary.),199006
,0064818,"Dierker, Egbert",,http//www.econometricsociety.org/tocs.asp,,General Equilibrium and Disequilibrium Theory          (0210),,,00129682,,,,September 1972,Journal Article,,"Econometrica, September 1972, v. 40, iss. 5, pp. 951-53",Two Remarks on the Number of Equilibria of an Economy,199006
,0069349,"Paul, Robert J.",,,,Manpower Training and Development          (8110),U.S.,Northern America,,,,,Winter 1972,Journal Article,,"Marquette Business Review, Winter 1972, v. 16, iss. 4, pp. 171-79",Some Observations Concerning Perceptions of Development Programs-A Comparative Analysis,199006
,0067843,"Tsurumi, Hiroki",,http//onlinelibrary.wiley.com.turing.library.northwestern.edu/journal/10.1111/%28ISSN%291468-2354/issues,,Inflation and Deflation--General          (1340)Commercial Policy          (4220)Economic Studies of Developed Countries--North American Countries          (1228)Forecasting; Econometric Models--General          (1320)Wage and Fringe Benefit Studies          (8242),Canada,Northern America,00206598,,,,October 1972,Journal Article,,"International Economic Review, October 1972, v. 13, iss. 3, pp. 644-78",Effects of Wage-Parity and Price Synchronization between Canada and the United States on Canadian Economic Growth Simulation Experiments with a Macro-Model,199006
,0067613,"Sayers, R. S.",,http//onlinelibrary.wiley.com.turing.library.northwestern.edu/journal/10.1111/%28ISSN%291468-0297/issues,,History of Economic Thought--Individuals          (0322)Developments in General Macroeconomic Theory 1930-45          (0231),,,00130133,,,"Keynes, John Maynard",June 1972,Journal Article,,"Economic Journal, June 1972, v. 82, iss. 326, pp. 591-99",The Young Keynes,199006
,0064602,"Jain, Anil Kumar",,,,"National Taxation, Revenue, and Subsidies          (3230)",India,Asia,00074624,,,,July 1972,Journal Article,,"Bulletin for International Fiscal Documentation, July 1972, v. 26, iss. 7, pp. 276-94",The Problem of Income Tax Evasion in India,199006
,1207851,"McDonald, S. L.",Unlisted,,,Income Tax Business General          (10.4220)Extractive Industries Oil. Gas          (15.534)Minerals General          (17.70),U.S.,Northern America,,,,,September 1962,Journal Article,,"National Tax Journal, September 1962, v. 15, pp. 314-26",Percentage depletion and tax neutrality a reply to Messrs. Musgrave and Eldridge,201104
,0069888,"Goodnight, James; Wallace, T. D.",,http//www.econometricsociety.org/tocs.asp,,Distributed Correlated Disturbance Terms; Inferential Problems in Single Equation Models          (2113),,,00129682,,,,July 1972,Journal Article,,"Econometrica, July 1972, v. 40, iss. 4, pp. 699-709",Operational Techniques and Tables for Making Weak MSE Tests for Restrictions in Regressions,199006
,0068612,"Beckmann, Martin J.",,,,Theory of Regional Economics          (9411),,,03470520,,,,September 1972,Journal Article,,"Swedish Journal of Economics, September 1972, v. 74, iss. 3, pp. 405",On a Neoclassical Model of Land Use Reply,199006
,0066736,"Edmister, Robert O.",,http//journals.cambridge.org.turing.library.northwestern.edu/action/displayBackIssues?jid=JFQ,,Business Finance          (5210),,,00221090,,,,March 1972,Journal Article,,"Journal of Financial and Quantitative Analysis, March 1972, v. 7, iss. 2, pp. 1477-93",An Empirical Test of Financial Ratio Analysis for Small Business Failure Prediction,199006
,0066079,"Schultz, T. Paul",,http//www.aeaweb.org.turing.library.northwestern.edu/aer/,,Income Distribution          (2213),U.S.,Northern America,00028282,,,,May 1972,Journal Article,,"American Economic Review, May 1972, v. 62, iss. 2, pp. 361-62","Long-Term Changes in Personal Income Distribution Theoretical Approaches, Evidence, and Explanations",199006
,0847164,"Rowley, J. C. R.; Wilton, D. A.",Unlisted; Unlisted,,Information provided in collaboration with the RePEc Project http//repec.org,,,,,,,,1972,Working Paper,"Queen's University, Department of Economics, Working Papers","1972, pp. 39",The Sensitivity of Quarterly Models of Wage Determination to Aggregation Assumptions,200606
,0062375,"Govoni, Norman A. P.; Joyce, George",,http//journal.srsa.org/ojs/index.php/RRS/issue/archive,,Urban Economics and Public Policy          (9310)Industry Studies--Distributive Trades--Retail Trade          (6333)Economics of Minorities; Economics of Discrimination          (9170),U.S.,Northern America,0048749X,,,,Spring 1971-72,Journal Article,,"Review of Regional Studies, Spring 1971-72, v. 1, iss. 3, pp. 59-66",Structuring the Urban Business Environment Problems in Retail Business Relocation and Black Entrepreneurship,199006
,0065773,"Sauter, Richard F.; Walker, Orville C., Jr.",,http//www.marketingpower.com/jm,,Managerial Economics          (5120)Industry Studies--Distributive Trades--Retail Trade          (6333),,,,,,,April 1972,Journal Article,,"Journal of Marketing, April 1972, v. 36, iss. 2, pp. 58-61",Retailers' Reactions to Interest Limitation Laws-Additional Evidence,199006
,0068661,"Davis, J. Ronnie; Meyer, Charles W.",,http//ajae.oxfordjournals.org.turing.library.northwestern.edu/content/by/year,,"Agricultural Policy, Domestic and International          (7130)National Taxation, Revenue, and Subsidies          (3230)State and Local Government Taxation, Subsidies, and Revenue          (3242)",U.S.,Northern America,00029092,,,,August 1972,Journal Article,,"American Journal of Agricultural Economics, August 1972, v. 54, iss. 3, pp. 485-89",Farmer Conservatism and the Incidence of Taxes,199006
,0067298,"Bierman, Harold, Jr.",,http//aaapubs.org/loi/accr,,Accounting          (5410),,,00014826,,,,October 1972,Journal Article,,"Accounting Review, October 1972, v. 47, iss. 4, pp. 799-800","Discounted Cash Flows, Price-Level Adjustments and Expectations A Reply",199006
,0065044,"Sims, Christopher A.",,,,Time Series and Spectral Analysis          (2116)Macroeconomics--Theory of Aggregate Demand Investment          (0233),,,,,,,January 1972,Journal Article,,"Annals of Economic and Social Measurement, January 1972, v. 1, iss. 1, pp. 17-36",Are There Exogenous Variables in Short-Run Production Relations?,199006
,0066926,"Smith, Terry A.; Murry, Donald A.",,http//le.uwpress.org.turing.library.northwestern.edu/content/by/year,,Business Finance          (5210),,,00237639,,,,May 1972,Journal Article,,"Land Economics, May 1972, v. 48, iss. 2, pp. 198-201",'The Investor Capitalization Theory of the Cost of Equity Capital' A Comment,199006
,0067570,"Shukla, B. D.; Shukla, S. P.",,http//www.ndpublisher.in/ndpjournal.php?j=EA,,Agricultural Supply and Demand Analysis          (7110),India,Asia,04242513,,,,July 1972,Journal Article,,"Economic Affairs, July 1972, v. 17, iss. 7, pp. 329-32",Profitability of Wheat-Study in a Block of Uttar Pradesh,199006
,0069984,"Horwitz, Bertrand; Young, Allan",,http//onlinelibrary.wiley.com.turing.library.northwestern.edu/journal/10.1111/%28ISSN%291475-679X/issues,,Accounting          (5410)Market Structure Industrial Organization and Corporate Strategy          (6110),U.S.,Northern America,00218456,,,,Spring 1972,Journal Article,,"Journal of Accounting Research, Spring 1972, v. 10, iss. 1, pp. 96-107",An Empirical Study of Accounting Policy and Tender Offers,199006
,0070089,"Peacock, Alan T.",,,,National Government Budgeting and Deficits          (3226),,,00333476,,,,1972,Journal Article,,"Public Finance, 1972, v. 27, iss. 2, pp. 85-91",New Methods of Appraising Government Expenditure An Economic Analysis,199006
,1426523,"Hamermesh, Daniel",Unlisted,http//arks.princeton.edu.turing.library.northwestern.edu/ark/88435/dsp016m311p298,Information provided in collaboration with the RePEc Project http//repec.org,Time Allocation and Labor Supply          (J22),,,,,,,1972,Working Paper,412,1972,The Optimal Timing of Subsidies Triggers for Training Programs,201403
,1426526,"Frey, Donald",Unlisted,http//arks.princeton.edu.turing.library.northwestern.edu/ark/88435/dsp01fn106x93d,Information provided in collaboration with the RePEc Project http//repec.org,Retirement; Retirement Policies          (J26),,,,,,,1972,Working Paper,415,1972,The Economics of Federal Aid to Private Elementary and Secondary Schools,201403
,0067758,"Mace, Myles L.",,,,Business and Public Administration--General          (5130),,,,,,,March-April 1972,Journal Article,,"Harvard Business Review, March-April 1972, v. 50, iss. 2, pp. 37-49",The President and the Board of Directors,199006
,0068896,"Van Vre', Edw.",,,,"Industry Studies--Manufacturing--Chemicals, Drugs, Plastics, Ceramics, Glass, Cement, and Rubber          (6315)Economics of Health (including medical subsidy programs)          (9130)",,,00130575,,Dutch,,October 1972,Journal Article,,"Economisch en Sociaal Tijdschrift, October 1972, v. 26, iss. 5, pp. 375-82",Inleiding tot de farmaceutische marketing. (An Introduction to Pharmaceutical Marketing. With English summary.),199006
,0065989,"Eisel, L. M.",,http//onlinelibrary.wiley.com.turing.library.northwestern.edu/journal/10.1002/%28ISSN%291944-7973/issues,,Land Development; Land Use; Irrigation Policy          (7172),,,00431397,,,,April 1972,Journal Article,,"Water Resources Research, April 1972, v. 8, iss. 2, pp. 339-47",Chance Constrained Reservoir Model,199006
,0065862,"Jack, Homer",,http//www.bls.gov/opub/mlr/#,,"Wage and Fringe Benefit Studies          (8242)Industry Studies--Extractive Industries--Oil, Gas, and Other Fuels          (6323)",U.S.,Northern America,00981818,,,,May 1972,Journal Article,,"Monthly Labor Review, May 1972, v. 95, iss. 5, pp. 54-55",Wages in Petroleum Refining,199006
,0067532,"Hvoreck&, Jozef",,,,Economic Integration--Policy and Empirical Studies          (4233),Czech Republic; CMEA,Europe,00459461,,,,May 1972,Journal Article,,"Czechoslovak Economic Digest, May 1972, iss. 3, pp. 20-46",Czechoslovakia's Basic Economic Relations with Member Countries of the Council for Mutual Economic Assistance,199006
,0065399,"Weeks, John",,http//rrp.sagepub.com.turing.library.northwestern.edu/content/by/year,,Economic Development Models and Theories          (1120)Theory of International Trade and Economic Development          (4114),,,04866134,,,,Spring 1972,Journal Article,,"Review of Radical Political Economics, Spring 1972, v. 4, iss. 1, pp. 59-70","Employment, Growth, and Foreign Domination in Underdeveloped Countries",199006
,0067876,"Lambin, Jean-Jacques",,,,"Marketing and Advertising          (5310)Industry Studies--Extractive Industries--Oil, Gas, and Other Fuels          (6323)",,,00219398,,,,October 1972,Journal Article,,"Journal of Business, October 1972, v. 45, iss. 4, pp. 585-619",Is Gasoline Advertising Justified?,199006
,0066358,"Tersine, Richard J.; Rudko, William",,http//www.tandfonline.com.turing.library.northwestern.edu/loi/utee20#.UdR_TayE7xU,,Business Investment          (5220),,,0013791X,,,,Spring 1972,Journal Article,,"Engineering Economist, Spring 1972, v. 17, iss. 3, pp. 157-76",A Bivariate Stochastic Approach to Capital Investment Decisions,199006
,0069623,"Neury, Jean-Emile",,,,Demographic Economics          (8410),Switzerland,Europe,03039692,,French,,December 1972,Journal Article,,"Schweizerische Zeitschrift fur Volkswirtschaft und Statistik, December 1972, v. 108, iss. 48, pp. 623-41",Quelques remarques a propos du recensement federal de la population de decembre 1970. (A Few Remarks on the Federal Census in December 1970. With English summary.),199006
,0065101,"Scadding, J. L.",,http//www.aeaweb.org.turing.library.northwestern.edu/aer/,,Domestic Monetary Theory; Empirical Studies Illustrating Theory          (3112),,,00028282,,,,March 1972,Journal Article,,"American Economic Review, March 1972, v. 62, iss. 1, pp. 151-54",Allais' Restatement of the Quantity Theory of Money Note,199006
,0713020,"Grieson, R.",Unlisted,,Information provided in collaboration with the RePEc Project http//repec.org,,,,,,,,1972,Working Paper,"Massachusetts Institute of Technology (MIT), Department of Economics, Working papers 83",1972,The Incidence of Profits Taxes in a Neo-Classical Growth Model,200404
,0847145,"Tsurumi, Hiroki",Unlisted,,Information provided in collaboration with the RePEc Project http//repec.org,,,,,,,,1972,Working Paper,"Queen's University, Department of Economics, Working Papers","1972, pp. 17","A Comparison of Econometric Macro Models in the United States, Canada and Japan",200606
,0067680,"Mullineaux, Donald J.",,,,Inflation and Deflation--General          (1340)Capital Markets--General          (3130),,,,,,,October 1972,Journal Article,,"Federal Reserve Bank Business Review of Philadelphia, October 1972, pp. 3-12",Inflation Insurance An 'Escalator Clause' for Securities?,199006
,0068252,"Bush, Joseph C.",,http//www.bls.gov/opub/mlr/#,,"Wage and Fringe Benefit Studies          (8242)Occupation          (8120)Industry Studies--Manufacturing--Textiles, Leather, and Clothing          (6316)",U.S.,Northern America,00981818,,,,September 1972,Journal Article,,"Monthly Labor Review, September 1972, v. 95, iss. 9, pp. 59-60",Occupational Pay Relationships Hold Steady in Textiles,199006
,0067585,"Hakam, A. N.",,,,Economic Studies of Developing Countries--African Countries          (1215),Ghana,Africa,,,,,1972,Journal Article,,"Economic Bulletin of Ghana, Second Series, 1972, v. 2, iss. 2, pp. 3-31",Impediments to the Growth of Indigenous Industrial Entrepreneurship in Ghana 1946-1968,199006
,0066600,"Sandor, Richard L.",,,,Research and Development          (6212),U.S.,Northern America,00219398,,,,July 1972,Journal Article,,"Journal of Business, July 1972, v. 45, iss. 3, pp. 375-78",Some Empirical Findings on the Legal Costs of Patenting,199006
,0068384,"Cherniavskii, V.",,,,Socialist and Communist Economic Systems          (0520)Economic Planning Theory and Policy--General          (1130),U.S.S.R.,Asia; Europe,00329436,,,,December 1972,Journal Article,,"Problems of Economics, December 1972, v. 15, iss. 8, pp. 26-46",The Measure of Effectiveness,199006
,0065909,"Schydlowsky, Daniel M.",,http//qje.oxfordjournals.org.turing.library.northwestern.edu/content/by/year,,Commercial Policy          (4220),Latin America,Latin America and the Caribbean,00335533,,,,May 1972,Journal Article,,"Quarterly Journal of Economics, May 1972, v. 86, iss. 2, pp. 263-89",Latin American Trade Policies in the 1970's,199006
,0065259,"von Potobsky, G.",,http//onlinelibrary.wiley.com.turing.library.northwestern.edu/journal/10.1111/%28ISSN%291564-913X/issues,,Trade Unions          (8310),,,00207780,,,,January 1972,Journal Article,,"International Labour Review, January 1972, v. 105, iss. 15, pp. 69-83",Protection of Trade Union Rights Twenty Years' Work by the Committee on Freedom of Association,199006
,0067945,"Afriat, Sidney N.",,http//www.sciencedirect.com.turing.library.northwestern.edu/science/journal/00220531,,Microeconomic Theory--Theory of the Household (Consumer Demand)          (0222)Mathematical Methods and Models Existence and Stability Conditions of Equilibrium          (2133),,,00220531,,,,October 1972,Journal Article,,"Journal of Economic Theory, October 1972, v. 5, iss. 2, pp. 208-23",The Case of the Vanishing Slutsky Matrix,199006
,0066431,"Mergen, Bernard",,http//digitalcommons.ilr.cornell.edu.turing.library.northwestern.edu/ilrreview/,,Trade Unions          (8310)Occupation          (8120),U.S.,Northern America,00197939,,,,April 1972,Journal Article,,"Industrial and Labor Relations Review, April 1972, v. 25, iss. 3, pp. 354-62",Blacksmiths and Welders Identity and Phenomenal Change,199006
,0067435,"Adelman, Martin J.; Brooks, Ernie L.",,http//www.federallegalpublications.com/antitrust-bulletin/all,,Public Policy Towards Monopoly and Competition          (6120)Technological Change; Innovation; Research and Development General          (6210)International Business and Multinational Enterprises          (4420),U.S.,Northern America,0003603X,,,,Fall 1972,Journal Article,,"Antitrust Bulletin, Fall 1972, v. 17, iss. 3, pp. 763-90",Territorial Restraints in International Technology Agreements After TOPCO,199006
,0067950,"Goldman, Steven M.",,http//www.sciencedirect.com.turing.library.northwestern.edu/science/journal/00220531,,Domestic Monetary Theory; Empirical Studies Illustrating Theory          (3112)Inflation Theories; Studies Illustrating Inflation Theories          (1342),,,00220531,,,,October 1972,Journal Article,,"Journal of Economic Theory, October 1972, v. 5, iss. 2, pp. 250-57",Hyperinflation and the Rate of Growth in the Money Supply,199006
,0068166,"Neumann, Seev",,http//onlinelibrary.wiley.com.turing.library.northwestern.edu/journal/10.1111/%28ISSN%291539-6975/issues,,Inflation and Deflation--General          (1340)Industry Studies--Services--Insurance          (6356),,,00224367,,,,June 1972,Journal Article,,"Journal of Risk and Insurance, June 1972, v. 39, iss. 2, pp. 326-30",Inflation and Saving Through Life Insurance Reply,199006
,0065541,"Marris, Robin",,http//onlinelibrary.wiley.com.turing.library.northwestern.edu/journal/10.1111/%28ISSN%291468-0297/issues,,Microeconomics--Theory of Production          (0223),,,00130133,,,,Supplement March 1972,Journal Article,,"Economic Journal, Supplement March 1972, v. 82, iss. 325, pp. 321-52",Why Economics Needs a Theory of the Firm,199006
,0066836,"Perkins, William C.",,http//www.jstor.org.turing.library.northwestern.edu/action/showPublication?journalCode=jpoliecon,,Microeconomics--Theory of Firm and Industry under Imperfectly Competitive Market Structures          (0226),,,00223808,,,,March-April 1972,Journal Article,,"Journal of Political Economy, March-April 1972, v. 80, iss. 2, pp. 394-402",A Note on the Nature of Equilibrium in Monopolistic Competition,199006
,0065112,"Sheridan, Richard B.",,http//www.indiana.edu/~ahrweb/issues.html,,Comparative Intercountry or Intertemporal Economic History          (0412),Caribbean; Africa,Latin America and the Caribbean; Africa,00028762,,,,February 1972,Journal Article,,"American Historical Review, February 1972, v. 77, iss. 1, pp. 15-35",Africa and the Caribbean in the Atlantic Slave Trade,199006
,0069595,"Cebula, Richard J.",,,,Microeconomic Theory--Theory of the Household (Consumer Demand)          (0222),,,00356751,,,,September 1972,Journal Article,,"Rivista Internazionale di Scienze Economiche e Commerciali, September 1972, v. 19, iss. 9, pp. 894-905",Perfect Substitutes Some Notes,199006
,0064649,"Wood, Glenn L.; Rudelius, William",,http//onlinelibrary.wiley.com.turing.library.northwestern.edu/journal/10.1111/%28ISSN%291539-6975/issues,,Industry Studies--Services--Insurance          (6356),,,00224367,,,,December 1972,Journal Article,,"Journal of Risk and Insurance, December 1972, v. 39, iss. 4, pp. 651-52",The Product Performance of the Life Insurance Industry Revisited Comment,199006
,0066750,"Bellante, Donald M.",,http//jhr.uwpress.org.turing.library.northwestern.edu/content/by/year,,Economics of Health (including medical subsidy programs)          (9130)Manpower Training and Development          (8110),U.S.,Northern America,0022166X,,,,Spring 1972,Journal Article,,"Journal of Human Resources, Spring 1972, v. 7, iss. 2, pp. 226-41",A Multivariate Analysis of a Vocational Rehabilitation Program,199006
,0065470,"Chass, Robert L.",,http//cmr.berkeley.edu/currentissue.html,,Conservation and Pollution          (7220),U.S.,Northern America,00081256,,,,Spring 1972,Journal Article,,"California Management Review, Spring 1972, v. 14, iss. 3, pp. 92-103",Air Pollution Control The Case of Los Angeles County,199006
,0069569,"Weber, Andre Paul",,http//www.cairn.info/revue-economique.htm,,Commercial Policy          (4220)International Business and Multinational Enterprises          (4420),,,00352764,,French,,July 1972,Journal Article,,"Revue Economique, July 1972, v. 23, iss. 4, pp. 669-94",Entreprise multinationale et pratiques restrictives. (Multinational Firm and Commercial Restrictive Practices. With English summary.),199006
,1210834,"Eidelman, M.",Unlisted,,,Input-Output          (8.3),Russia; U.S.S.R.,Asia; Europe,,,,,August 1962,Journal Article,,"Problems of Economic Transition, August 1962, v. 5, iss. 4, pp. 3-13",Inter-branch balance of the social product and its economic content,201104
,0069650,"Hadar, Josef",,http//journal.southerneconomic.org/loi/soec,,Microeconomics--Theory of Firm and Industry under Imperfectly Competitive Market Structures          (0226),,,00384038,,,,July 1972,Journal Article,,"Southern Economic Journal, July 1972, v. 39, iss. 1, pp. 147-48",On the Predictive Content of Models of Monopolistic Competition Reply,199006
,0066541,"Chan, Linda S.; Dunn, Olive Jean",,http//amstat.tandfonline.com.turing.library.northwestern.edu/loi/uasa20,,"Econometric and Statistical Methods and Models Multivariate Analysis, Statistical Information Theory, and Other Special Inferential Problems; Queuing Theory; Markov Chains          (2114)",,,01621459,,,,June 1972,Journal Article,,"Journal of the American Statistical Association, June 1972, v. 67, iss. 338, pp. 473-77",The Treatment of Missing Values in Discriminant Analysis-I. The Sampling Experiment,199006
,0067726,"Kirk, Dudley",,,,Economic Studies of Developing Countries--General          (1210)Demographic Economics          (8410),,,01939025,,,,1972,Journal Article,,"Food Research Institute Studies, 1972, v. 11, iss. 1, pp. 3-10",Prospects for Reducing Birth Rates in Developing Countries The Interplay of Population and Agricultural Policies,199006
,0067114,"Shinkai, Yoichi",,http//www.mitpressjournals.org.turing.library.northwestern.edu/loi/rest,,Trade Relations          (4210),Japan,Asia,00346535,,,,May 1972,Journal Article,,"Review of Economics and Statistics, May 1972, v. 54, iss. 2, pp. 198-202",Elasticities of Substitution for the Japanese Imports,199006
,1208486,"Barnard, A.",Unlisted,,,Business Organization. Managerial Economics History          (14.1),,,,,,,August 1962,Journal Article,,"Business Archives and History, August 1962, v. 2, pp. 182-85",Company history and sociology,201104
,0064537,"Rosen, Josef",,,,Economic History--Europe--History of Product Prices and Markets          (0441),Switzerland,Europe,00130117,,,,February 1972,Journal Article,,"Economic History Review, Second Series, February 1972, v. 25, iss. 1, pp. 1-17","Prices and Public Finance in Basel, 1360-1535",199006
,0066533,"Hufner, Martin",,http//www.jbnst.de/de/,,One and Two Sector Growth Models and Related Topics          (1112)Productivity and Growth Theory and Data          (2260),,,00214027,,German,,February 1972,Journal Article,,"Jahrbucher fur Nationalokonomie und Statistik, February 1972, v. 186, iss. 3, pp. 203-16",Die Bedeutung des Gerschenkron-Effekts fur den Wachstumsprozess. (The Significance of the Gerschenkron-Effect for Economic Growth. With English summary.),199006
,0068532,"Hart, R. A.",,http//onlinelibrary.wiley.com.turing.library.northwestern.edu/journal/10.1111/%28ISSN%291467-9485,,Labor Mobility; National and International Migration          (8230)Regional Statistics          (2280),U.K.,Europe,00369292,,,,June 1972,Journal Article,,"Scottish Journal of Political Economy, June 1972, v. 19, iss. 2, pp. 151-73",The Economic Influences on Internal Labour Force Migration,199006
,0068630,"Bruvold, William H.",,http//onlinelibrary.wiley.com.turing.library.northwestern.edu/journal/10.1002/%28ISSN%291944-7973/issues,,Natural Resources--General          (7210),,,00431397,,,,October 1972,Journal Article,,"Water Resources Research, October 1972, v. 8, iss. 5, pp. 1145-50",Public Opinion and Knowledge concerning New Water Sources in California,199006
,0067722,"Vardey, David A.",,http//www.mohr.de/en/journals/economics/finanzarchiv-fa/current-issue.html,,Fiscal Theory and Policy--General          (3210)Intergovernmental Financial Relationships          (3250),,,00152218,,,,1972,Journal Article,,"FinanzArchiv, 1972, v. 31, iss. 1, pp. 69-88",Integovernmental Transfers and Pareto-Optimality,199006
,0689129,"Hirshleifer, Jack",UCLA,http//www.econ.ucla.edu.turing.library.northwestern.edu/workingpapers/wp010.pdf,Information provided in collaboration with the RePEc Project http//repec.org,,,,,,,,1972,Working Paper,"UCLA Department of Economics, UCLA Economics Working Papers 010",1972,Social Time-Preference,200404
,0069895,"Schmeidler, David; Vind, Karl",,http//www.econometricsociety.org/tocs.asp,,General Equilibrium and Disequilibrium Theory          (0210),,,00129682,,,,July 1972,Journal Article,,"Econometrica, July 1972, v. 40, iss. 4, pp. 637-42",Fair Net Trades,199006
,0069407,"Neenan, William B.",,http//ntj.tax.org,,"State and Local Government Taxation, Subsidies, and Revenue          (3242)Urban Economics and Public Policy          (9310)",,,00280283,,,,December 1972,Journal Article,,"National Tax Journal, December 1972, v. 25, iss. 4, pp. 605-08",Suburban-Central City Exploitation Thesis Reply,199006
,0065437,"Ferber, Marianne Abeles",,http//www.aeaweb.org.turing.library.northwestern.edu/aer/,,Demographic Economics          (8410),,,00028282,,,,June 1972,Journal Article,,"American Economic Review, June 1972, v. 62, iss. 3, pp. 451s","Peasants, Procreation, and Pensions Comment",199006
"On an infinitely-extensible plane, the socially-optimal configuration of firms is a regular hexagonal lattice. Will the free market necessarily produce this configuration? We argue the currently-accepted answer, yes, was erroneously derived from models where equilibrium conditions are asserted rather than being derived. We answer the above question, no, showing that in the standard location model a) many configurations satisfy the equilibrium conditions; and b) if a hexagonal configuration is initially imposed, it is less likely to persist through successive rounds of entry than is a square or rectangular configuration.",0847155,"Eaton, B. Curtis; Lipsey, Richard G.",Unlisted; Unlisted,,Information provided in collaboration with the RePEc Project http//repec.org,,,,,,,,1972,Working Paper,"Queen's University, Department of Economics, Working Papers","1972, pp. 40",Unsuspected Perversities in the Theory of Location,200606
,0068023,"Aaker, David A.",,http//www.marketingpower.com/jmr,,Marketing and Advertising          (5310),,,00222437,,,,May 1972,Journal Article,,"Journal of Marketing Research, May 1972, v. 9, iss. 2, pp. 160-67",A Measure of Brand Acceptance,199006
,0065928,"Riew, John",,http//www.mitpressjournals.org.turing.library.northwestern.edu/loi/rest,,Economics of Education          (9120),,,00346535,,,,February 1972,Journal Article,,"Review of Economics and Statistics, February 1972, v. 54, iss. 1, pp. 100",Scale Economies in Public Schools,199006
,0064893,"DeVoretz, Don J.",,,,Labor Mobility; National and International Migration          (8230)Human Capital; Value of Human Life          (8510)Labor Economics Theory and Empirical Studies Illustrating Theory          (8210),Philippines,Asia,00317500,,,,1st Semester 1972,Journal Article,,"Philippine Economic Journal, 1st Semester 1972, v. 11, iss. 1, pp. 58-80",Migration in a Labor Surplus Economy,199006
,0068556,"Kadiyala, Koteswara Rao",,http//journal.southerneconomic.org/loi/soec,,Microeconomics--Theory of Production          (0223),,,00384038,,,,January 1972,Journal Article,,"Southern Economic Journal, January 1972, v. 38, iss. 3, pp. 281-84",Production Functions and Elasticity of Substitution,199006
,0065158,"Kissick, William L.; Martin, Samuel P.",,http//ann.sagepub.com.turing.library.northwestern.edu/content/by/year,,Economics of Health (including medical subsidy programs)          (9130),U.S.,Northern America,00027162,,,,January 1972,Journal Article,,"Annals of the American Academy of Political and Social Science, January 1972, v. 399, pp. 151-59",Issues of the Future in Health,199006
,0066946,"Copes, Parzival",,,,Natural Resources--General          (7210),,,00252034,,,,June 1972,Journal Article,,"Manchester School of Economic and Social Studies, June 1972, v. 40, iss. 2, pp. 145-63","Factor Rents, Sole Ownership and the Optimum Level of Fisheries Exploitation",199006
,0068017,"Sexton, Donald E., Jr.",,http//www.marketingpower.com/jm,,Consumer Economics--Expenditure Patterns and Consumption of Specific Items          (9212)Marketing and Advertising          (5310),,,,,,,October 1972,Journal Article,,"Journal of Marketing, October 1972, v. 36, iss. 4, pp. 36-39",Black Buyer Behavior,199006
,0068843,"Singh, Karam; Sondhi, Rajinder",,http//www.ndpublisher.in/ndpjournal.php?j=EA,,Agriculture--Farm Management          (7160),India,Asia,04242513,,,,November 1972,Journal Article,,"Economic Affairs, November 1972, v. 17, iss. 11, pp. 524-32","Farm Size, Economic Efficiency and Resource Requirements",199006
,0070084,"Hayes, Frederick O'R.",,,,State and Local Government Expenditures and Budgeting          (3241),U.S.,Northern America,00333476,,,,1972,Journal Article,,"Public Finance, 1972, v. 27, iss. 2, pp. 161-66",New Approaches to Budgetary Analysis-New York City as a Case Study,199006
,0069504,"Stevens, Guy V. G.",,http//restud.oxfordjournals.org.turing.library.northwestern.edu/content/by/year,,,,,00346527,,,,October 1972,Journal Article,,"Review of Economic Studies, October 1972, v. 39, iss. 4, pp. 461-68",On Tobin's Multiperiod Portfolio Theorem,199006
,0070198,"Lybeck, Johan A.",,,,Domestic Monetary Theory; Empirical Studies Illustrating Theory          (3112),Sweden,Europe,03470520,,,,December 1972,Journal Article,,"Swedish Journal of Economics, December 1972, v. 74, iss. 4, pp. 459-67",A Note on the Short-Run Demand for Money in Sweden,199006
,0067568,"Pal, D. N.",,http//www.ndpublisher.in/ndpjournal.php?j=EA,,National Government Debt Management          (3228)Economic Studies of Developing Countries--Asian Countries          (1214),India,Asia,04242513,,,,July 1972,Journal Article,,"Economic Affairs, July 1972, v. 17, iss. 7, pp. 347-56",India's Public Debt and Economic Development,199006
,0065742,"Wu, Hsiu-Kwang",,http//journals.cambridge.org.turing.library.northwestern.edu/action/displayBackIssues?jid=JFQ,,"Capital Markets--Empirical Studies, Including Regulation          (3132)",,,00221090,,,,January 1972,Journal Article,,"Journal of Financial and Quantitative Analysis, January 1972, v. 7, iss. 1, pp. 1321-41",Odd-Lot Trading in the Stock Market and Its Market Impact,199006
,1028220,"Hoyt, John S., Jr.",Unlisted,http//purl.umn.edu/13686,Information provided in collaboration with the RePEc Project http//repec.org,,,,,"Public Economics,",,,1972,Working Paper,"University of Minnesota, Department of Applied Economics, Staff Papers 13686",1972,A NEW APPROACH TOWARD FINANCING PUBLIC EDUCATION IN MINNESOTA,200905
,0065522,"Claus, R. J.; Rothwell, D. C.; Bottomley, J.",,http//onlinelibrary.wiley.com.turing.library.northwestern.edu/journal/10.1111/(ISSN)1944-8287/issues,,Industry Studies--Distributive Trades--Retail Trade          (6333)Economic Geography          (7310)Regional Economic Studies          (9412)Urban Economics and Public Policy          (9310),Canada,Northern America,00130095,,,,April 1972,Journal Article,,"Economic Geography, April 1972, v. 48, iss. 2, pp. 168-78",Measuring the Quality of a Low-Order Retail Site,199006
,0068825,"Ramsey, James B.",,http//www.econometricsociety.org/tocs.asp,,Microeconomic Theory--Theory of the Household (Consumer Demand)          (0222),,,00129682,,,,March 1972,Journal Article,,"Econometrica, March 1972, v. 40, iss. 2, pp. 327-41",Limiting Functional Forms for Market Demand Curves,199006
,0066898,"Krainer, Robert E.",,http//onlinelibrary.wiley.com.turing.library.northwestern.edu/journal/10.1111/%28ISSN%291467-6435/issues,,International Business and Multinational Enterprises          (4420)Business Finance          (5210),U.S.,Northern America,00235962,,,,1972,Journal Article,,"Kyklos, 1972, v. 25, iss. 3, pp. 553-74",The Valuation and Financing of the Multi-National Firm,199006
,0067017,"Lindsay, C. M.",,http//ntj.tax.org,,"Fiscal Theory; Empirical Studies Illustrating Fiscal Theory          (3212)National Taxation, Revenue, and Subsidies          (3230)",,,00280283,,,,March 1972,Journal Article,,"National Tax Journal, March 1972, v. 25, iss. 1, pp. 43-52",Two Theories of Tax Deductibility,199006
,0067028,"Boyd, John",,http//lawschool.unm.edu/NRJ/,,Conservation and Pollution          (7220),U.S.,Northern America,00280739,,,,April 1972,Journal Article,,"Natural Resources Journal, April 1972, v. 12, iss. 2, pp. 298-305",Citizen Enforcement of the Refuse Act Qui Tam Pro Domino Rege Quam Pro Se Ipso In Hoc Parte Sequitur Flops; Mandamus Next?,199006
,0069750,"Weddepohl, H. N.",,,,General Equilibrium and Disequilibrium Theory          (0210),,,00443158,,,,September 1972,Journal Article,,"Zeitschrift fur Nationalokonomie, September 1972, v. 32, iss. 2-3, pp. 163-87",Duality and Equilibrium,199006
,0064641,"Becker, Gary S.",,http//www.jstor.org.turing.library.northwestern.edu/action/showPublication?journalCode=jpoliecon,,Human Capital; Value of Human Life          (8510)Social Indicators Data and Analysis          (2250),U.S.,Northern America,00223808,,,,Part 2 May-June 1972,Journal Article,,"Journal of Political Economy, Part 2 May-June 1972, v. 80, iss. 3, pp. S252-S55",Schooling and Inequality from Generation to Generation Comment,199006
,0067798,"Ferrari, Francesco",,,,"Fiscal Theory; Empirical Studies Illustrating Fiscal Theory          (3212)National Taxation, Revenue, and Subsidies          (3230 June 1972)",,,,,Italian,,January-March; April-June 1972,Journal Article,,"L'Industria, January-March; April-June 1972, iss. 1-2, pp. 82-100",Il gravame di un'imposta generale sugli scambi a cascata ad aliquota uniforme. (The Burden of a General Uniform Rate Turnover Tax. With English summary.),199006
,0068754,"Saraceno, Pasquale",,http//www.bancariaeditrice.it/prodotti/vedi/categoria/id/278/archivio-sommari,,"Economic History--Europe--History of Public Economic Policy, all levels          (0443)",Italy,Europe,00054623,,Italian,,October 1972,Journal Article,,"Bancaria, October 1972, v. 28, iss. 10, pp. 1248-63",Un secolo di attivita bancaria nell'economia valtellinese. (A Century of Banking in the Economy of the Valtellina. With English summary.),199006
,0068915,"Bouska, Jiri",,,,"Construction, Analysis, and Use of Econometric Models          (2120)",Czech Republic,Europe,00133027,,Czech,,1972,Journal Article,,"Ekonomicko-Matematicky Obzor, 1972, v. 8, iss. 4, pp. 361-68",Vvaha o tendencich v ekonomicko-matematickem vyzkumu. (Trends in development of Mathematical Methods in Economy. With English summary.),199006
,0067770,"Guither, Harold D.",,,,Agricultural Markets and Marketing; Cooperatives          (7150),,,,,,,July 1972,Journal Article,,"Illinois Agricultural Economics, July 1972, v. 12, iss. 2, pp. 29-31",How Illinois Farmers View Bargaining in Agriculture,199006
,0069649,"Frenkel, Jacob A.",,http//journal.southerneconomic.org/loi/soec,,Theory of Protection          (4113),,,00384038,,,,July 1972,Journal Article,,"Southern Economic Journal, July 1972, v. 39, iss. 1, pp. 119-20","Tariffs, Subsidies and Community Indifference Curves",199006
