Abstract,Accession Number,Author,Author Affiliation,Availability,Availability Note,Descriptors,Geographic Descriptors,Geographic Region,ISSN,Keywords,Language,Named person,Publication Date,Publication Type,Publisher Information,Source,Title,Update Code
,0078338,"Barnett, Rosalind C.",,,,Occupation          (8120),U.S.,Northern America,,,,,May-June 1974,Journal Article,,"Harvard Business Review, May-June 1974, v. 52, iss. 3, pp. 7-8","Johnnie Will Be an Executive, and Janie Will Be A . . .",199006
,1194258,"Knox, F. A.",Unlisted,,,Economic Integration. Customs Unions General          (11.40),Europe,Europe,,,,,November 1951,Journal Article,,"Journal of Farm Economics, November 1951, v. 33, pp. 601-12",European economic integration and world trade policy,201104
,0080991,"Krzyzaniak, Marian",,,,"Fiscal Theory; Empirical Studies Illustrating Fiscal Theory          (3212)International Business and Multinational Enterprises          (4420)National Taxation, Revenue, and Subsidies          (3230)National Government Expenditures          (3221)",,,00485853,,,,October 1974,Journal Article,,"Public Finance Quarterly, October 1974, v. 2, iss. 4, pp. 485-89",Comments Taxation of Foreign Firms A Note on Karageorgas's Requirements for Horizontal Equity,199006
,0079177,"Galenson, David",,http//journals.cambridge.org.turing.library.northwestern.edu/action/displayBackIssues?jid=JEH,,Economic History--United States and North America--History of Product Prices and Markets          (0421),U.S.,Northern America,00220507,,,,June 1974,Journal Article,,"Journal of Economic History, June 1974, v. 34, iss. 2, pp. 350-64",The End of the Chisholm Trail,199006
,1190654,"Keezer, D. M.",Unlisted,,,Strikes. Disputes. Methods of Settlement Mediation and Arbitration          (19.63),U.S.,Northern America,,,,,December 1951,Journal Article,,"Industrial Relations Research Association. Proceedings, December 1951, v. 4, pp. 157-59",The function of arbitration in labor relations discussion,201104
,0082065,"Tabak, Michael L.",,http//www.yalelawjournal.org/current-issue/,,Economics of Poverty          (9140)Housing Economics (including urban and nonurban housing)          (9320),U.S.,Northern America,00440094,,,,December 1974,Journal Article,,"Yale Law Journal, December 1974, v. 84, iss. 2, pp. 294-323",Federal Compensation for Victims of the 'Homeownership for the Poor' Program,199006
,0079803,"Benham, Lee",,http//www.jstor.org.turing.library.northwestern.edu/action/showPublication?journalCode=jpoliecon,,"Human Capital; Value of Human Life          (8510)Demographic Economics          (8410)Productivity Studies Labor, Capital, and Total Factor          (8250)",U.S.,Northern America,00223808,,,,Part 2 March-April 1974,Journal Article,,"Journal of Political Economy, Part 2 March-April 1974, v. 82, iss. 2, pp. S57-S71",Benefits of Women's Education within Marriage,199006
,0077621,"Mishra, G. P.",,http//www.ndpublisher.in/ndpjournal.php?j=EA,,Inflation Theories; Studies Illustrating Inflation Theories          (1342),India,Asia,04242513,,,,October-November 1974,Journal Article,,"Economic Affairs, October-November 1974, v. 19, iss. 10-11, pp. 441-54",Dynamics of Inflation in India,199006
,0078141,"Kennedy, W. P.",,http//www.sciencedirect.com.turing.library.northwestern.edu/science/journal/00144983,,Economic History--Europe--General          (0440),U.K.,Europe,00144983,,,,Summer 1974,Journal Article,,"Explorations in Economic History, Summer 1974, v. 11, iss. 4, pp. 415-44","Foreign Investment, Trade and Growth in the United Kingdom, 1870-1913",199006
,0076210,"Hicks, W. Whitney",,http//link.springer.com.turing.library.northwestern.edu/journal/volumesAndIssues/13524,,Economic Studies of Developing Countries--Latin American and Caribbean Countries          (1216)Demographic Economics          (8410),Mexico,Latin America and the Caribbean,00703370,,,,August 1974,Journal Article,,"Demography, August 1974, v. 11, iss. 3, pp. 407-21","Economic Development and Fertility Change in Mexico, 1950-1970",199006
,0079529,"Merville, Larry J.; Tavis, L. A.",,http//journals.cambridge.org.turing.library.northwestern.edu/action/displayBackIssues?jid=JFQ,,Business Investment          (5220)Business Finance          (5210),,,00221090,,,,January 1974,Journal Article,,"Journal of Financial and Quantitative Analysis, January 1974, v. 9, iss. 1, pp. 107-15",A Total Real Asset Planning System,199006
,0077688,"Baldwin, Robert E.; Weisbrod, Burton A.",,http//www.jstor.org.turing.library.northwestern.edu/action/showPublication?journalCode=econdevecultchan,,"Economics of Health (including medical subsidy programs)          (9130)Productivity Studies Labor, Capital, and Total Factor          (8250)",W. Indies,Latin America and the Caribbean,00130079,,,,April 1974,Journal Article,,"Economic Development and Cultural Change, April 1974, v. 22, iss. 3, pp. 414-35",Disease and Labor Productivity,199006
,0689092,"Thompson, Earl A.",UCLA,http//www.econ.ucla.edu.turing.library.northwestern.edu/workingpapers/wp049.pdf,Information provided in collaboration with the RePEc Project http//repec.org,,,,,,,,1974,Working Paper,"UCLA Department of Economics, UCLA Economics Working Papers 049",1974,The Optimal Role of the Government in a Competitive Equilibrium with Transaction Costs,200404
,1028089,"Maki, Wilbur R.",Unlisted,http//purl.umn.edu/13817,Information provided in collaboration with the RePEc Project http//repec.org,,,,,"Public Economics,",,,1974,Working Paper,"University of Minnesota, Department of Applied Economics, Staff Papers 13817",1974,LOCAL FUNDING OF RURAL PUBLIC SERVICES,200905
,0077309,"Mazzolini, Renato",,http//cmr.berkeley.edu/currentissue.html,,Economic Integration--General          (4230)Market Structure Industrial Organization and Corporate Strategy          (6110),EEC,Europe,00081256,,,,Spring 1974,Journal Article,,"California Management Review, Spring 1974, v. 16, iss. 3, pp. 43-51",European Transnational Concentration,199006
,0082034,"Lall, Sanjaya",,http//www.sciencedirect.com.turing.library.northwestern.edu/science/journal/0305750X,,Economic Development Models and Theories          (1120)Economic Studies of Developing Countries--General          (1210)International Investment and Long-term Capital Movements--General          (4410),,,0305750X,,,,April-May 1974,Journal Article,,"World Development, April-May 1974, v. 2, iss. 4&5, pp. 43-48",Less-Developed Countries and Private Foreign Direct Investment A Review Article,199006
,0079780,"Goldstein, Henry N.",,http//onlinelibrary.wiley.com.turing.library.northwestern.edu/journal/10.1111/%28ISSN%291538-4616/issues,,International Monetary Arrangements          (4320),,,00222879,,,,November 1974,Journal Article,,"Journal of Money, Credit, and Banking, November 1974, v. 6, iss. 4, pp. 567-70",Can SDRs and a Reserve Currency Coexist? A Comment,199006
,0079200,"Timberlake, Richard H., Jr.",,http//journals.cambridge.org.turing.library.northwestern.edu/action/displayBackIssues?jid=JEH,,"Economic History--United States and North America--History of Public Economic Policy (all levels)          (0423)Domestic Monetary Policy, Including All Central Banking Topics          (3116)",U.S.,Northern America,00220507,,,,December 1974,Journal Article,,"Journal of Economic History, December 1974, v. 34, iss. 4, pp. 835-50",Denominational Factors in Nineteenth-Century Currency Experience,199006
,0076259,"Livi-Bacci, Massimo",,http//www.tandfonline.com.turing.library.northwestern.edu/loi/rpst20,,Demographic Economics          (8410),W. Europe,Europe,00324728,,,,July 1974,Journal Article,,"Population Studies, July 1974, v. 28, iss. 2, pp. 191-204",Population Policy in Western Europe,199006
,0077716,"Nelson, Richard R.",,http//www.jstor.org.turing.library.northwestern.edu/action/showPublication?journalCode=econdevecultchan,,Economic Development Models and Theories          (1120)Economic Studies of Developing Countries--General          (1210)Technological Change and Innovation          (6211),,,00130079,,,,October 1974,Journal Article,,"Economic Development and Cultural Change, October 1974, v. 23, iss. 1, pp. 61-77",Less Developed Countries-Technology Transfer and Adaptation The Role of the Indigenous Science Community,199006
,0081164,"Schmalensee, Richard",,http//restud.oxfordjournals.org.turing.library.northwestern.edu/content/by/year,,Microeconomics--Theory of Firm and Industry under Imperfectly Competitive Market Structures          (0226)Microeconomics--Theory of Production          (0223),,,00346527,,,,April 1974,Journal Article,,"Review of Economic Studies, April 1974, v. 41, iss. 2, pp. 277-87","Market Structure, Durability, and Maintenance Effort",199006
,0076900,"Holbrook, Robert S.",,,,"Mathematical Methods and Models--Optimization Techniques          (2132)Forecasting and Econometric Models--Theory and Methodology          (1324)Construction, Analysis, and Use of Econometric Models          (2120)",U.S.,Northern America,,,,,January 1974,Journal Article,,"Annals of Economic and Social Measurement, January 1974, v. 3, iss. 1, pp. 155-75",A Practical Method for Controlling a Large Nonlinear Stochastic System,199006
,0081642,"Hahn, Young Ki",,http//onlinelibrary.wiley.com.turing.library.northwestern.edu/journal/10.1111/%28ISSN%291813-6982/issues,,Theory of International Trade and Economic Development          (4114)International Investment and Long-term Capital Movements--General          (4410),S. Korea,Asia,00382280,,,,March 1974,Journal Article,,"South African Journal of Economics, March 1974, v. 42, iss. 1, pp. 85-94",The Effect of Foreign Resources on Domestic Savings,199006
,0081623,"Horlick, Max; Tracy, Martin B.",,http//www.ssa.gov/policy/docs/ssb/,,Social Security          (9150),,,00377910,,,,July 1974,Journal Article,,"Social Security Bulletin, July 1974, v. 37, iss. 7, pp. 33-36, 39",Adjustment of Old-Age Pensions in Foreign Programs,199006
,0079782,"Jaffee, Dwight M.",,http//onlinelibrary.wiley.com.turing.library.northwestern.edu/journal/10.1111/%28ISSN%291538-4616/issues,,"Financial Intermediaries          (3140)Domestic Monetary Policy, Including All Central Banking Topics          (3116)Mortgage Market          (3152)",U.S.,Northern America,00222879,,,,November 1974,Journal Article,,"Journal of Money, Credit, and Banking, November 1974, v. 6, iss. 4, pp. 537-49",What to do about Savings and Loan Associations?,199006
,0081646,"Strydom, P. D. F.",,http//onlinelibrary.wiley.com.turing.library.northwestern.edu/journal/10.1111/%28ISSN%291813-6982/issues,,"Domestic Monetary Policy, Including All Central Banking Topics          (3116)",South Africa,Africa,00382280,,,,March 1974,Journal Article,,"South African Journal of Economics, March 1974, v. 42, iss. 1, pp. 1-11",Monetary Legislation in South Africa An Analysis,199006
,0077402,"Kiesling, Herbert J.",,http//onlinelibrary.wiley.com.turing.library.northwestern.edu/journal/10.1111/%28ISSN%291540-5982,,Fiscal Theory and Policy--General          (3210)Theory of International Trade          (4112)Welfare Theory--General          (0240),,,00084085,,,,August 1974,Journal Article,,"Canadian Journal of Economics, August 1974, v. 7, iss. 3, pp. 402-17",Public Goods and the Possibilities for Trade,199006
,0080601,"Olgaard, Anders",,http//www.econ.ku.dk/NF/National%C3%B8konomiskTidsskrift.asp,,Forecasting and Econometric Models--Theory and Methodology          (1324)Fiscal Theory; Empirical Studies Illustrating Fiscal Theory          (3212),Denmark,Europe,00280453,,Danish,,1974,Journal Article,,"Nationalokonomisk Tidsskrift, 1974, v. 112, iss. 2, pp. 249-66",Finanspolitikkens aktivitetsvirkninger-resultater fra SMEC II. (Effects of Fiscal Policy on Economic Activity-Some Results from SMEC II. With English summary.),199006
,0078967,"Stern, Louis W.; Sargent, William S.",,,,Consumer Economics; Levels and Standards of Living--General          (9210)Business and Public Administration--General          (5130),U.S.,Northern America,,,,,October 1974,Journal Article,,"Journal of Business Research, October 1974, v. 2, iss. 4, pp. 435-46",Comparative Prices and Pedagogy Toward Social Relevance in Marketing Education,199006
,0078715,"Bhagwat, Avinash; Onitsuka, Yusuke",,,,Trade Relations          (4210)Economic Studies of Developing Countries--General          (1210)Exchange Rates and Markets--Theory and Studies          (4314),LDCs,,00208027,,,,July 1974,Journal Article,,"International Monetary Fund Staff Papers, July 1974, v. 21, iss. 2, pp. 414-62",Export-Import Responses to Devaluation Experience of the Nonindustrial Countries in the 1960s,199006
,0081224,"Page, Walter P.",,http//www.mitpressjournals.org.turing.library.northwestern.edu/loi/rest,,Economic History--United States and North America--History of Product Prices and Markets          (0421)Agricultural Supply and Demand Analysis          (7110),U.S.,Northern America,00346535,,,,February 1974,Journal Article,,"Review of Economics and Statistics, February 1974, v. 56, iss. 1, pp. 110-14","Wheat Culture and Productivity Trends in Wheat Production in the United States, 1867-1914 A Comment",199006
The objective of the study reported here is to estimate separate supply functions for subregions of the U.S. and to determine if production does respond differently to determinants of milk production among the regions.,1028036,"Hammond, Jerome W.",Unlisted,http//purl.umn.edu/13870,Information provided in collaboration with the RePEc Project http//repec.org,,,,,"Livestock Production/Industries,",,,1974,Working Paper,"University of Minnesota, Department of Applied Economics, Staff Papers 13870",1974,REGIONAL MILK SUPPLY ANALYSIS,200905
,0080622,"Murphy, Pamela Paige",,http//lawschool.unm.edu/NRJ/,,Energy          (7230),U.S.,Northern America,00280739,,,,July 1974,Journal Article,,"Natural Resources Journal, July 1974, v. 14, iss. 3, pp. 411-22",Harnessing the Atomic Juggernaut The Need for Multi-Lateral Input in Nuclear Energy Decision-Making,199006
,0082083,"Dinkel, Reiner",,,,Social Choice--General          (0250),,,00442550,,German,,July 1974,Journal Article,,"Zeitschrift fur die gesamte Staatswissenschaft (JITE), July 1974, v. 130, iss. 3, pp. 494-514",Zur Ermittlung von Wechselwahlern anhand der offiziellen Wahlergebnisse. (With English summary.),199006
,0080915,"Frohlich, Norman; Oppenheimer, Joe A.",,http//link.springer.com.turing.library.northwestern.edu/journal/volumesAndIssues/11127,,"Fiscal Theory and Policy--General          (3210)State and Local Government Taxation, Subsidies, and Revenue          (3242)",,,00485829,,,,Fall 1974,Journal Article,,"Public Choice, Fall 1974, v. 19, pp. 43-61",The Carrot and the Stick Optimal Program Mixes for Entrepreneurial Political Leaders,199006
,0080960,"Friedlaender, Ann F.; Due, John F.",,,,"Fiscal Theory; Empirical Studies Illustrating Fiscal Theory          (3212)National Taxation, Revenue, and Subsidies          (3230)Microeconomics--Theory of Factor Distribution and Distributive Shares          (0224)",,,00333476,,,,1974,Journal Article,,"Public Finance, 1974, v. 29, iss. 3-4, pp. 413-15","Tax Burden, Excess Burden, and Differential Incidence Revisited Comment and Extensions-A Reply",199006
,0081038,"Hartwick, Philip G.; Hartwick, John M.",,http//qje.oxfordjournals.org.turing.library.northwestern.edu/content/by/year,,Urban Economics and Public Policy          (9310)Welfare Theory--General          (0240),,,00335533,,,,May 1974,Journal Article,,"Quarterly Journal of Economics, May 1974, v. 88, iss. 2, pp. 340-52",Efficient Resource Allocation in a Multinucleated City with Intermediate Goods,199006
,0076454,"Hamilton, Mary T.",,http//www.aeaweb.org.turing.library.northwestern.edu/aer/,,Wage and Price Controls          (1332),U.S.,Northern America,00028282,,,,May 1974,Journal Article,,"American Economic Review, May 1974, v. 64, iss. 2, pp. 100-04",Price Controls in 1973 Strategies and Problems,199006
,0078515,"Gustman, Alan L.; Segal, Martin",,http//digitalcommons.ilr.cornell.edu.turing.library.northwestern.edu/ilrreview/,,Wage and Fringe Benefit Studies          (8242)Industry Studies--Construction          (6340),U.S.,Northern America,00197939,,,,January 1974,Journal Article,,"Industrial and Labor Relations Review, January 1974, v. 27, iss. 2, pp. 261-75",The Skilled-Unskilled Wage Differential in Construction,199006
,0079081,"Gonedes, Nicholas J.; Roberts, Harry V.",,http//www.sciencedirect.com.turing.library.northwestern.edu/science/journal/03044076,,Bayesian Statistics and Bayesian Econometrics          (2115),,,03044076,,,,September 1974,Journal Article,,"Journal of Econometrics, September 1974, v. 2, iss. 3, pp. 221-40",Bayesian Assessment of the Unconditional Mean Square Error of Repeated Predictions from a Regression Equation,199006
,0078000,"Christiaens, L.",,,,Business Finance          (5210),,,00130575,,Dutch,,October 1974,Journal Article,,"Economisch en Sociaal Tijdschrift, October 1974, v. 28, iss. 5, pp. 655-65",De kost van gewoon aandelenkapitaal en autofinanciering. (The Cost of Common Capital Stock and Retained Earnings. With English summary.),199006
,0079090,"Harvey, A. C.; Phillips, G. D. A.",,http//www.sciencedirect.com.turing.library.northwestern.edu/science/journal/03044076,,Distributed Correlated Disturbance Terms; Inferential Problems in Single Equation Models          (2113),,,03044076,,,,December 1974,Journal Article,,"Journal of Econometrics, December 1974, v. 2, iss. 4, pp. 307-16",A Comparison of the Power of Some Tests for Heteroskedasticity in the General Linear Model,199006
,0079427,"Pierce, James L.; Thomson, Thomas D.",,http//onlinelibrary.wiley.com.turing.library.northwestern.edu/journal/10.1111/%28ISSN%291540-6261/issues,,Domestic Monetary Theory and Policy          (3110)Specific Forecasts and Models          (1323),U.S.,Northern America,00221082,,,,May 1974,Journal Article,,"Journal of Finance, May 1974, v. 29, iss. 2, pp. 349-57",Short-Term Financial Models at the Federal Reserve Board,199006
,0080304,"Robinson, James W.",,,,Collective Bargaining--General          (8320),U.S.,Northern America,,,,,Winter 1974,Journal Article,,"Marquette Business Review, Winter 1974, v. 18, iss. 4, pp. 164-71",Collective Bargaining for College and University Faculties The Other Viewpoint,199006
,0081076,"Hoogvliet, W.",,,,Agricultural Supply and Demand Analysis          (7110),Australia,Oceania,01567446,,,,July 1974,Journal Article,,"Quarterly Review of Agricultural Economics, July 1974, v. 27, iss. 3, pp. 159-75",The Australian Sheep Industry Survey 1972-73 Summary of Results and Recent Changes in the Structure and Economic Situation of the Industry,199006
,0079187,"Mandle, Jay R.",,http//journals.cambridge.org.turing.library.northwestern.edu/action/displayBackIssues?jid=JEH,,Economic History--United States and Canada General          (0420)Regional Economics--General          (9410)Demographic Economics          (8410),U.S.,Northern America,00220507,,,,September 1974,Journal Article,,"Journal of Economic History, September 1974, v. 34, iss. 3, pp. 732-38",The Plantation States as a Sub-Region of the Post-Bellum South,199006
,0082082,"Dieckheuer, Gustav",,,,Macroeconomic Theory--General          (0230)Domestic Monetary Theory; Empirical Studies Illustrating Theory          (3112),,,00442550,,German,,July 1974,Journal Article,,"Zeitschrift fur die gesamte Staatswissenschaft (JITE), July 1974, v. 130, iss. 3, pp. 421-45",Theoretische Untersuchungen zur Wirkungsverzogerung der Geldpolitik. (Theoretical Analysis of the Lags in the Reaction to Monetary Policy. With English summary.),199006
,0076243,"Winston, Gordon C.",,http//www.sciencedirect.com.turing.library.northwestern.edu/science/journal/03043878,,Economic Development Models and Theories          (1120)Microeconomics--Theory of Production          (0223),,,03043878,,,,September 1974,Journal Article,,"Journal of Development Economics, September 1974, v. 1, iss. 2, pp. 145-63","Factor Substitution, Ex Ante and Ex Post",199006
,0081204,"Dasgupta, Partha S.; Heal, Geoffrey M.",,http//restud.oxfordjournals.org.turing.library.northwestern.edu/content/by/year,,Natural Resources--General          (7210)Growth Theories--General          (1110),,,00346527,,,,Symposium 1974,Journal Article,,"Review of Economic Studies, Symposium 1974, pp. 3-28",The Optimal Depletion of Exhaustible Resources,199006
,0080795,"Hameed, Azhar",,http//pu.edu.pk/home/journal/7/Current-Issue.html,,Regional Economic Models and Forecasts          (9413),Pakistan,Asia,,,,,Autumn 1974,Journal Article,,"Pakistan Economic and Social Review, Autumn 1974, v. 12, iss. 3, pp. 320-33",Spatial Variations in Punjab's Urban Sector,199006
,0077016,"Bambrick, S.",,http//onlinelibrary.wiley.com.turing.library.northwestern.edu/journal/10.1111/%28ISSN%291467-8446/issues,,"Economic History--Oceania--History of Public Economic Policy, all levels          (0483)",Australia,Oceania,00048992,,,,March 1974,Journal Article,,"Australian Economic History Review, March 1974, v. 14, iss. 1, pp. 1-19",Federal Government Intervention in the Price Mechanism 1939-49,199006
,0077455,"Mureithi, Leopold P.",,,,Economic Development Models and Theories          (1120)Labor Markets Demographic Characteristics          (8260)Economic Studies of Developing Countries--African Countries          (1215),Kenya,Africa,,,,,June 1974,Journal Article,,"Eastern Africa Economic Review, June 1974, v. 6, iss. 1, pp. 27-43",Demographic and Technological Variables in Kenya's Employment Scene,199006
,0079906,"Roberts, Donald John",,http//www.sciencedirect.com.turing.library.northwestern.edu/science/journal/00472727,,Fiscal Theory; Empirical Studies Illustrating Fiscal Theory          (3212)Welfare Theory--General          (0240),,,00472727,,,,February 1974,Journal Article,,"Journal of Public Economics, February 1974, v. 3, iss. 1, pp. 23-42",The Lindahl Solution for Economies with Public Goods,199006
,0077436,"Micka, Vladimir",,,,Economic Planning Policy          (1136),Czech Republic,Europe,00459461,,,,March 1974,Journal Article,,"Czechoslovak Economic Digest, March 1974, iss. 2, pp. 25-44",Economic Problems in the Centre of the Party's Attention,199006
,0079008,"Sternthal, Brian; Craig, C. Samuel",,http//www.jstor.org.turing.library.northwestern.edu/action/showPublication?journalCode=jconsrese,,Marketing and Advertising          (5310)Consumer Economics; Levels and Standards of Living--General          (9210),,,00935301,,,,December 1974,Journal Article,,"Journal of Consumer Research, December 1974, v. 1, iss. 3, pp. 22-34",Fear Appeals Revisited and Revised,199006
,0078596,"Peterson, R. D.; MacPhee, C. R.",,,,Economics of Health (including medical subsidy programs)          (9130)Microeconomic Theory--Theory of the Household (Consumer Demand)          (0222),U.S.,Northern America,01958550,,,,Fall 1974,Journal Article,,"Intermountain Economic Review, Fall 1974, v. 5, iss. 2, pp. 71-77",Deductive Inference and the Approximation of Derived Demand,199006
,0076937,"Markert, Kurt E.",,http//www.federallegalpublications.com/antitrust-bulletin/all,,Public Policy Towards Monopoly and Competition          (6120),W. Germany,Europe,0003603X,,,,Spring 1974,Journal Article,,"Antitrust Bulletin, Spring 1974, v. 19, iss. 1, pp. 135-56",The New German Antitrust Reform Law,199006
,0076189,"Rapkin, Chester",,,,Industry Studies--Services--Insurance          (6356),U.S.,Northern America,0092914X,,,,Spring 1974,Journal Article,,"American Real Estate and Urban Economics Association Journal, Spring 1974, v. 2, iss. 1, pp. 89-106",Growth and Prospects of Private Mortgage Insurance Activity,199006
,0081184,"Gossling, W. F.",,http//restud.oxfordjournals.org.turing.library.northwestern.edu/content/by/year,,Input-Output          (2220)Multisector Growth Models and Related Topics          (1113),,,00346527,,,,October 1974,Journal Article,,"Review of Economic Studies, October 1974, v. 41, iss. 4, pp. 525-31",Correct Fixed-capital Replacement in Input-Output Growth Models,199006
,0081374,"Bonnafous, Alain; Plassard, Francois",,http//www.cairn.info/revue-economique.htm,,Economics of Transportation          (6150)Regional Economics--General          (9410),,,00352764,,French,,March 1974,Journal Article,,"Revue Economique, March 1974, v. 25, iss. 2, pp. 208-32",Les methodologies usuelles de l'etude des effets structurants de l'offre de transport. (Usual Methodologies for Studying the Structurising Effects of Transport Facilities. With English summary.),199006
,0074273,"Joehnk, Michael D.; Wert, James E.",,,,"Capital Markets--Empirical Studies, Including Regulation          (3132)Business Finance          (5210)",U.S.,Northern America,03627985,,,,Winter 1973-74,Journal Article,,"Mississippi Valley Journal of Business and Economics, Winter 1973-74, v. 9, iss. 2, pp. 1-15",The Call-Risk Performance of the Discounted Seasoned Issue,199006
,0077607,"Sur, A. K.",,http//www.ndpublisher.in/ndpjournal.php?j=EA,,Economic Planning Policy          (1136),India,Asia,04242513,,,,June-July 1974,Journal Article,,"Economic Affairs, June-July 1974, v. 19, iss. 6-7, pp. 313-17",Will the Industrial Programme of the Fifth Plan Succeed?,199006
,0077861,"Finger, J. M.",,http//onlinelibrary.wiley.com.turing.library.northwestern.edu/journal/10.1111/%28ISSN%291468-0297/issues,,Trade Relations          (4210)Commercial Policy          (4220),U.S.,Northern America,00130133,,,,September 1974,Journal Article,,"Economic Journal, September 1974, v. 84, iss. 335, pp. 566-75",GATT Tariff Concessions and the Exports of Developing Countries-United States Concessions at the Dillon Round,199006
,0078755,"Issing, Otmar",,http//www.jbnst.de/de/,,Macroeconomic Theory--General          (0230)Domestic Monetary Theory; Empirical Studies Illustrating Theory          (3112),,,00214027,,German,,July 1974,Journal Article,,"Jahrbucher fur Nationalokonomie und Statistik, July 1974, v. 188, iss. 4, pp. 349-62",Marginalien zum LM-IS-Konzept. (Marginal Notes to the LM-IS-Concept. With English summary.),199006
,0078306,"Green, Bernal L.; Hawkes, Glenn R.",,http//onlinelibrary.wiley.com.turing.library.northwestern.edu/journal/10.1111/%28ISSN%291468-2257/issues,,Economic Development Models and Theories          (1120),,,00174815,,,,October 1974,Journal Article,,"Growth and Change, October 1974, v. 5, iss. 4, pp. 21-25",Development as a Multistage Process,199006
,0081097,"Primeaux, Walter J., Jr.",,,,"Market Structure Industrial Organization and Corporate Strategy          (6110)Regulation of Public Utilities          (6130)Industry Studies--Electrical, Gas, Communication, and Information Services          (6352)",U.S.,Northern America,00335797,,,,Summer 1974,Journal Article,,"Quarterly Review of Economics and Business, Summer 1974, v. 14, iss. 2, pp. 65-73",A Duopoly in Electricity Competition in a 'Natural Monopoly.',199006
,0077354,"MacMillan, James A.; Framingham, Charles F.; Tung, Fu-lai",,http//onlinelibrary.wiley.com.turing.library.northwestern.edu/journal/10.1111/%28ISSN%291744-7976,,"Rural Economics          (7180)Agricultural Policy, Domestic and International          (7130)",Canada,Northern America,00083976,,,,February 1974,Journal Article,,"Canadian Journal of Agricultural Economics, February 1974, v. 22, iss. 1, pp. 26-41",A Proposed Simulation Method for Measuring Structural Change and Rural Development Program Impacts,199006
,0081910,"Friedlander, Dov",,http//usj.sagepub.com.turing.library.northwestern.edu/content/by/year,,Urban Economics and Public Policy          (9310)Economic History--Europe--General          (0440),U.K.,Europe,00420980,,,,June 1974,Journal Article,,"Urban Studies, June 1974, v. 11, iss. 2, pp. 127-41",London's Urban Transition 1851-1951,199006
,0080624,"Sewell, W. R. Derrick; Roueche, Leonard",,http//lawschool.unm.edu/NRJ/,,Urban Economics and Public Policy          (9310)Natural Resources--General          (7210)Regulation of Public Utilities          (6130),Canada,Northern America,00280739,,,,July 1974,Journal Article,,"Natural Resources Journal, July 1974, v. 14, iss. 3, pp. 383-400","Peak Load Pricing and Urban Water Management Victoria, B. C., A Case Study",199006
,0076667,"Sporleder, Thomas L.; Wilson, Robert R.",,http//ajae.oxfordjournals.org.turing.library.northwestern.edu/content/by/year,,Consumer Economics; Levels and Standards of Living--General          (9210)Microeconomic Theory--Theory of the Household (Consumer Demand)          (0222),,,00029092,,,,February 1974,Journal Article,,"American Journal of Agricultural Economics, February 1974, v. 56, iss. 1, pp. 129-34",Credit Card Purchasing and Static Consumer Behavior Theory,199006
,0081529,"Hicks, John R.",,http//onlinelibrary.wiley.com.turing.library.northwestern.edu/journal/10.1111/%28ISSN%291467-9485,,Economic Fluctuations--General          (1310)Macroeconomic Theory--General          (0230)Domestic Monetary Theory; Empirical Studies Illustrating Theory          (3112),,,00369292,,,,November 1974,Journal Article,,"Scottish Journal of Political Economy, November 1974, v. 21, iss. 3, pp. 205-14",Real and Monetary Factors in Economic Fluctuations,199006
,0078809,"Selvin, Steve",,http//amstat.tandfonline.com.turing.library.northwestern.edu/loi/uasa20,,"Econometric and Statistical Methods and Models Multivariate Analysis, Statistical Information Theory, and Other Special Inferential Problems; Queuing Theory; Markov Chains          (2114)",,,01621459,,,,March 1974,Journal Article,,"Journal of the American Statistical Association, March 1974, v. 69, iss. 345, pp. 234-37",Maximum Likelihood Estimation in the Truncated or Censored Poisson Distribution,199006
,0080596,"Brems, Hans",,http//www.econ.ku.dk/NF/National%C3%B8konomiskTidsskrift.asp,,One and Two Sector Growth Models and Related Topics          (1112)Economic Studies of Developed Countries--Comparative Country Studies          (1221),,,00280453,,Danish,,1974,Journal Article,,"Nationalokonomisk Tidsskrift, 1974, v. 112, iss. 2, pp. 230-48",Er okonomisk vakst blevet umoderne? (Has Economic Growth become Obsolete? With English summary.),199006
,0078062,"Oller, Lars-Erik",,http//www.ekonomiskasamfundet.fi/est/,,Specific Forecasts and Models          (1323)Trade Relations          (4210),,,00133183,,Swedish,,1974,Journal Article,,"Ekonomiska Samfundets Tidskrift, 1974, v. 27, iss. 1, pp. 49-50",Om prognosmodeller for utrikeshandeln. (Prognosis Models for Foreign Trade. With English summary.),199006
,0080493,"Broadbent, Margaret J.",,http//ner.sagepub.com.turing.library.northwestern.edu/content/by/year,,Economic Integration--Policy and Empirical Studies          (4233),EEC,Europe,00279501,,,,August 1974,Journal Article,,"National Institute Economic Review, August 1974, iss. 69, pp. 47-57",Coordination of Policy in the EEC,199006
,0081873,"Ysander, Bengt-Christer",,,,History of Economic Thought--Individuals          (0322),,,03470520,,,"Arvidsson, Guy",September 1974,Journal Article,,"Swedish Journal of Economics, September 1974, v. 76, iss. 3, pp. 273-84",Guy Arvidsson A Short Appraisal of His Contributions to Economics,199006
,0078812,"Srivastava, R. C.",,http//amstat.tandfonline.com.turing.library.northwestern.edu/loi/uasa20,,Econometric and Statistical Methods and Models--General          (2110),,,01621459,,,,March 1974,Journal Article,,"Journal of the American Statistical Association, March 1974, v. 69, iss. 345, pp. 267-69",Two Characterizations of the Geometric Distribution,199006
,0077678,"Levy, Mildred B.; Wadycki, Walter J.",,http//www.jstor.org.turing.library.northwestern.edu/action/showPublication?journalCode=econdevecultchan,,Human Capital; Value of Human Life          (8510)Labor Mobility; National and International Migration          (8230)Demographic Economics          (8410),Venezuela,Latin America and the Caribbean,00130079,,,,January 1974,Journal Article,,"Economic Development and Cultural Change, January 1974, v. 22, iss. 2, pp. 198-214",What Is the Opportunity Cost of Moving? Reconsideration of the Effects of Distance on Migration,199006
,0080974,"Young, Dennis R.",,,,Urban Economics and Public Policy          (9310)Conservation and Pollution          (7220),U.S.,Northern America,00485853,,,,January 1974,Journal Article,,"Public Finance Quarterly, January 1974, v. 2, iss. 1, pp. 43-72",The Economic Organization of Refuse Collection,199006
,0080529,"Woodward, Robert S.",,http//ntj.tax.org,,"National Taxation, Revenue, and Subsidies          (3230)Regional Economics--General          (9410)",Puerto Rico,Latin America and the Caribbean,00280283,,,,June 1974,Journal Article,,"National Tax Journal, June 1974, v. 27, iss. 2, pp. 261-73",The Effectiveness of Intra-Island Industrial Incentives in Puerto Rico,199006
,0077837,"Llewellyn, G. E. J.",,http//onlinelibrary.wiley.com.turing.library.northwestern.edu/journal/10.1111/%28ISSN%291468-0297/issues,,Trade Relations          (4210)Inflation Theories; Studies Illustrating Inflation Theories          (1342)Open Economy Macroeconomic Studies--Balance of Payments and Adjustment Mechanisms          (4313)Prices          (2270),U.K.,Europe,00130133,,,,March 1974,Journal Article,,"Economic Journal, March 1974, v. 84, iss. 333, pp. 18-31",The Determinants of United Kingdom Import Prices,199006
,0078864,"Sen, Pranab Kumar",,http//amstat.tandfonline.com.turing.library.northwestern.edu/loi/uasa20,,Survey Methods; Sampling Methods          (2117),,,01621459,,,,December 1974,Journal Article,,"Journal of the American Statistical Association, December 1974, v. 69, iss. 348, pp. 997-1001",On Unbiased Estimation for Randomized Response Models,199006
,0081830,"Woodward, John T.",,http//bea.gov/scb/date_guide.asp,,Economic Capacity          (6410)Business Investment          (5220)National Income Accounts          (2212),U.S.,Northern America,00396222,,,,September 1974,Journal Article,,"Survey of Current Business, September 1974, v. 54, iss. 9, pp. 18-21",Capital Expenditures Rise To Continue Through 1974,199006
,0078026,"Kroonenberg, Nellie; Cramer, J. S.",,http//link.springer.com.turing.library.northwestern.edu/journal/volumesAndIssues/10645,,Prices          (2270)Industry Studies--Distributive Trades--Retail Trade          (6333)Consumer Economics--Expenditure Patterns and Consumption of Specific Items          (9212),Netherlands,Europe,0013063X,,,,1974,Journal Article,,"De Economist, 1974, v. 122, iss. 4, pp. 357-66",A Hedonic Price Index for the Dutch Car Market,199006
,0078382,"Johnson, Elizabeth S.; Johnson, Harry G.",,http//hope.dukejournals.org.turing.library.northwestern.edu/content/by/year,,"History of Economic Thought--Austrian, Marshallian, Neoclassical          (0315)History of Economic Thought--Individuals          (0322)",,,00182702,,,"Keynes, John Maynard",Fall 1974,Journal Article,,"History of Political Economy, Fall 1974, v. 6, iss. 3, pp. 261-77",The Social and Intellectual Origins of The General Theory,199006
,0691220,"Jean-michel, Grandmont; Guy, Laroque",Unlisted; Unlisted,,Information provided in collaboration with the RePEc Project http//repec.org,,,,,,,,1974,Working Paper,"CEPREMAP, CEPREMAP Working Papers (Couverture Orange)","1974, pp. 37 pages",On temporary keynesian equilibria,200404
,0077068,"Whitehead, Donald",,http//onlinelibrary.wiley.com.turing.library.northwestern.edu/journal/10.1111/%28ISSN%291467-8462/issues,,Stabilization Theories and Policies          (1331)Inflation Theories; Studies Illustrating Inflation Theories          (1342)Labor Economics Theory and Empirical Studies Illustrating Theory          (8210),Australia,Oceania,00049018,,,,3rd Quarter 1974,Journal Article,,"Australian Economic Review, 3rd Quarter 1974, pp. 59-64",Stagflation in Australia,199006
,0079898,"Mussa, Michael",,http//www.jstor.org.turing.library.northwestern.edu/action/showPublication?journalCode=jpoliecon,,Theory of Protection          (4113),,,00223808,,,,November-December 1974,Journal Article,,"Journal of Political Economy, November-December 1974, v. 82, iss. 6, pp. 1191-1203","Tariffs and the Distribution of Income The Importance of Factor Specificity, Substitutability, and Intensity in the Short and Long Run",199006
,0076872,"Levine, Herbert S.",,http//ann.sagepub.com.turing.library.northwestern.edu/content/by/year,,Trade Relations          (4210),U.S.; U.S.S.R.,Northern America; Asia; Europe,00027162,,,,July 1974,Journal Article,,"Annals of the American Academy of Political and Social Science, July 1974, v. 414, pp. 1-17",An American View of Economic Relations with the USSR,199006
,0076955,"Clement, B.",,http//www.federallegalpublications.com/antitrust-bulletin/all,,Public Policy Towards Monopoly and Competition          (6120),France,Europe,0003603X,,,,Fall 1974,Journal Article,,"Antitrust Bulletin, Fall 1974, v. 19, iss. 3, pp. 587-603",An Appraisal of French Antitrust Policy,199006
,0080455,"Van Dusen, Roxann A.",,http//www.bls.gov/opub/mlr/#,,Social Indicators Data and Analysis          (2250),U.S.,Northern America,00981818,,,,September 1974,Journal Article,,"Monthly Labor Review, September 1974, v. 97, iss. 9, pp. 17-18",Problems of Measurement in Areas of Social Concern,199006
,0080952,"Roskamp, Karl W.",,,,Fiscal Policy          (3216),W. Germany,Europe,00333476,,,,1974,Journal Article,,"Public Finance, 1974, v. 29, iss. 2, pp. 214-20",Twenty-Five Years of Fiscal Policy Advice in West Germany-The Advisory Council to the Minister of Finance,199006
,0080437,"Gover, Kathryn R.; McEaddy, Beverly J.",,http//www.bls.gov/opub/mlr/#,,Employment Studies; Unemployment and Vacancies; Retirements and Quits          (8243),U.S.,Northern America,00981818,,,,August 1974,Journal Article,,"Monthly Labor Review, August 1974, v. 97, iss. 8, pp. 17-26",Job Situation of Vietnam-era Veterans,199006
,0722121,"Sanderson, Warren C.",Unlisted,http//www.nber.org.turing.library.northwestern.edu/papers/w0036.pdf,Information provided in collaboration with the RePEc Project http//repec.org,,,,,,,,1974,Working Paper,"National Bureau of Economic Research, Inc, NBER Working Papers 0036",1974,Economic Theories of Fertility What do They Explain?,200404
,0076550,"Olson, Josephine E.",,http//www.aeaweb.org.turing.library.northwestern.edu/aer/,,Economics of Transportation          (6150),,,00028282,,,,September 1974,Journal Article,,"American Economic Review, September 1974, v. 64, iss. 4, pp. 785-86",Price Discrimination by Regulated Motor Carriers Reply,199006
,0079834,"Auernheimer, Leonardo",,http//www.jstor.org.turing.library.northwestern.edu/action/showPublication?journalCode=jpoliecon,,Domestic Monetary Theory; Empirical Studies Illustrating Theory          (3112)Inflation Theories; Studies Illustrating Inflation Theories          (1342),,,00223808,,,,May-June 1974,Journal Article,,"Journal of Political Economy, May-June 1974, v. 82, iss. 3, pp. 598-606",The Honest Government's Guide to the Revenue from the Creation of Money,199006
,0081963,"Westphal, Uwe",,,,Macroeconomics--Theory of Aggregate Demand Consumption          (0232),,,00432636,,German,,1974,Journal Article,,"Weltwirtschaftliches Archiv, 1974, v. 110, iss. 1, pp. 148-72",Zur Interdependenz von Konsumguternachfrage und Vermogensanlage-Ein Beitrag zur Theorie der makrookonomischen Konsumfunktion. (On the Interdependency of Demand for Consumer Goods and Asset Investment A Contribution to the Theory of the Macro-Economic Consumption Function. With English summary.),199006
,0081463,"Lenti, Libero",,,,Inflation Theories; Studies Illustrating Inflation Theories          (1342)General Outlook          (1330),,,00356751,,,,October 1974,Journal Article,,"Rivista Internazionale di Scienze Economiche e Commerciali, October 1974, v. 21, iss. 10, pp. 940-54",The World Economic Situation and the Roots of Inflation,199006
,0079995,"Close, Darwin B.",,http//onlinelibrary.wiley.com.turing.library.northwestern.edu/journal/10.1111/%28ISSN%291539-6975/issues,,Organization and Decision Theory          (5110)Industry Studies--Services--Insurance          (6356),,,00224367,,,,September 1974,Journal Article,,"Journal of Risk and Insurance, September 1974, v. 41, iss. 3, pp. 435-50",An Organization Behavior Approach to Risk Management,199006
,0078803,"Lowerre, James",,http//amstat.tandfonline.com.turing.library.northwestern.edu/loi/uasa20,,Distributed Correlated Disturbance Terms; Inferential Problems in Single Equation Models          (2113),,,01621459,,,,March 1974,Journal Article,,"Journal of the American Statistical Association, March 1974, v. 69, iss. 345, pp. 223-25","Some Relationships Between BLUEs, WLSEs and SLSEs",199006
