Abstract,Accession Number,Author,Author Affiliation,Availability,Availability Note,Descriptors,Geographic Descriptors,Geographic Region,ISBN,ISSN,Keywords,Language,Named person,Publication Date,Publication Type,Publisher Information,Source,Title,Update Code
,0096240,"Sharma, A. C.",,http//www.ndpublisher.in/ndpjournal.php?j=EA,,Agriculture--Farm Management          (7160),India,Asia,,04242513,,,,April 1977,Journal Article,,"Economic Affairs, April 1977, v. 22, iss. 4, pp. 135-36, 166|68",Farm Mechanisation in Punjab,199006
,0101602,"Hawrylyshyn, Oli",,,,Economic Studies of Developing Countries--General          (1210)Technological Change and Innovation          (6211),LDCs,,,00443158,,,,1977,Journal Article,,"Zeitschrift fur Nationalokonomie, 1977, v. 37, iss. 1-2, pp. 123-49",Non-Economic Biases Towards Capital-Intensive Techniques in Less Developed Countries,199006
,0098284,"Wyczanski, Andrzej",,http//www.istitutodatini.it/biblio/riviste/g-k/journal4.htm,,Economic History--Development of the Discipline          (0411),Poland,Europe,,03915115,,,,Spring 1977,Journal Article,,"Journal of European Economic History, Spring 1977, v. 6, iss. 1, pp. 215-26",The Annals of Polish Social and Economic History,199006
,0100921,"Barate, Claude",,,,"State and Local Government Taxation, Subsidies, and Revenue          (3242)Urban Economics and Public Policy          (9310)",France,Europe,,,,French,,July-September 1977,Journal Article,,"Revue de Science Financiere, July-September 1977, v. 69, iss. 3, pp. 685-730","Urbanisme et politique fonciere Une nouvelle tentative de regularisation la loi fonciere du 31 decembre 1975. (Urbanism and Property Policy A New Attempt at Regularization The Property Law, December 31st 1975. With English summary.)",199006
,0095405,"Barnard, A.; Butlin, N. G.; Pincus, J. J.",,http//onlinelibrary.wiley.com.turing.library.northwestern.edu/journal/10.1111/%28ISSN%291467-8462/issues,,Employment in the Public Sector          (8226)Employment Studies; Unemployment and Vacancies; Retirements and Quits          (8243),Australia,Oceania,,00049018,,,,1st Quarter 1977,Journal Article,,"Australian Economic Review, 1st Quarter 1977, iss. 37, pp. 43-52","Public and Private Sector Employment in Australia, 1901-1974",199006
,0701344,"Laufenberg, Daniel E.",Unlisted,,Information provided in collaboration with the RePEc Project http//repec.org,,,,,,,,,1977,Working Paper,"Board of Governors of the Federal Reserve System (U.S.), Special Studies Papers 96",1977,Legal reserve requirements an instrument of monetary control?,200404
,0097264,"Khan, Kishwar Shabbir",,http//www.indianeconomicjournal.org/iej/table-of-contents-of-the-issues.php,,International Monetary Arrangements          (4320),,,,00194662,,,,October-December 1977,Journal Article,,"Indian Economic Journal, October-December 1977, v. 25, iss. 2, pp. 193-210",Report on the Evolving International Monetary System,199006
,0098676,"McCormick, Frank",,http//www.sciencedirect.com.turing.library.northwestern.edu/science/journal/00221996,,Exchange Rates and Markets--Theory and Studies          (4314),,,,00221996,,,,August 1977,Journal Article,,"Journal of International Economics, August 1977, v. 7, iss. 3, pp. 269-82",A Multiperiod Theory of Forward Exchange,199006
,0094819,"Nelson, Eric R.",,http//www.aeaweb.org.turing.library.northwestern.edu/aer/,,Income Distribution          (2213),U.S.,Northern America,,00028282,,,,June 1977,Journal Article,,"American Economic Review, June 1977, v. 67, iss. 3, pp. 497-501",The Measurement and Trend of Inequality Comment,199006
,0723345,"Blin, J. M.",Unlisted,http//www.kellogg.nwu.edu/research/math/dps/304.pdf,Information provided in collaboration with the RePEc Project http//repec.org,,,,,,,,,1977,Working Paper,"Northwestern University, Center for Mathematical Studies in Economics and Management Science, Discussion Papers 304",1977,Development of a Corporate Information System,200404
,0097200,"Sbrana, Roberto",,,,Industry Studies--Distributive Trades--Wholesale Trade          (6332),Italy,Europe,,00356816,,Italian,,1977,Journal Article,,"L'Impresa, 1977, v. 19, iss. 4, pp. 415-26",Le sub-forniture da imprese minori nelle politiche della grande distribuzione e del commercio associato. (The Role of Sub-Contract Supplies by Small Firms in Large-Scale Distribution and Associated Activities. With English summary.),199006
,0099597,"El. Sheshai, Kamal M.; Harwood, Gordon B.; Hermanson, Roger H.",,,,Accounting          (5410),U.S.,Northern America,,00251690,,,,October 1977,Journal Article,,"Management Accounting, October 1977, v. 59, iss. 4, pp. 43-47",Cost Volume Profit Analysis with Integer Goal Programming,199006
,0101155,"Waite, Linda J.; Suter, Larry E.; Shortlidge, Richard L., Jr.",,http//onlinelibrary.wiley.com.turing.library.northwestern.edu/journal/10.1111/%28ISSN%291540-6237/issues,,Labor Force--General          (8130)Economics of Education          (9120),U.S.,Northern America,,00384941,,,,September 1977,Journal Article,,"Social Science Quarterly, September 1977, v. 58, iss. 2, pp. 302-11",Changes in Child Care Arrangements of Working Women from 1965 to 1971,199006
,0097378,"Stinson, John E.; Johnson, Thomas W.",,http//onlinelibrary.wiley.com.turing.library.northwestern.edu/journal/10.1111/%28ISSN%291468-232X/issues,,Labor-Management Relations--General          (8330),U.S.,Northern America,,00198676,,,,October 1977,Journal Article,,"Industrial Relations, October 1977, v. 16, iss. 3, pp. 315-22","Tasks, Individual Differences, and Job Satisfaction",199006
,0098409,"Beedles, William L.",,http//onlinelibrary.wiley.com.turing.library.northwestern.edu/journal/10.1111/%28ISSN%291540-6261/issues,,"Goals and Objectives of Firms          (5140)Managerial Economics          (5120)Industry Studies--Manufacturing--Metals (iron, steel, and other)          (6312)Industry Studies--Manufacturing--Chemicals, Drugs, Plastics, Ceramics, Glass, Cement, and Rubber          (6315)",U.S.,Northern America,,00221082,,,,September 1977,Journal Article,,"Journal of Finance, September 1977, v. 32, iss. 4, pp. 1217-33",A Micro-Econometric Investigation of Multi-Objective Firms,199006
,0100045,"Iritani, Jun",,http//www2.econ.osaka-u.ac.jp/library/global/oep/esou_0.html,,General Equilibrium and Disequilibrium Theory          (0210)Microeconomic Theory--Theory of the Household (Consumer Demand)          (0222),,,,04734548,,Japanese,,March 1977,Journal Article,,"Osaka Economic Papers, March 1977, v. 26, iss. 3-4, pp. 48-57",The Theory of Related Goods and Substitution Dominancy. (In Japanese. With English summary .),199006
,0100662,"Uebe, G.",,http//restud.oxfordjournals.org.turing.library.northwestern.edu/content/by/year,,"Economic Planning Theory          (1132)Construction, Analysis, and Use of Econometric Models          (2120)",,,,00346527,,,,February 1977,Journal Article,,"Review of Economic Studies, February 1977, v. 44, iss. 1, pp. 191-92",A Note on Aoki's Perfect Controllability of a Linear Macro-economic Model,199006
,0100890,"Walliser, Bernard",,http//www.cairn.info/revue-economique.htm,,Microeconomic Theory--General          (0220),,,,00352764,,French,,March 1977,Journal Article,,"Revue Economique, March 1977, v. 28, iss. 2, pp. 252-61",Analyse comparative des deux 'surplus' Surplus microeconomique Surplus de productivite globale des facteurs. (A Comparative Analysis of the Two Surpluses. With English summary.),199006
,0100318,"Goldin, Kenneth D.",,http//link.springer.com.turing.library.northwestern.edu/journal/volumesAndIssues/11127,,Fiscal Theory; Empirical Studies Illustrating Fiscal Theory          (3212)Welfare Theory--General          (0240),,,,00485829,,,,Spring 1977,Journal Article,,"Public Choice, Spring 1977, v. 29, pp. 53-71",Equal Access vs. Selective Access A Critique of Public Goods Theory,199006
,0101245,"Hosek, William R.; Ostas, James R.; Zahn, Frank",,http//journal.southerneconomic.org/loi/soec,,Domestic Monetary Theory; Empirical Studies Illustrating Theory          (3112),U.S.,Northern America,,00384038,,,,January 1977,Journal Article,,"Southern Economic Journal, January 1977, v. 43, iss. 3, pp. 1404",Bank Credit Cards and the Demand for Currency Reply,199006
,0099334,"Frowen, Stephen F.; Kouris, George",,http//www.kredit-und-kapital.de/archiv/,,Domestic Monetary Theory; Empirical Studies Illustrating Theory          (3112),,,,00234591,,,,1977,Journal Article,,"Kredit und Kapital, 1977, v. 10, iss. 1, pp. 1-17",The Existence of a World Demand for Money Function Preliminary Results,199006
,0098518,"Bernhard, Richard H.",,http//journals.cambridge.org.turing.library.northwestern.edu/action/displayBackIssues?jid=JFQ,,Business Investment          (5220),,,,00221090,,,,March 1977,Journal Article,,"Journal of Financial and Quantitative Analysis, March 1977, v. 12, iss. 1, pp. 33-38","Unrecovered Investment, Uniqueness of the Internal Rate, and the Question of Project Acceptability",199006
,0700699,"Salant, Stephen W.",Unlisted,,Information provided in collaboration with the RePEc Project http//repec.org,,,,,,,,,1977,Working Paper,"Board of Governors of the Federal Reserve System (U.S.), International Finance Discussion Papers 110",1977,Staving off the backstop dynamic limit-pricing with a kinked demand curve,200404
,0095196,"Windmuller, John P.",,http//ann.sagepub.com.turing.library.northwestern.edu/content/by/year,,Collective Bargaining--General          (8320),U.S.; W. Europe,Northern America; Europe,,00027162,,,,May 1977,Journal Article,,"Annals of the American Academy of Political and Social Science, May 1977, v. 431, pp. 22-31",Industrial Democracy and Industrial Relations,199006
,0096519,"Salazar-Carrillo, Jorge",,http//onlinelibrary.wiley.com.turing.library.northwestern.edu/journal/10.1111/%28ISSN%291468-0297/issues,,"Comparative Studies of Developing, Developed, and-or Centrally Planned Economies          (1230)National Income Accounts          (2212)",Latin America,Latin America and the Caribbean,,00130133,,,,December 1977,Journal Article,,"Economic Journal, December 1977, v. 87, iss. 348, pp. 761-64",Latin American Real Product Comparisons,199006
,0097208,"Vanni, Lido",,,,Labor-Management Relations in Private Sector          (8331),Italy,Europe,,00356816,,Italian,,1977,Journal Article,,"L'Impresa, 1977, v. 19, iss. 5, pp. 469-74",Democrazia industriale per gli anni'80. (Industrial Democracy for the Eighties. With English summary.),199006
,0100708,"Rao, B. Bhaskara",,http//www.mitpressjournals.org.turing.library.northwestern.edu/loi/rest,,Macroeconomics--Theory of Aggregate Demand Consumption          (0232),,,,00346535,,,,February 1977,Journal Article,,"Review of Economics and Statistics, February 1977, v. 59, iss. 1, pp. 127",An Alternative Econometric Approach to the Permanent Income Hypothesis A Reply,199006
,0100970,"Lofgren, Karl-Gustaf",,,,Microeconomics--Theory of Firm and Industry under Imperfectly Competitive Market Structures          (0226)Theory of Protection          (4113)Exchange Rates and Markets--Theory and Studies          (4314),,,,00356751,,,,August 1977,Journal Article,,"Rivista Internazionale di Scienze Economiche e Commerciali, August 1977, v. 24, iss. 8, pp. 658-67","Dumping, Devaluation and Monopoly Prices A Generalization of Yntema's Results",199006
,0097044,"Durr, Ernst",,http//onlinelibrary.wiley.com.turing.library.northwestern.edu/journal/10.1111/%28ISSN%291468-0475,,Economic Fluctuations--Studies          (1313)Stabilization Theories and Policies          (1331),W. Germany,Europe,,,,,,1977,Journal Article,,"German Economic Review, 1977, v. 15, iss. 2, pp. 98-112",Critique of the Marxian Explanation of the Latest German Depression,199006
,0097972,"Khambata, D. M.; Olson, M. I.",,http//www.jed.or.kr/archives.html,,Economic Studies of Developing Countries--General          (1210)Trade Relations          (4210),LDCs; U.S.,Northern America,,02548372,,,,July 1977,Journal Article,,"Journal of Economic Development, July 1977, v. 2, iss. 1, pp. 147-64",The Impact of Trade on Development The United States and the Less-Developed Countries,199006
,0097181,"Zanetti, Giovanni",,,,Goals and Objectives of Firms          (5140),,,,00356816,,Italian,,1977,Journal Article,,"L'Impresa, 1977, v. 19, iss. 2, pp. 133-41",Per uno studio dell'impresa come sistema aperto. (Towards a Study of the Firm as an Open System. With English summary.),199006
,0096492,"Petith, Howard C.",,http//onlinelibrary.wiley.com.turing.library.northwestern.edu/journal/10.1111/%28ISSN%291468-0297/issues,,Theory of Economic Integration          (4232),W. Europe,Europe,,00130133,,,,June 1977,Journal Article,,"Economic Journal, June 1977, v. 87, iss. 346, pp. 262-72",European Integration and the Terms of Trade,199006
,0098548,"Klemkosky, Robert C.; Tuttle, Donald L.",,http//journals.cambridge.org.turing.library.northwestern.edu/action/displayBackIssues?jid=JFQ,,General Economics          (0110),U.S.,Northern America,,00221090,,,,September 1977,Journal Article,,"Journal of Financial and Quantitative Analysis, September 1977, v. 12, iss. 3, pp. 491-97",A Ranking of Doctoral Programs by Financial Research Contributions of Graduates,199006
,0099711,"Keyder, Nur",,http//www2.feas.metu.edu.tr/metusd/ojs/index.php/metusd/issue/archive,,Domestic Monetary Theory; Empirical Studies Illustrating Theory          (3112),Turkey,Europe,,,,Turkish,,Summer 1977,Journal Article,,"Middle East Technical University Studies in Development, Summer 1977, iss. 16, pp. 43-68","Turkiye'de Para Talebi ve Altin Talebi 1962-1976. (The Demand for Money and the Demand for Gold in Turkey, 1962-1976. With English summary.)",199006
,0094690,"Adams, Walter",,http//www.aeaweb.org.turing.library.northwestern.edu/aer/,,Economics of Education          (9120)State and Local Government Expenditures and Budgeting          (3241),U.S.,Northern America,,00028282,,,,February 1977,Journal Article,,"American Economic Review, February 1977, v. 67, iss. 1, pp. 86-89",Financing Public Higher Education,199006
,0098408,"Bar-Yosef, Sasson; Brown, Lawrence D.",,http//onlinelibrary.wiley.com.turing.library.northwestern.edu/journal/10.1111/%28ISSN%291540-6261/issues,,"Capital Markets--Empirical Studies, Including Regulation          (3132)",U.S.,Northern America,,00221082,,,,September 1977,Journal Article,,"Journal of Finance, September 1977, v. 32, iss. 4, pp. 1069-80",A Reexamination of Stock Splits Using Moving Betas,199006
,0097230,"Adhvaryu, J. H.",,http//www.indianeconomicjournal.org/iej/table-of-contents-of-the-issues.php,,International Monetary Arrangements          (4320),,,,00194662,,,,July-September 1977,Journal Article,,"Indian Economic Journal, July-September 1977, v. 25, iss. 1, pp. 9-27",Evolving International Monetary System,199006
,0094754,"Silk, Leonard S.",,http//www.aeaweb.org.turing.library.northwestern.edu/aer/,,Relation of Economics to Social Values          (0114),,,,00028282,,,,February 1977,Journal Article,,"American Economic Review, February 1977, v. 67, iss. 1, pp. 316-20",Ethics in Economics,199006
,0098127,"Hanson, James A.",,http//www.emeraldinsight.com.turing.library.northwestern.edu/journals.htm?issn=0144-3585,,Economic Development Models and Theories          (1120),,,,01443585,,,,May 1977,Journal Article,,"Journal of Economic Studies, May 1977, v. 4, iss. 1, pp. 69-72",The Leading Sector Development Strategy A Reply to Professor Currie,199006
,0096655,"Blauwens, G.",,,,Consumer Economics--Expenditure Patterns and Consumption of Specific Items          (9212),,,,00130575,,Dutch,,October 1977,Journal Article,,"Economisch en Sociaal Tijdschrift, October 1977, v. 31, iss. 5, pp. 617-32",De keuze tussen herstelling of vervanging van een personenauto. (Repair or Replacement of a Car? An Economic Approach. With English summary.),199006
,0098499,"Long, John B., Jr.",,http//www.sciencedirect.com.turing.library.northwestern.edu/science/journal/0304405X,,"Capital Markets Theory, Including Portfolio Selection, and Empirical Studies Illustrating Theory          (3131)Business Finance          (5210)",,,,0304405X,,,,August 1977,Journal Article,,"Journal of Financial Economics, August 1977, v. 5, iss. 1, pp. 25-53",Efficient Portfolio Choice with Differential Taxation of Dividends and Capital Gains,199006
,0098080,"Stanfield, J. Ron",,http//mesharpe.metapress.com.turing.library.northwestern.edu/openurl.asp?genre=journal&issn=0021-3624,,Capitalist Economic Systems Market Economies          (0510)History of Economic Thought--Historical and Institutional          (0318),,,,00213624,,,,June 1977,Journal Article,,"Journal of Economic Issues, June 1977, v. 11, iss. 2, pp. 449-60",Institutional Economics and the Crises of Capitalism,199006
,0097089,"Beck, E. M.",,http//onlinelibrary.wiley.com.turing.library.northwestern.edu/journal/10.1111/%28ISSN%291468-2257/issues,,Economics of Poverty          (9140)Regional Economic Studies          (9412),U.S.,Northern America,,00174815,,,,April 1977,Journal Article,,"Growth and Change, April 1977, v. 8, iss. 2, pp. 48-49",Growth and Poverty An Analysis of Trickling Down in a Regional Context-Comment,199006
,0096531,"Langley, Paul C.",,http//onlinelibrary.wiley.com.turing.library.northwestern.edu/journal/10.1111/%28ISSN%291475-4932/issues,,Demographic Economics          (8410)Labor Mobility; National and International Migration          (8230),Australia,Oceania,,00130249,,,,March 1977,Journal Article,,"Economic Record, March 1977, v. 53, iss. 141, pp. 51-69","Inter-regional Migration and Economic Opportunity, Australia, 1966-71",199006
,0095053,"Hines, Fred K.; Reid, J. Norman",,http//ajae.oxfordjournals.org.turing.library.northwestern.edu/content/by/year,,Regional Statistics          (2280)Intergovernmental Financial Relationships          (3250),U.S.,Northern America,,00029092,,,,December 1977,Journal Article,,"American Journal of Agricultural Economics, December 1977, v. 59, iss. 5, pp. 1013-19",Using Federal Outlays Data to Measure Program Equity Opportunities and Limitations,199006
,0098699,"Kitch, Edmund W.",,http//www.jstor.org.turing.library.northwestern.edu/action/showPublication?journalCode=jlaweconomics,,Public Policy Towards Monopoly and Competition          (6120),U.S.,Northern America,,00222186,,,,October 1977,Journal Article,,"Journal of Law and Economics, October 1977, v. 20, iss. 2, pp. 265-90",The Nature and Function of the Patent System,199006
,0099511,"Pratten, C. F.",,,,"Productivity Studies Labor, Capital, and Total Factor          (8250)",U.K.,Europe,,0024547X,,,,January 1977,Journal Article,,"Lloyds Bank Review, January 1977, iss. 123, pp. 19-28",The Efficiency of British Industry,199006
,0097306,"Osterman, Paul",,http//digitalcommons.ilr.cornell.edu.turing.library.northwestern.edu/ilrreview/,,Labor Economics Theory and Empirical Studies Illustrating Theory          (8210)Occupation          (8120)Human Capital; Value of Human Life          (8510),U.S.,Northern America,,00197939,,,,January 1977,Journal Article,,"Industrial and Labor Relations Review, January 1977, v. 30, iss. 2, pp. 221-24",An Empirical Study of Labor Market Segmentation Reply,199006
,0101186,"Schechter, Evan S.",,http//www.ssa.gov/policy/docs/ssb/,,Employment Studies; Unemployment and Vacancies; Retirements and Quits          (8243)Labor Markets Demographic Characteristics          (8260)Economics of Health (including medical subsidy programs)          (9130),U.S.,Northern America,,00377910,,,,July 1977,Journal Article,,"Social Security Bulletin, July 1977, v. 40, iss. 7, pp. 3-15",Employment and Work Adjustments of the Disabled 1972 Survey of Disabled and Nondisabled Adults,199006
,0095827,"Hassan, Zuhair A.; Johnson, Stanley R.; Finley, R. M.",,http//onlinelibrary.wiley.com.turing.library.northwestern.edu/journal/10.1111/%28ISSN%291744-7976,,Agricultural Supply and Demand Analysis          (7110)Consumer Economics--Expenditure Patterns and Consumption of Specific Items          (9212),U.S.,Northern America,,00083976,,,,July 1977,Journal Article,,"Canadian Journal of Agricultural Economics, July 1977, v. 25, iss. 2, pp. 104-05",An Intertemporal Comparison of Price and Income Elasticities for Food Reply,199006
,0100891,"Fontanel, Jacques",,http//www.cairn.info/revue-economique.htm,,"Construction, Analysis, and Use of Econometric Models          (2120)",,,,00352764,,French,,May 1977,Journal Article,,"Revue Economique, May 1977, v. 28, iss. 3, pp. 419-48",Conceptualisation de la simulation dans l'analyse macroeconomique. (Conceptualization of Simulation in Macroeconomic Analysis. With English summary.),199006
,0097342,"Johnson, Ana Gutierrez; Whyte, William Foote",,http//digitalcommons.ilr.cornell.edu.turing.library.northwestern.edu/ilrreview/,,Labor-Management Relations in Private Sector          (8331)Capitalist Economic Systems Market Economies          (0510),Spain,Europe,,00197939,,,,October 1977,Journal Article,,"Industrial and Labor Relations Review, October 1977, v. 31, iss. 1, pp. 18-30",The Mondragon System of Worker Production Cooperatives,199006
,0100505,"Hart, Oliver D.",,http//qje.oxfordjournals.org.turing.library.northwestern.edu/content/by/year,,Microeconomics--Theory of Firm and Industry under Competitive Market Structures          (0225)Economics of Uncertainty and Information; Game Theory and Bargaining Theory General          (0260)Capital Markets--General          (3130),,,,00335533,,,,November 1977,Journal Article,,"Quarterly Journal of Economics, November 1977, v. 91, iss. 4, pp. 579-97",On the Profitability of Speculation,199006
,0099953,"Atkins, Spencer Bert",,http//lawschool.unm.edu/NRJ/,,Conservation and Pollution          (7220),U.S.,Northern America,,00280739,,,,April 1977,Journal Article,,"Natural Resources Journal, April 1977, v. 17, iss. 2, pp. 337-39",Wild Horses and Burros Act Preempts State Authority,199006
,0099558,"Tsay, Jeffrey J.",,,,Accounting          (5410),,,,00251690,,,,March 1977,Journal Article,,"Management Accounting, March 1977, v. 58, iss. 9, pp. 33-36",Human Resource Accounting A Need for Relevance,199006
,0101572,"Reichenbach, Horst",,,,One and Two Sector Growth Models and Related Topics          (1112),,,,00442550,,,,January 1977,Journal Article,,"Zeitschrift fur die gesamte Staatswissenschaft (JITE), January 1977, v. 133, iss. 1, pp. 38-46",A Neoclassical Model of Economic Growth with Ricardian Properties,199006
,0097477,"Smirnov, S.",,http//onlinelibrary.wiley.com.turing.library.northwestern.edu/journal/10.1111/%28ISSN%291564-913X/issues,,Employment Studies; Unemployment and Vacancies; Retirements and Quits          (8243)Labor Markets Demographic Characteristics          (8260)Social Security          (9150),U.S.S.R.,Asia; Europe,,00207780,,,,July-August 1977,Journal Article,,"International Labour Review, July-August 1977, v. 116, iss. 1, pp. 87-94",The Employment of Old-Age Pensioners in the USSR,199006
,0097690,"Watson, Ronald D.",,,,Commercial Banking          (3120),,,,00219215,,,,Autumn 1977,Journal Article,,"Journal of Bank Research, Autumn 1977, v. 8, iss. 3, pp. 136-47",The Marginal Cost of Funds Concept in Banking,199006
,0100298,"Cherkasov, G.",,,,Socialist and Communist Economic Systems          (0520)Technological Change; Innovation; Research and Development General          (6210),U.S.S.R.,Asia; Europe,,00329436,,,,October 1977,Journal Article,,"Problems of Economics, October 1977, v. 20, iss. 6, pp. 21-36",The Social Effectiveness of New Technology,199006
,0096267,"Mehrotra, H. C.; Kulshrestha, D. K.",,http//www.ndpublisher.in/ndpjournal.php?j=EA,,Commercial Banking          (3120)Agricultural Finance          (7140),India,Asia,,04242513,,,,November 1977,Journal Article,,"Economic Affairs, November 1977, v. 22, iss. 11, pp. 428-32",Development of Banking in Rural Areas,199006
,0098415,"Brito, Ney O.",,http//onlinelibrary.wiley.com.turing.library.northwestern.edu/journal/10.1111/%28ISSN%291540-6261/issues,,"Capital Markets Theory, Including Portfolio Selection, and Empirical Studies Illustrating Theory          (3131)",,,,00221082,,,,September 1977,Journal Article,,"Journal of Finance, September 1977, v. 32, iss. 4, pp. 1109-23",Marketability Restrictions and the Valuation of Capital Assets under Uncertainty,199006
,0098049,"Smith, Billy G.",,http//journals.cambridge.org.turing.library.northwestern.edu/action/displayBackIssues?jid=JEH,,Economic History--United States and Canada General          (0420)Demographic Economics          (8410),U.S.,Northern America,,00220507,,,,December 1977,Journal Article,,"Journal of Economic History, December 1977, v. 37, iss. 4, pp. 863-89",Death and Life in a Colonial Immigrant City A Demographic Analysis of Philadelphia,199006
,0721992,"Heckman, James J.",Unlisted,http//www.nber.org.turing.library.northwestern.edu/papers/w0172.pdf,Information provided in collaboration with the RePEc Project http//repec.org,,,,,,,,,1977,Working Paper,"National Bureau of Economic Research, Inc, NBER Working Papers 0172",1977,Sample Selection Bias As a Specification Error (with an Application to the Estimation of Labor Supply Functions),200404
,0098849,"Prescott, Edward C.",,http//www.sciencedirect.com.turing.library.northwestern.edu/science/journal/01672231,,"Stabilization Theories and Policies          (1331)Construction, Analysis, and Use of Mathematical Programming Models          (2135)",,,,03043923,,,,1977,Journal Article,,"Carnegie-Rochester Conference Series on Public Policy, 1977, v. 7, pp. 13-38",Should Control Theory Be Used for Economic Stabilization?,199006
,0721994,"Lazear, Edward P.",Unlisted,http//www.nber.org.turing.library.northwestern.edu/papers/w0168.pdf,Information provided in collaboration with the RePEc Project http//repec.org,,,,,,,,,1977,Working Paper,"National Bureau of Economic Research, Inc, NBER Working Papers 0168",1977,Wage Differentials Are Larger Than You Think,200404
,0099324,"Vomfelde, Werner",,,,Economic Fluctuations--General          (1310)Labor Economics Theory and Empirical Studies Illustrating Theory          (8210),W. Germany,Europe,,00233498,,German,,1977,Journal Article,,"Konjunkturpolitik, 1977, v. 23, iss. 4, pp. 242-54",Die Reaktion der Beschaftigung auf Schwankungen des gesamtwirtschaftlichen Wachstums. (The Reaction of Employment on Fluctuations in Economic Growth. With English summary .),199006
,0095346,"Williams, Eleanore",,http//onlinelibrary.wiley.com.turing.library.northwestern.edu/journal/10.1111/%28ISSN%291467-8446/issues,,Economic History--Oceania--General          (0480),Australia,Oceania,,00048992,,,,March 1977,Journal Article,,"Australian Economic History Review, March 1977, v. 17, iss. 1, pp. 47-57",Through Eastern Eyes Large Freehold Estates in South Australia,199006
,0096466,"DeSerpa, Allan C.",,http//onlinelibrary.wiley.com.turing.library.northwestern.edu/journal/10.1111/%28ISSN%291465-7295/issues,,Welfare Theory--Externalities          (0244),,,,00952583,,,,October 1977,Journal Article,,"Economic Inquiry, October 1977, v. 15, iss. 4, pp. 600-604",The Coase Theorem A Diagrammatic Presentation,199006
,0100719,"Harper, Charles P.",,http//www.mitpressjournals.org.turing.library.northwestern.edu/loi/rest,,Distributed Correlated Disturbance Terms; Inferential Problems in Single Equation Models          (2113),,,,00346535,,,,May 1977,Journal Article,,"Review of Economics and Statistics, May 1977, v. 59, iss. 2, pp. 204-10",Testing for the Existence of a Lagged Relationship within Almon's Method,199006
,0101522,"Mauldin, W. Parker",,http//www.sciencedirect.com.turing.library.northwestern.edu/science/journal/0305750X,,Demographic Economics          (8410),,,,0305750X,,,,May-July 1977,Journal Article,,"World Development, May-July 1977, v. 5, iss. 5-7, pp. 395-405",World Population Situation Problems and Prospects,199006
,0100724,"Long, James E.; Rasmussen, David W.; Haworth, Charles T.",,http//www.mitpressjournals.org.turing.library.northwestern.edu/loi/rest,,Income Distribution          (2213)Urban Economics and Public Policy          (9310),U.S.,Northern America,,00346535,,,,May 1977,Journal Article,,"Review of Economics and Statistics, May 1977, v. 59, iss. 2, pp. 244-46",Income Inequality and City Size,199006
,0910893,"Gaudry, M. J. I.; Wills, M. J.",Unlisted; Unlisted,,Information provided in collaboration with the RePEc Project http//repec.org,,,,,,Transrt Public;  Modeles Econometriques,,,1977,Working Paper,"Universite de Montreal, Departement de sciences economiques, Cahiers de recherche","1977, pp. 79P. pages",Estimating the Functional Form of Travel Demand Models,200706
,0100543,"Kahane, Yehuda",,,,Industry Studies--Services--Insurance          (6356),,,,00335797,,,,Summer 1977,Journal Article,,"Quarterly Review of Economics and Business, Summer 1977, v. 17, iss. 2, pp. 97-112",Rate Making and Regulation in Property Liability Insurance,199006
,0098009,"Dumke, Rolf H.",,http//journals.cambridge.org.turing.library.northwestern.edu/action/displayBackIssues?jid=JEH,,Economic History--Europe--General          (0440),Germany,Europe,,00220507,,,,March 1977,Journal Article,,"Journal of Economic History, March 1977, v. 37, iss. 1, pp. 56-58",Industrial Mobilization in World War I The Prussian Army and the Aircraft Industry Comment,199006
,0094816,"Liviatan, Nissan; Levhari, David",,http//www.aeaweb.org.turing.library.northwestern.edu/aer/,,"Capital Markets--Empirical Studies, Including Regulation          (3132)Inflation and Deflation--General          (1340)Economics of Uncertainty and Information; Game Theory and Bargaining Theory General          (0260)",,,,00028282,,,,June 1977,Journal Article,,"American Economic Review, June 1977, v. 67, iss. 3, pp. 366-75",Risk and the Theory of Indexed Bonds,199006
,0100212,"Durand, John D.",,http//onlinelibrary.wiley.com.turing.library.northwestern.edu/journal/10.1111/%28ISSN%291728-4457/issues,,Comparative Intercountry or Intertemporal Economic History          (0412)Demographic Economics          (8410),,,,00987921,,,,September 1977,Journal Article,,"Population and Development Review, September 1977, v. 3, iss. 3, pp. 253-96",Historical Estimates of World Population An Evaluation,199006
,0096807,"van Herwaarden, Floor; Kapteyn, Arie; van Praag, Bernard M. S.",,http//www.sciencedirect.com.turing.library.northwestern.edu/science/journal/00142921,,"Welfare Theory--General          (0240)Consumer Economics--Living Standards, Composition of Overall Expenditures, and Empirical Consumption and Savings Studies          (9211)",Belgium; Netherlands,Europe,,00142921,,,,August 1977,Journal Article,,"European Economic Review, August 1977, v. 9, iss. 3, pp. 283-300",Twelve Thousand Individual Welfare Functions A Comparison of Six Samples in Belgium and The Netherlands,199006
,0101255,"Redman, Milton B.",,http//journal.southerneconomic.org/loi/soec,,Domestic Monetary Theory; Empirical Studies Illustrating Theory          (3112),U.S.,Northern America,,00384038,,,,January 1977,Journal Article,,"Southern Economic Journal, January 1977, v. 43, iss. 3, pp. 1260-78",The Stochastic Structure of Unborrowed Reserves,199006
,0100089,"Shibata, Hirofumi",,http//www2.econ.osaka-u.ac.jp/library/global/oep/esou_0.html,,Conservation and Pollution          (7220),,,,04734548,,,,December 1977,Journal Article,,"Osaka Economic Papers, December 1977, v. 27, iss. 2-3, pp. 104-07",What Is the Optimal Control of Pollution?,199006
,0099497,"Makinen, Vesa",,http//lta.hse.fi/,,Business Administration          (5131),Finland,Europe,,00243469,,Finnish,,1977,Journal Article,,"Liiketaloudellinen Aikakauskirja, 1977, v. 26, iss. 2, pp. 215-18",Pienyritykset tutkimuskohteena. (Small Enterprises and Scientific Research. With English summary.),199006
,0100276,"Anchishkin, A.",,,,Socialist and Communist Economic Systems          (0520),U.S.S.R.,Asia; Europe,,00329436,,,,May 1977,Journal Article,,"Problems of Economics, May 1977, v. 20, iss. 1, pp. 46-65",Expanded Production under the Conditions of Developed Socialism,199006
,0096306,"Grindea, S.; Samuel, Judita",,,,One and Two Sector Growth Models and Related Topics          (1112),,,,0424267X,,,,1977,Journal Article,,"Economic Computation and Economic Cybernetics Studies and Research, 1977, iss. 4, pp. 93-106",The Influence of the Discount Rate on the Optimal Trajectories in a Model of Economic Growth,199006
,0099525,"Clarke, Malcolm",,,,Housing Economics (including urban and nonurban housing)          (9320),U.K.,Europe,,0024547X,,,,October 1977,Journal Article,,"Lloyds Bank Review, October 1977, iss. 126, pp. 17-33",Too Much Housing?,199006
,0100120,"Chervel, Marc",,http//onlinelibrary.wiley.com.turing.library.northwestern.edu/journal/10.1111/%28ISSN%291468-0084/issues,,Welfare Theory--Allocative Efficiency including Theory of Cost-Benefit          (0242)Economic Planning Theory          (1132)Theory of Protection          (4113)Fiscal Theory and Policy--General          (3210),,,,03059049,,,,November 1977,Journal Article,,"Oxford Bulletin of Economics and Statistics, November 1977, v. 39, iss. 4, pp. 333-44",The Rationale of the Effects Method A Reply to Bela Balassa,199006
,0100269,"Sorokin, G.",,,,Forecasting; Econometric Models--General          (1320)Economic Studies of Developed Countries--European Countries          (1223),U.S.S.R.,Asia; Europe,,00329436,,,,March 1977,Journal Article,,"Problems of Economics, March 1977, v. 19, iss. 11, pp. 3-23",The Soviet Economy in the Tenth Five-Year Plan,199006
,0099669,"Iudin, D. B.; Nemirovskii, A. S.",,,,Mathematical Methods and Models--Optimization Techniques          (2132),,,,00251127,,,,Spring 1977,Journal Article,,"Matekon, Spring 1977, v. 13, iss. 3, pp. 25-45",Informational Complexity and Efficient Methods for Solving Complex Extremal Problems,199006
,0100604,"Schotter, Andrew",,http//www.sciencedirect.com.turing.library.northwestern.edu/science/journal/01660462,,Housing Economics (including urban and nonurban housing)          (9320),,,,01660462,,,,November 1977,Journal Article,,"Regional Science and Urban Economics, November 1977, v. 7, iss. 4, pp. 321-37",On Urban Residential Stability and the Core,199006
,0096095,"Polinsky, A. Mitchell",,http//www.econometricsociety.org/tocs.asp,,Housing Economics (including urban and nonurban housing)          (9320),U.S.,Northern America,,00129682,,,,March 1977,Journal Article,,"Econometrica, March 1977, v. 45, iss. 2, pp. 447-61",The Demand for Housing A Study in Specification and Grouping,199006
,0100926,"Arkhipoff, Oleg",,,,Social Choice--General          (0250),,,,,,French,,October-December 1977,Journal Article,,"Revue de Science Financiere, October-December 1977, v. 69, iss. 4, pp. 939-74",Pour une analyse conceptuelle de l'economie politique ou un essai de semantique rationnelle. (Towards a Conceptual Analysis of Political Economy or an Essay in Theoretic Semantics. With English summary.),199006
,0099374,"Peel, D. A.",,http//onlinelibrary.wiley.com.turing.library.northwestern.edu/journal/10.1111/%28ISSN%291467-6435/issues,,Inflation Theories; Studies Illustrating Inflation Theories          (1342)Labor Economics Theory and Empirical Studies Illustrating Theory          (8210),,,,00235962,,,,1977,Journal Article,,"Kyklos, 1977, v. 30, iss. 2, pp. 259-70",On the Case of Indexation of Wages and Salaries,199006
,0095081,"van Schilfgaarde, Jan",,http//ajae.oxfordjournals.org.turing.library.northwestern.edu/content/by/year,,Agricultural Situation and Outlook          (7120)Land Development; Land Use; Irrigation Policy          (7172)Conservation and Pollution          (7220),,,,00029092,,,,December 1977,Journal Article,,"American Journal of Agricultural Economics, December 1977, v. 59, iss. 5, pp. 851-52",Discussion Enhancing Natural Resource Use to Increase World Food Production,199006
,0099394,"Scholing, Eberhard; Timmermann, Vincenz",,http//onlinelibrary.wiley.com.turing.library.northwestern.edu/journal/10.1111/%28ISSN%291467-6435/issues,,Economic Fluctuations--Studies          (1313)Economic Integration--Policy and Empirical Studies          (4233),OECD,,,00235962,,German,,1977,Journal Article,,"Kyklos, 1977, v. 30, iss. 4, pp. 599-617",Lander- und Branchenkonjunkturverbund-Empirische Untersuchung unter Verwendung der Hauptkomponenten-und Transformationsanalyse. (An Empirical Investigation Based on Principal Component and Transformation Analysis. With English summary.),199006
,0097719,"Kuehl, Charles R.",,,,Organization and Decision Theory          (5110),,,,00219398,,,,April 1977,Journal Article,,"Journal of Business, April 1977, v. 50, iss. 2, pp. 223-30",Leader Effectiveness in Committee-like Groups,199006
,0100148,"McKenzie, George W.",,http//oep.oxfordjournals.org.turing.library.northwestern.edu/content/by/year,,Microeconomic Theory--Theory of the Household (Consumer Demand)          (0222),,,,00307653,,,,November 1977,Journal Article,,"Oxford Economic Papers, November 1977, v. 29, iss. 3, pp. 430-41","Complementarity, Substitutability, and Independence",199006
,0099963,"Shelton, Robert B.; Morgan, William E.",,http//lawschool.unm.edu/NRJ/,,"Natural Resources--General          (7210)Energy          (7230)Regional Economic Studies          (9412)Industry Studies--Extractive Industries--Mining (metal, coal, and other nonmetallic minerals)          (6322)State and Local Government Taxation, Subsidies, and Revenue          (3242)",U.S.,Northern America,,00280739,,,,April 1977,Journal Article,,"Natural Resources Journal, April 1977, v. 17, iss. 2, pp. 261-82","Resource Taxation, Tax Exportation and Regional Energy Policies",199006
,0096010,"Miller, Ann R.",,http//link.springer.com.turing.library.northwestern.edu/journal/volumesAndIssues/13524,,Demographic Economics          (8410),U.S.,Northern America,,00703370,,,,February 1977,Journal Article,,"Demography, February 1977, v. 14, iss. 1, pp. 1-17",Interstate Migrants in the United States Some Social-Economic Differences by Type of Move,199006
,0101326,"Pulikonda, Naga; Arnould, Richard J.",,http//journal.southerneconomic.org/loi/soec,,Microeconomics--Theory of Firm and Industry under Imperfectly Competitive Market Structures          (0226)Regulation of Public Utilities          (6130),,,,00384038,,,,October 1977,Journal Article,,"Southern Economic Journal, October 1977, v. 44, iss. 2, pp. 380-82",A Note on Mirakhor's Efficient Allocation of Resources in a Regulated and Unionized Monopoly,199006
,0094884,"Grossman, Michael",,http//www.americaneconomist.org/abstracts.html,,Economics of Health (including medical subsidy programs)          (9130),,,,05694345,,,,Spring 1977,Journal Article,,"American Economist, Spring 1977, v. 21, iss. 1, pp. 14-20",A Survey of Recent Research in Health Economics,199006
,0096172,"Barbera, Salvador",,http//www.econometricsociety.org/tocs.asp,,Social Choice--General          (0250),,,,00129682,,,,October 1977,Journal Article,,"Econometrica, October 1977, v. 45, iss. 7, pp. 1573-88",The Manipulation of Social Choice Mechanisms That Do Not Leave 'Too Much' to Chance,199006
,0099550,"Buchman, Thomas A.; Friedman, Larry A.",,,,Accounting          (5410),U.S.,Northern America,,00251690,,,,March 1977,Journal Article,,"Management Accounting, March 1977, v. 58, iss. 9, pp. 42-44",Accounting for Certain Marketable Securities,199006
