Abstract,Accession Number,Author,Author Affiliation,Availability,Availability Note,Degree,Descriptors,Digital Object Identifier,Editor,Festschrift Honoree,Geographic Descriptors,Geographic Region,ISBN,ISSN,Keywords,Language,Named person,Publication Date,Publication Type,Publisher Information,Reprint Date,Source,Title,Update Code
,0256281,"Dornbusch, Rudiger; Makin, John H.",MIT; American Enterprise Institute,,,,Economic Development Models and Theories          (1120)Private International Lending          (4330)International Lending and Aid (Public)          (4430),,"Dornbusch, Rudiger; Makin, John H.; Zlowe, David",,LDCs,,,,,,,1989,Collective Volume Article,"AEI Studies, no. 494 Washington, D.C. American Enterprise Institute for Public Policy Research; distributed by University Press of America, Lanham, Md",,"Alternative solutions to developing-country debt problems, 1989, pp. 1-6",Alternative Solutions to Developing-Country Debt Problems Introduction,199203
,0700924,"Coleman, Wilbur John, II",Unlisted,,Information provided in collaboration with the RePEc Project http//repec.org,,,,,,,,,,Income tax ;  Capital,,,1989,Working Paper,"Board of Governors of the Federal Reserve System (U.S.), International Finance Discussion Papers 366",,1989,Equilibrium in a production economy with an income tax,200404
,0237101,"Groothuis, Peter",,,,Ph.D.,Trade Unions          (8310),,,,,,,,,,,1989,Dissertation,University of Kentucky,,1989,The Role of Unions in the Protection of Uncertain Rents Theory and Evidence,199012
We examine aspects of labor in the harvesting sector of the surf clam/ocean quahog industry of the mid-Atlantic region of the United States in the context of limited entry. Vessel owners are both diversifying and cutting back on labor costs through crew consolidation in response to difficulties in the sea clam industry. A survey of crew-members on job satisfaction reveals more about the preferences and experiences of labor. We make predictions about the fate of labor under a new management regime based on individual transferable quotas. The analysis is intended to bring the interests of crew-members into the decision-making process and to improve the basis for predicting how future regulatory measures may affect crewing.,0243078,"McCay, Bonnie J.; Gatewood, John B.; Creed, Carolyn F.",Rutgers U; Lehigh U; Rutgers U,http//marineresourceeconomics.com/loi/mare,,,,,,,U.S.,Northern America,,07381360,,,,1989,Journal Article,,,"Marine Resource Economics, 1989, v. 6, iss. 4, pp. 311-30",Labor and the Labor Process in a Limited Entry Fishery,199106
"Eleven papers, written in honor of Alan B. Mountjoy and his contributions to the study of the social and economic geography of developing countries, exemplify the nature and salience of the interactions that occur between urban and rural areas within third world national territories. Papers focus on a theoretical perspective of urban-rural interaction in developing countries; the role of energy in urban-rural interchange in tropical Africa; the role of urban bias in perpetuating rural-urban and regional disparities in the Maghreb; the urban crisis and rural-urban migration in Sudan; rural-urban interaction and development in southern Africa; the urban-rural context of agrarian change in the Arabian peninsula; rural-urban grain and resource transfers in peasant society; urban-rural relations and the counterrevolution in development theory and policy; rural-urban interaction in Barbados and the southern Caribbean; rural-urban relations in Jamaica; and urban-rural interaction, spatial polarization, and development planning. Contributors are mainly geographers. Potter and Unwin are at Royal Holloway and Bedford New College, University of London. Index.",0046711,"Potter, Robert B.; Unwin, Tim, eds.",,,,,Economic Geography          (7310)Regional Economics--General          (9410),,,"Mountjoy, Alan B.",,,0-415-00444-6,,,,,1989,Book,London and New York Routledge,,"1989, pp. 342",The geography of urban-rural interaction in developing countries Essays for Alan B. Mountjoy,199006
,0226809,"Fabella, Raul V.",U Philippines,http//link.springer.com.turing.library.northwestern.edu/journal/volumesAndIssues/11127,,,Social Choice Theory          (0251)Microeconomics--Theory of Firm and Industry under Imperfectly Competitive Market Structures          (0226)Economics of Regulation          (6190),,,,,,,00485829,,,,September 1989,Journal Article,,,"Public Choice, September 1989, v. 62, iss. 3, pp. 287-93",Monopoly Deregulation in the Presence of Tullock Activities,199006
,0709172,"MILLER, M.; SUTHERLAND, A.",Unlisted; Unlisted,,Information provided in collaboration with the RePEc Project http//repec.org,,,,,,,,,,exchange rate ;  monetary policy ;  money ;  demand,,,1989,Working Paper,"Department of Economics, University of Warwick, The Warwick Economics Research Paper Series (TWERPS)",,"1989, pp. 36 pages","MONETARY TARGETS, EXCHANGE RATE TARGETS AND AFTER A STOCHASTIC 'HARD-LANDING' FOR STERLING?",200404
"This paper aims at looking inside the Italian policy of development cooperation. Section one summarizes the general trends, while in section two existing econometric exercises explaining both size and geographical distribution of multilateral and bilateral aid are briefly surveyed and criticized. The methodology of the exercise follows rather closely the one proposed in Dudley and Montmarquette's contribution (1976). The specific implementation, however, differs in terms of econometric method, period of analysis (1983-84-85) and variables included. All variables included in the econometric exercise prove to be strongly significant. The negative sign of the per capita income coefficient confirms the existence of a humanitarian component, while the positive sign of external trade and other DAC countries' aid shows that selfish elements and imitation effects are also at work in the Italian policy of development cooperation.",0229498,"Daveri, Francesco",U Bocconi,,,,International Lending and Aid Public          (4430),,,,Italy,Europe,,00356751,,Italian,,June 1989,Journal Article,,,"Rivista Internazionale di Scienze Economiche e Commerciali, June 1989, v. 36, iss. 6, pp. 543-72",Motivazioni egoistiche e altruistiche dell'aiuto italiano allo sviluppo. Un'analisi empirica. (Selfish and Altruistic Motivations of Italian Aid Flows. An Empirical Analysis. With English summary.),199006
,0257154,"Brockman, Brenda A.",US Congress,,,,Commercial Policy          (4220)Trade Relations          (4210),,"Gray, H. Peter",,,,,,,,,1989,Collective Volume Article,"Research in International Business and Finance series vol. 7 Greenwich, Conn. and London JAI Press",,"The modern international environment, 1989, pp. 243-54",Ramie The Opening and Controlling of a Loophole in the Multifibre Arrangement,199203
,0243220,"de Tray, Dennis",World Bank,http//pide.org.pk/pdr/index.php/pdr/issue/archive,,,,,,,,,,00309729,,,,Winter 1989,Journal Article,,,"Pakistan Development Review, Winter 1989, v. 28, iss. 4, pp. 408-11","The Interface between Population and Development Models, Plans and Policies Comments",199106
,0220347,"Currier, Kevin M.",,http//www.sciencedirect.com.turing.library.northwestern.edu/science/journal/01651889,,,Economics of Regulation          (6190),,,,,,,,,,,April 1989,Journal Article,,,"Journal of Economic Dynamics and Control, April 1989, v. 13, iss. 2, pp. 283-300",An Algorithm for Ramsey Pricing by Multiproduct Public Firms under Incomplete Information,199006
"After a large market shock, such as the October 1987 crash, the classic method of estimating stock return volatility using a large number of historical returns is no longer valid. The authors examine the problem of applying the Black-Scholes model immediately after a large change in the variance of the underlying stock returns.",0228866,"Levy, Haim; Yoder, James A.",U Fla and Hebrew U; U S Alabama,http//www.iijournals.com/loi/jpm,,,"Capital Markets--Empirical Studies, Including Regulation          (3132)",,,,U.S.,Northern America,,00954918,,,,Fall 1989,Journal Article,,,"Journal of Portfolio Management, Fall 1989, v. 16, iss. 1, pp. 103-06",Applying the Black-Scholes Model after Large Market Shocks,199006
,0254830,"Carlson, Gerald A.",NC State U,,,,Agricultural Supply and Demand Analysis          (7110)Technological Change and Innovation          (6211),,"Anderson, Jock R.; Hazell, Peter B. R.",,,,,,,,,1989,Collective Volume Article,Baltimore and London Johns Hopkins University Press for the International Food Policy Research Institute,,"Variability in grain yields Implications for agricultural research and policy in developing countries, 1989, pp. 242-50","Pest-Resistant Varieties, Pesticides, and Crop Yield Variability A Review",199203
,0261357,"Oyejide, T. Ademola",U Ibadan,,,,Economic Studies of Developing Countries--African Countries          (1215)Productivity and Growth Theory and Data          (2260),,"Williamson, Jeffrey G.; Panchamukhi, Vadiraj R.",,Nigeria,Africa,,,,,,1989,Collective Volume Article,New York St. Martin's Press in association with the International Economic Association,,"The balance between industry and agriculture in economic development Proceedings of the Eighth World Congress of the International Economic Association, Delhi, India. Volume 2. Sector proportions, 1989, pp. 190-218",Sector Proportions and Growth in the Development of the Nigerian Economy,199203
,0255106,"Wolfgarten, H.; Ferber, P.",Unlisted; Unlisted,,,,Agricultural Markets and Marketing; Cooperatives          (7150)Specific Forecasts and Models          (1323),,"Bauer, Siegfried; Henrichsmeyer, Wilhelm",,,,,,,,,1989,Collective Volume Article,Kiel Wissenschaftsverlag Vauk,,"Agricultural sector modelling Proceedings of the 16th Symposium of the European Association of Agricultural Economists (EAAE), April 14th-15th, 1988, Bonn, FRG, 1989, pp. 395-98",Market Component,199203
,0261825,"Hillman, Arye L.; Riley, John G.","Bar Ilan U, Israel; UCLA",http//onlinelibrary.wiley.com.turing.library.northwestern.edu/journal/10.1111/%28ISSN%291468-0343/issues,,,Game Theory and Bargaining Theory          (0262)Social Choice Theory          (0251),,,,,,,09541985,,,,Spring 1989,Journal Article,,,"Economics and Politics, Spring 1989, v. 1, iss. 1, pp. 17-39",Politically Contestable Rents and Transfers,199203
,0220429,"Agbeyegbe, Terence D.",,http//www.sciencedirect.com.turing.library.northwestern.edu/science/journal/00950696,,,"Industry Studies--Extractive Industries--Mining (metal, coal, and other nonmetallic minerals)          (6322)Natural Resources--General          (7210)",,,,,,,,,,,March 1989,Journal Article,,,"Journal of Environmental Economics and Management, March 1989, v. 16, iss. 2, pp. 184-92",Interest Rates and Metal Price Movements Further Evidence,199006
"Use of aid-generated counterpart funds has become an important issue again, especially in Africa. This paper explains why the monetary impact of counterpart funds is not inherently inflationary. When the import of aid-funded commodities, and the monetary balance-of-payments impact, are incorporated into the analysis, however, the expenditure of counterpart funds has a strong tendency to cause inflation, even though the monetary authorities counteract any increases in the money supply. But if aid-funded commodities permit output to grow, then the joint effect of additional imports and counterpart outlays can be deflationary. Further, the drawdown of counterpart accounts does not reduce government deficits, but merely finances them. Donors and recipient governments need to recognize that counterpart accounts do not represent real resources and have extremely limited use in development financing. The paper is written in nontechnical language with a technical appendix supporting its arguments.",0227252,"Roemer, Michael",Harvard U,http//www.sciencedirect.com.turing.library.northwestern.edu/science/journal/0305750X,,,International Lending and Aid (Public)          (4430)Economic Development Models and Theories          (1120),,,,,,,0305750X,,,,June 1989,Journal Article,,,"World Development, June 1989, v. 17, iss. 6, pp. 795-807",The Macroeconomics of Counterpart Funds Revisited,199006
"This paper shows the role of the theories of imperfect competition and industrial organization for analyzing the channels through which the removal of the European Community's internal market barriers may result in economic gains, and for designing sensible accompanying policies. Some of the recent microeconomic research that provides a better framework for understanding the 1992 challenge than the one assumed in traditional trade theory are first presented. The main characteristics of corporate strategies in the internal European market are investigated. Two microeconomic policies intended to influence the allocative and the distributive effects of the integration process are then discussed.",0233117,"Jacquemin, Alexis",Catholic U Louvain and Commission of the European Communities,http//annales.ensae.fr/,,,Theory of Economic Integration          (4232)Market Structure Industrial Organization and Corporate Strategy          (6110),,,,EEC,Europe,,0769489X,,,,July-December 1989,Journal Article,,,"Annales d'Economie et de Statistique, July-December 1989, iss. 15-16, pp. 39-50",The European Internal Market Challenge and the Role of Microeconomic Analysis,199012
"This paper argues that, while total short sale constraints are often introduced to rule out tax arbitrage, such constraints are both unrealistic and conceptually problematic. Instead, milder constraints are advocated, which prevent tax arbitrage while still allowing short positions. It is demonstrated that a model with these constraints employed can support bond pricing as in the M. H. Miller (1977) equilibrium, although it leads to a richer set of tax clienteles.",0231356,"Talmor, Eli","Tel Aviv U and U CA, Irvine",http//www.sciencedirect.com.turing.library.northwestern.edu/science/journal/03784266,,,"Capital Markets Theory, Including Portfolio Selection, and Empirical Studies Illustrating Theory          (3131)National Taxation, Revenue, and Subsidies          (3230)",,,,,,,,,,,December 1989,Journal Article,,,"Journal of Banking and Finance, December 1989, v. 13, iss. 6, pp. 831-38",Tax Arbitrage Restrictions and Financial Leverage Clienteles,199009
,0257936,"Johnson, George E.",U MI,,,,"Collective Bargaining--General          (8320)Trade Unions          (8310)Social Choice Studies Voting, Committees, etc.          (0252)Collective Bargaining in the Private Sector          (8321)",,"Huang, Wei-Chiao",,U.S.,Northern America,,,,,,1989,Collective Volume Article,"Kalamazoo, Mich. W. E. Upjohn Institute for Employment Research",,"Organized labor at the crossroads, 1989, pp. 63-89",Organized Labor's Political Agenda An Economist's Evaluation,199203
"The results, which are derived from a more general approach in comparison to the Greenhut-Ohta model (1976), show that, in a vertically related spatial market with a monopolistic producer and competing retail firms, the prices for input goods and final goods are affected by the market structure on the retail market and the assumed demand function of the consumers. The discussed ratio of the retailers' and manufacturer's gross profits under separate profit maximization is also influenced by the ratio of a marginal change in retail prices and a marginal change in wholesale prices. For a linear demand function and fixed market areas, a gross profit to the monopolistic producer is yielded that is twice the gross profit that can be realized by the retailers as a group, independently of any number of competitors.",0226315,"Scholer, Klaus",U Siegen,http//www.mohr.de/en/journals/economics/journal-of-institutional-and-theoretical-economics-jite/current-issue.html,,,Market Structure Industrial Organization and Corporate Strategy          (6110)Microeconomics--Theory of Firm and Industry under Imperfectly Competitive Market Structures          (0226)Theory of Regional Economics          (9411),,,,,,,00442550,,,,September 1989,Journal Article,,,"Journal of Institutional and Theoretical Economics, September 1989, v. 145, iss. 3, pp. 525-32",Some Properties of Vertically Related Markets in a Spatial Context,199006
"The role of Chilean intellectuals in the creation of a national culture of development during the last three decades is discussed in this paper. We argue that this role has strongly influenced the shaping of a highly ideologized and adversary culture of development. Only in recent years, as an outcome of the authoritarian experience and the starting of a process of transition to democracy, a more flexible, pragmatic and complex national culture of development is emerging.",0230517,"Brunner K., Jose Joaquin",FLACSO,http//www.laje-ce.org/en/home,,,Relation of Economics to Social Values          (0114),,,,Chile,Latin America and the Caribbean,,07160046,,Spanish,,December 1989,Journal Article,,,"Cuadernos de Economia (Pontifical Catholic University of Chile), December 1989, v. 26, iss. 79, pp. 311-19",Los intelectuales y los problemas de la cultura del desarrollo. (With English summary.),199009
,0261768,"Ibarra, David; Alberro, Jose-Luis",Unlisted; College of Mexico,,,,Role of Economics; Role of Economists          (0112),,"Pechman, Joseph A.",,Mexico,Latin America and the Caribbean,,,,,,1989,Collective Volume Article,New York; London; Toronto and Tokyo Harvester Wheatsheaf,,"The role of the economist in government An international perspective, 1989, pp. 147-70",The Role of the Economist in Government An International Perspective Mexico,199203
"Despite a significant misestimation of the terminal dividend, a very bullish ten-year S&P 400 forecast that the author made in October 1978 turned out quite well. Employing a unique postmortem methodology, the article reveals the interplay of key valuation factors during the 1978-88 period. The author notes important limitations of ""expected return"" data and strongly encourages an inflation-adjusted framework for contemplating risk premiums.",0228857,"Gray, William S.",Harris Trust Saving Bank,http//www.iijournals.com/loi/jpm,,,"Capital Markets--Empirical Studies, Including Regulation          (3132)Specific Forecasts and Models          (1323)",,,,U.S.,Northern America,,00954918,,,,Fall 1989,Journal Article,,,"Journal of Portfolio Management, Fall 1989, v. 16, iss. 1, pp. 36-44",The Anatomy of a Stock Market Forecast,199006
,0227624,"Gibbons, Michael R.",Stanford,http//www.sciencedirect.com.turing.library.northwestern.edu/science/journal/01672231,,,"Capital Markets--Empirical Studies, Including Regulation          (3132)",,,,U.S.,Northern America,,01672231,,,,Autumn 1989,Journal Article,,,"Carnegie-Rochester Conference Series on Public Policy, Autumn 1989, v. 31, pp. 139-75",On the Volatility of Bond Prices,199006
,0257921,"Li, Yunhe",Unlisted,,,,Socialist and Communist Economic Systems          (0520)Agricultural Markets and Marketing; Cooperatives          (7150),,"Howe, Christopher; Walker, Kenneth R.",,China,Asia,,,,,,1989,Collective Volume Article,New York St. Martin's Press,[1957],"The foundations of the Chinese planned economy A documentary survey, 1953-65, 1989, pp. 237-46",How to Improve the Management of Agricultural Producers' Co-operatives. The 'Special Management System' and 'Contracting Output Down to the Household' Are Good Methods of Solving the Main Contradictions in the Co-operatives,199203
,0243534,"Dorman, Peter",Hamilton College,http//rrp.sagepub.com.turing.library.northwestern.edu/content/by/year,,,,,,,,,,04866134,,,,Fall 1989,Journal Article,,,"Review of Radical Political Economics, Fall 1989, v. 21, iss. 3, pp. 1-6",Alienation and Preference Theory,199106
,0225877,"Castle, Emery N.",OR State U,,,,Agriculture--General          (7100)Economic Methodology          (0360),,,,,,,00021423,,,,Summer 1989,Journal Article,,,"Journal of Agricultural Economics Research, Summer 1989, v. 41, iss. 3, pp. 3-7",Economic Theory in Agricultural Economics Research,199006
,0255633,"Evren, Gungor; Gercek, Haluk",Technical U Istanbul; Technical U Istanbul,,,,Economics of Transportation          (6150),,"Candemir, Yucel",,Turkey,Europe,,,,,,1989,Collective Volume Article,"Assistants to the editor Nurhan Yenturk Coban and N. Lerzan Ozkale Istanbul Istanbul Technical University, Transportation and Vehicles Research Center",,"Approaches to regional transport problems Middle East requirements Papers and proceedings, 1989, pp. 285-99",A Preliminary Evaluation of the Container Transportation on the Turkish Railway Network,199203
Abstract not available,1116274,"Frohberg, Klaus K.; Meyers, William H.; Johnson, Stanley R.",Unlisted; Unlisted; Unlisted,,Information provided in collaboration with the RePEc Project http//repec.org,,,,,,,,,,,,,1989,Working Paper,"Iowa State University, Department of Economics, Staff General Research Papers",,1989,Benefits and Costs of Policy Reform in World Food Production and Distribution Systems,201007
,0225970,"Urbany, Joel E.; Dickson, Peter R.; Wilkie, William L.",U South Carolina; OH State U; U Notre Dame,http//www.jstor.org.turing.library.northwestern.edu/action/showPublication?journalCode=jconsrese,,,"Marketing and Advertising          (5310)Consumer Economics--Living Standards, Composition of Overall Expenditures, and Empirical Consumption and Savings Studies          (9211)",,,,U.S.,Northern America,,,,,,September 1989,Journal Article,,,"Journal of Consumer Research, September 1989, v. 16, iss. 2, pp. 208-15",Buyer Uncertainty and Information Search,199006
"Presents a column-by-column, page-by-page guide to the Bank of Canada's Weekly Financial Statistics and sets out the essential raw material behind monetary policy implementation. Follows the order of entries in the Weekly Financial Statistics. Discusses the following topics the Bank of Canada's balance sheet; chartered bank assets; the Canadian clearing and settlement system; chartered bank liabilities; chartered bank reserve requirements; the monetary aggregates; selected seasonally adjusted series; exchange rates; financial market statistics and prices and yields for Government of Canada marketable bonds; securities issued and outstanding; trust and mortgage company balance sheets; credit outstanding; and interest-rate charts. Sets out a simple format for evaluating monetary policy using the Weekly Financial Statistics and discusses two case studies to show how the information in this publication can be used for making money in fixed income markets. Suggests where the bank could present both more and better data releases. Martin is Vice-President and Director of Fixed Income Research of Scotia McLeod Incorporated, a Canadian investment house. Bibliography; index.",0044898,"Martin, Peter.",,,,,Domestic Monetary Theory and Policy          (3110)Financial Accounts; Financial Statistics; Empirical Analyses of Capital Adequacy          (2230),,,,,,0-88975-117-X,,,,,1989,Book,Vancouver Fraser Institute,,"1989, pp. xxi, 234",Inside the Bank of Canada's weekly financial statistics A technical guide,199006
"Nineteen papers, presented at a conference held at Tel-Aviv University in June 1986, discuss the opportunities, risks, benefits, and economic costs that peace in the Middle East offers and involves. Papers focus on the economic considerations of the pre-peace era; solutions to conflicts and the risks of cooperation; international experiences and options and their implications for the Middle East; and suggestions for and analysis of specific projects in the Middle East. Contributors include economists. Fishelson is Professor of Economics at Tel-Aviv University. Index.",0046531,"Fishelson, Gideon, ed.",,,,,Economic Studies of Developing Countries--General          (1210),,,,,,0-8133-7535-5,,,,,1989,Book,"Westview Special Studies on the Middle East Boulder, Colo. and London Westview Press",,"1989, pp. xi, 372",Economic cooperation in the Middle East,199006
,0225473,"Corrigan, E. Gerald","Fed Res Bank, New York",,,,General Outlook          (1330)Domestic Monetary Theory and Policy          (3110),,,,U.S.,Northern America,,01476580,,,,Summer 1989,Journal Article,,,"Federal Reserve Bank of New York Quarterly Review, Summer 1989, v. 14, iss. 2, pp. 1-6",Legislative Priorities,199006
,0256804,"Henry, E. W.","Economic & Social Research Institute, Dublin",,,,Input-Output          (2220)National Income Accounts          (2212)General Equilibrium and Disequilibrium Theory          (0210),,"Franz, Alfred; Rainer, Norbert",,Ireland,Europe,,,,,,1989,Collective Volume Article,"With contributions by S. Bar-Eliezer et al. Schriftenreihe der Osterreichischen Statistischen Gesellschaft, Band 4 Vienna Wirtschaftsverlag Orac",,"Compilation of input-output data Proceedings of the 2nd International Meeting on Problems of Compilation of Input-Output Tables, organized by the Austrian Statistical Society, Baden near Vienna, Austria, 13-19 March, 1988, 1989, pp. 325-42",An Experiment in Deflating Input-Output Transactions and in Estimating Terms-of-Trade Effects,199203
,0256103,"Malan, Pedro S.",World Bank,,,,International Investment and Long-term Capital Movements--Theory          (4411),,"Calvo, Guillermo","Diaz-Alejandro, Carlos",,,,,,,,1989,Collective Volume Article,"Oxford and Cambridge, Mass. Blackwell; Helsinki United Nations University, World Institute for Development Economics Research",,"Debt, stabilization and development Essays in memory of Carlos Diaz-Alejandro, 1989, pp. 130-33",Country Risk and the Organization of International Capital Transfer Comment,199203
,0255983,"Spithoven, A. H. G. M.",U Utrecht,,,,Income Distribution          (2213)Employment Studies; Unemployment and Vacancies; Retirements and Quits          (8243),,"Davidson, Paul; Kregel, Jan",,Netherlands,Europe,,,,,,1989,Collective Volume Article,"Aldershot, U.K. Elgar; Brookfield, Vt. Gower",,"Macroeconomic problems and policies of income distribution Functional, personal, international, 1989, pp. 280-87",Distribution of Income and Unemployment in the Netherlands 1965-85,199203
,0257118,"Gottdiener, M.","U CA, Riverside",,,,Capitalist Economic Systems Market Economies          (0510)Economic Fluctuations--General          (1310)Relation of Economics to Other Disciplines          (0113)Urban Economics and Public Policy          (9310),,"Gottdiener, M.; Komninos, Nicos",,U.S.,Northern America,,,,,,1989,Collective Volume Article,New York St. Martin's Press,,"Capitalist development and crisis theory Accumulation, regulation and spatial restructuring, 1989, pp. 365-90",Crisis Theory and Socio-spatial Restructuring The U.S. Case,199203
,0227457,"Kushner, Joseph",Brock U,http//www.federallegalpublications.com/antitrust-bulletin/all,,,Commercial Banking          (3120),,,,Canada,Northern America,,0003603X,,,,Fall 1989,Journal Article,,,"Antitrust Bulletin, Fall 1989, v. 34, iss. 3, pp. 683-93","Profit Rates, Risk, and Size in Canadian Banks and Trust Companies",199006
,0258379,"Wright, John Winthrop","Wright Investors' Service, Bridgeport, CT",,,,International Monetary Arrangements          (4320)Exchange Rates and Markets--Theory and Studies          (4314),,"Kaushik, Surendra K.",,Global,,,,,,,1989,Collective Volume Article,"New York Simon and Schuster, New York Institute of Finance",,"International capital markets New directions, 1989, pp. 35-48",A Proposal for a New and Stable International Currency,199203
,0220680,"Moore, Basil J.",,http//mesharpe.metapress.com.turing.library.northwestern.edu/openurl.asp?genre=journal&issn=0160-3477,,,Domestic Monetary Theory; Empirical Studies Illustrating Theory          (3112),,,,,,,01603477,,,,Spring 1989,Journal Article,,,"Journal of Post Keynesian Economics, Spring 1989, v. 11, iss. 3, pp. 479-87",On the Endogeneity of Money Once More Comment,199006
We consider a surplus sharing problem faced by a group of agents who have different opinions as to how such problems should be solved in general. We propose a procedure to resolve the conflict and show that each agent receives an equal share of the surplus in all noncooperative Nash equilibria of the game induced by the procedure.,0226639,"Chun, Youngsub",S IL U,http//www.sciencedirect.com.turing.library.northwestern.edu/science/journal/01654896,,,Game Theory and Bargaining Theory          (0262),,,,,,,01654896,,,,June 1989,Journal Article,,,"Mathematical Social Sciences, June 1989, v. 17, iss. 3, pp. 245-61",A Noncooperative Justification for Egalitarian Surplus Sharing,199006
"This article offers an exegesis of the passages in von Neumann and Morgenstern (1944, 1947, 1953) that discuss their conception of utility. It is occasioned by two factors. First, as we approach the semicentennial of the publication of THEORY OF GAMES AND ECONOMIC BEHAVIOR, its immense impact on economics thought in the intervening years encourages serious reflection on its authors' ideas. Second, misleading statements about the theory continue to appear. The article will have accomplished its purpose if it helps others appreciate the genius and spirit of the theory of utility fashioned by John von Neumann and Oskar Morgenstern.",0228916,"Fishburn, Peter C.",AT&T Bell Labs,http//link.springer.com.turing.library.northwestern.edu/journal/volumesAndIssues/11166,,,Microeconomic Theory--General          (0220)Theory of Uncertainty and Information          (0261)History of Economic Thought--Individuals          (0322),,,,,,,08955646,,,"von Neumann, John; Morgenstern, Oskar",June 1989,Journal Article,,,"Journal of Risk and Uncertainty, June 1989, v. 2, iss. 2, pp. 127-57",Retrospective on the Utility Theory of von Neumann and Morgenstern,199006
,0228212,"de Buckle, Teresa Salazar; Holaday, William; Castella, Guillermo",UNIDT; UNIDT; UNIDT,,,,Agricultural Situation and Outlook          (7120),,,,Latin America,Latin America and the Caribbean,,01977253,,,,June 1989,Journal Article,,,"Industry and Development, June 1989, iss. 27, pp. 1-29",Agro-food Industry in Latin America,199006
,0259517,"Ambrosi, Klaus",U Hildesheim,,,,Marketing and Advertising          (5310),,"Opitz, Otto",,,,,,,,,1989,Collective Volume Article,"In cooperation with W. Gaul, H Schnelling, and P. O. Degens New York; Berlin; London and Tokyo Springer",,"Conceptual and numerical analysis of data Proceedings of the 13th conference of the Gesellschaft fur Klassifikation e. V., University of Augsburg, April 10-12, 1989, 1989, pp. 335-55",Computer-Based and Quantitative Methods in Market Research,199203
"Veblen's theory of capital occupies a central position in his analysis of capitalism. Capital goods are the means of putting to use society's technology, but relatively few people can afford such goods in a society with a sophisticated technology. As a result, owners of capital goods are able to extract a rent from society for the privilege of using its own knowledge. Moreover, capitalists, in seeking to maximize the rents received, act as a disruptive force on the economy. The institution of private ownership of capital is therefore the source of both injustice and instability, and Veblen sought a solution to both problems in his Soviet of technicians.",0229500,"McCormick, Ken",U N Iowa,,,,History of Economic Thought Individuals          (0322)Capitalist Economic Systems Market Economies          (0510)History of Economic Thought Historical and Institutional          (0318)Macroeconomics Theory of Aggregate Distribution          (0235),,,,,,,00356751,,,"Veblen,-Thorstein",July 1989,Journal Article,,,"Rivista Internazionale di Scienze Economiche e Commerciali, July 1989, v. 36, iss. 7, pp. 609-22",Veblen on the Nature of Capital,199006
,0225405,"Batra, Raveendra N.; Naqvi, Nadeem",S Methodist U; U GA,http//www.sciencedirect.com.turing.library.northwestern.edu/science/journal/00142921,,,Theory of Protection          (4113)Theory of Protection          (4113),,,,,,,00142921,,,,April 1989,Journal Article,,,"European Economic Review, April 1989, v. 33, iss. 4, pp. 721-35",Non-traded and Intermediate Goods and the Theory of Protection,199006
,0261121,"van der Ploeg, Frederick; de Zeeuw, Aart J.",Tilburg U; Tilburg U,,,,Game Theory and Bargaining Theory          (0262),,"van der Ploeg, Frederick; de Zeeuw, Aart","Verheyen, Piet",,,,,,,,1989,Collective Volume Article,"Contributions to Economic Analysis, no. 181 Amsterdam; New York; Oxford and Tokyo North-Holland; distributed in the U.S. and Canada by Elsevier Science, New York",,"Dynamic policy games in economics Essays in honour of Piet Verheyen, 1989, pp. 1-8",Dynamic Policy Games in Economics Introduction,199203
"In considering the historic writings of Marx, the article seeks to show that as religion became institutionalized in the form of the Catholic Church it becomes simply another component of the edifice of the superstructure. This position is challenged chiefly through the emergence of the Liberation Churches. The roots, institutionalization, and establishment of the present-day church are described. The role of the Liberation Churches in serving those suffering oppression is also discussed in comparison with Marxist thought, and in some areas the two views are seen to be irreconcilable.",0228319,"Thorpe, Andy",Portsmouth Polytech,http//www.emeraldinsight.com.turing.library.northwestern.edu/journals.htm?issn=0306-8293,,,Relation of Economics to Social Values          (0114)History of Economic Thought--Socialist and Marxian until 1945          (0317),,,,,,,03068293,,,,1989,Journal Article,,,"International Journal of Social Economics, 1989, v. 16, iss. 12, pp. 14-25",The Religious Opium of Liberation Redemption Politicised?,199006
,0221301,"Clement, Hermann",,,,,Commercial Policy          (4220)International Business and Multinational Enterprises          (4420),,,,U.S.S.R.,Asia; Europe,,00385263,,,,Winter 1988-89,Journal Article,,,"Soviet and Eastern European Foreign Trade, Winter 1988-89, v. 24, iss. 4, pp. 1-94",Changes in the Soviet Foreign Trade System,199006
,0255765,"Choudhury, Masudul Alam",U College of Cape Breton,,,,Economic Integration--Policy and Empirical Studies          (4233)Capitalist Economic Systems Market Economies          (0510),,"Choudhury, Masudul Alam",,Middle East; Africa,Asia; Africa,,,,,,1989,Collective Volume Article,Preface by Ozay Mehmet. Foreword by Syed Ahmad New York St. Martin's Press,,"Islamic economic co-operation, 1989, pp. 23-41",Decision-Making under Consensus The Case of Economic Co-operation,199203
,0258347,"Winder, Robert C.",Salisburg State College,,,,History of Economic Thought--Individuals          (0322),,"Katz, Bernard S.",,,,,,,,"Klein, Lawrence R.",1989,Collective Volume Article,Garland Reference Library of the Humanities series vol. 850 New York and London Garland,,"Nobel laureates in economic sciences A biographical dictionary, 1989, pp. 122-35",Nobel Laureates in Economic Sciences A Biographical Dictionary Lawrence R. Klein 1980,199203
,0226100,"Kessler, Denis; Masson, Andre",U Nancy; CNRS,http//www.aeaweb.org.turing.library.northwestern.edu/jep/,,,Macroeconomics--Theory of Aggregate Demand Consumption          (0232)National Wealth and Balance Sheets          (2240)Macroeconomics of Intertemporal Choice          (0239)Welfare Theory--Redistribution Analyses          (0243),http//dx.doi.org.turing.library.northwestern.edu/10.1257/jep.3.3.141,,,,,,08953309,,,,Summer 1989,Journal Article,,,"Journal of Economic Perspectives, Summer 1989, v. 3, iss. 3, pp. 141-52",Bequest and Wealth Accumulation Are Some Pieces of the Puzzle Missing?,199006
,0229490,"Hausman, Daniel M.",CMU & U Wisc,,,,Economic Methodology          (0360)Microeconomic Theory Theory of the Household Consumer Demand          (0222),,,,,,,00355054,,,,January-June 1989,Journal Article,,,"Ricerche Economiche, January-June 1989, v. 43, iss. 1-2, pp. 199-217",Decision Theory and the Deductive Method,199006
,0227923,"Riley, Jonathan",Tulane,http//journals.cambridge.org.turing.library.northwestern.edu/action/displayBackIssues?jid=EAP,,,Social Choice Theory          (0251)Welfare Theory--General          (0240),,,,,,,02662671,,,,October 1989,Journal Article,,,"Economics and Philosophy, October 1989, v. 5, iss. 2, pp. 121-66",Rights to Liberty in Purely Private Matters,199006
The dollar ended the three-month period from May through July one-quarter of a percent lower on a trade-weighted basis as measured by the staff of the Board of Governors. The dollar's net movements against individual currencies varied considerably It was 3 percent higher against the Japanese yen; 1 and one-quarter percent higher against the British pound; three-quarters of a percent lower against the German mark; and one-quarter of a percent lower against the Canadian dollar.,0225506,"Cross, Sam Y.","Fed Res Bank, NY",http//www.federalreserve.gov/pubs/bulletin/default.htm,,,"Domestic Monetary Policy, Including All Central Banking Topics          (3116)Exchange Rates and Markets--Theory and Studies          (4314)",,,,U.S.,Northern America,,00149209,,,,October 1989,Journal Article,,,"Federal Reserve Bulletin, October 1989, v. 75, iss. 10, pp. 670-74",Treasury and Federal Reserve Foreign Exchange Operations,199006
,0746257,"Krishna, Kala",Unlisted,http//www.nber.org.turing.library.northwestern.edu/papers/w1546.pdf,Information provided in collaboration with the RePEc Project http//repec.org,,,,,,,,,,,,,1989,Working Paper,"National Bureau of Economic Research, Inc, NBER Working Papers 1546",,1989,Trade Restrictions as Facilitating Practices,200410
,0257009,"Rubinstein, David",U Hull,,,,"History of Economic Thought--Individuals          (0322)History of Economic Thought--Classical          (0314)Economic History--Europe--History of Public Economic Policy, all levels          (0443)Economics of Minorities; Economics of Discrimination          (9170)",,"Goldman, Lawrence",,U.K.,Europe,,,,,"Fawcett, Henry; Fawcett, Millicent Garrett",1989,Collective Volume Article,Cambridge; New York and Melbourne Cambridge University Press,,"The blind Victorian Henry Fawcett and British liberalism, 1989, pp. 71-90",Victorian Feminists Henry and Millicent Garrett Fawcett,199203
,0258513,"Tchijov, Iouri","IIASA, Laxenburg",,,,Forecasting and Econometric Models--Theory and Methodology          (1324),,"Krelle, Wilhelm",,U.S.,Northern America,,,,,,1989,Collective Volume Article,New York; Berlin; London and Tokyo Springer,,"The future of the world economy Economic growth and structural change, 1989, pp. 571-79",Economic Structural Changes The Problems of Forecasting,199203
,0222102,"Berman, Peter; Sisler, Daniel G.; Habicht, Jean-Pierre",,http//www.jstor.org.turing.library.northwestern.edu/action/showPublication?journalCode=econdevecultchan,,,Economics of Health (including medical subsidy programs)          (9130),,,,Indonesia,Asia,,00130079,,,,July 1989,Journal Article,,,"Economic Development and Cultural Change, July 1989, v. 37, iss. 4, pp. 778-803",Equity in Public-Sector Primary Health Care The Role of Service Organization in Indonesia,199006
,0239397,"Saint-Marc, Michele",CNRS,http//www.istitutodatini.it/biblio/riviste/g-k/journal4.htm,,,Domestic Monetary Theory; Empirical Studies Illustrating Theory          (3112)Comparative Intercountry or Intertemporal Economic History          (0412),,,,France; U.K.; U.S.,Europe; Northern America,,,,,,Winter 1989,Journal Article,,,"Journal of European Economic History, Winter 1989, v. 18, iss. 3, pp. 551-82","Monetary History in the Long Run How Are Monetarization and Monetarism Implicated in France, in the U.K. and in U.S.A.?",199103
,0255576,"Barsoux, Jean-Louis",Unlisted,,,,Business and Public Administration--General          (5130)Economics of Education          (9120)Teaching of Economics          (0120),,"Byrt, William",,France,Europe,,,,,,1989,Collective Volume Article,London and New York Routledge,,"Management education An international survey, 1989, pp. 120-50",Management Education in France,199203
,0256309,"Dugger, William M.",DePaul U,,,,History of Economic Thought--Historical and Institutional          (0318),,"Dugger, William M.",,,,,,,,,1989,Collective Volume Article,"Contributions in Economics and Economic History series no. 90 Westport, Conn. and London Greenwood Press",,"Radical institutionalism Contemporary voices, 1989, pp. 105-23",A Research Agenda for Institutional Economics,199203
,0045969,"Campbell, Ellen",,,,Ph.D.,Economics of Health (including medical subsidy programs)          (9130),,,,,,,,,,,1989,Dissertation,Florida State University,,1989,Hospital Provision of Indigent Health Care Issues in Regulatory Reform,199006
,0254687,"Abramovitz, Moses",Stanford U,,,,Economic Fluctuations--Theory          (1312)Productivity and Growth Theory and Data          (2260)Growth Theories--General          (1110),,"Abramovitz, Moses",,,,,,,,,1989,Collective Volume Article,Studies in Economic History and Policy The United States in the Twentieth Century Cambridge; New York and Melbourne Cambridge University Press,[1961],"Thinking about growth And other essays on economic growth and welfare, 1989, pp. 245-75",The Nature and Significance of Kuznets Cycles,199203
,0224832,"Chesher, Andrew",U Bristol,http//www.econometricsociety.org/tocs.asp,,,Distributed Correlated Disturbance Terms; Inferential Problems in Single Equation Models          (2113),,,,,,,00129682,,,,July 1989,Journal Article,,,"Econometrica, July 1989, v. 57, iss. 4, pp. 971-77","Hajek Inequalities, Measures of Leverage and the Size of Heteroskedasticity Robust Wald Tests",199006
,0223232,"Feinstein, Jerald L.",,http//onlinelibrary.wiley.com.turing.library.northwestern.edu/journal/10.1002/%28ISSN%291520-6688/issues,,,Organization and Decision Theory          (5110),,,,,,,02768739,,,,Spring 1989,Journal Article,,,"Journal of Policy Analysis and Management, Spring 1989, v. 8, iss. 2, pp. 182-87",Introduction to Expert Systems,199006
,0045233,"Dezhbakhsh, Hashem",,,,Ph.D.,Econometric and Statistical Methods and Models--General          (2110),,,,,,,,,,,1989,Dissertation,Ohio State University,,1989,Alternative Tests for Serial Correlation in Regression Models with Lagged Dependent Variables,199006
,0221644,"Feder, Gershon; Onchan, Tongroj",,http//ajae.oxfordjournals.org.turing.library.northwestern.edu/content/by/year,,,Land Ownership and Tenure; Land Reform          (7171),,,,Thailand,Asia,,00029092,,,,February 1989,Journal Article,,,"American Journal of Agricultural Economics, February 1989, v. 71, iss. 1, pp. 215-16",Land Ownership Security and Farm Investment Reply,199006
"Focuses on the importance of Keynes's ideas on British economic policy from a broad interdisciplinary perspective. Begins with a review of Keynes's economics and policy in the 1930s, emphasizing A Treatise on Money (1930) and the General Theory (1936). Reviews Keynes's contributions to policy debates in the 1930s and describes the influence of Keynesian ideas during the 1930s on the British Treasury. Examines the Keynesian impact during the Second World War, discussing the war economy, budgetary policies (1939-43), external dimensions, structural versus inadequate demand unemployment, fiscal policy, and the Employment Policy White Paper. The last part focuses on creating peacetime policy, 1945-49, discussing postwar economic and political problems. Booth is Lecturer in Economic History at the University of Exeter. Bibliography; index.",0240811,"Booth, Alan",,,,,Economic History--Europe--General          (0440)General Outlook          (1330),,,,,,0-7450-0385-0,,,,,1989,Book,"New York; London; Toronto and Sydney Simon and Schuster, Harvester Wheatsheaf",,"1989, pp. x, 202","British economic policy, 1931-49 Was there a Keynesian revolution?",199103
,0258952,"Cromie, Stanley; Ayling, Simon",Unlisted; Unlisted,,,,Goals and Objectives of Firms          (5140),,"Mansfield, Roger",,,,,,,,,1989,Collective Volume Article,London and New York Routledge,,"Frontiers of management, 1989, pp. 221-32","The Motivation, Satisfaction and Company Goals of Business Proprietors",199203
,0233554,"Axilrod, Stephen H.",Nikko Securities Co International Inc,http//www.cato.org/pubs/journal/index.html,,,Domestic Monetary Theory and Policy          (3110),,,,U.S.,Northern America,,02733072,,,,Fall 1989,Journal Article,,,"Cato Journal, Fall 1989, v. 9, iss. 2, pp. 363-66",Central Bank Credibility An Alternative to Private Money,199012
,0257544,"Broehl, Wayne",Dartmouth College,,,,Economic History--United States and Canada General          (0420)History of Economic Thought--Individuals          (0322)Relation of Economics to Other Disciplines          (0113),,"Hausman, William J.",,U.S.,Northern America,,,,,"Broehl, Wayne",1989,Collective Volume Article,"Second Series, vol. 18 Williamsburg, Va. College of William and Mary, Department of Economics Business History Conference",,"Business and economic history Papers presented at the thirty-fifth annual meeting of the Business History Conference, March 31-April 2, 1989, Boston, Massachusetts, 1989, pp. 1-10",The Family Business,199203
,0746205,"Edwards, Sebastian",Unlisted,http//www.nber.org.turing.library.northwestern.edu/papers/w2502.pdf,Information provided in collaboration with the RePEc Project http//repec.org,,,,,,,,,,,,,1989,Working Paper,"National Bureau of Economic Research, Inc, NBER Working Papers 2502",,1989,Structural Adjustment Policies in Highly Indebted Countries,200410
,0219289,"MacDonald, Ronald; Taylor, Mark P.",,http//www.tandfonline.com.turing.library.northwestern.edu/loi/raec20,,,"Capital Markets--Empirical Studies, Including Regulation          (3132)",,,,U.K.,Europe,,00036846,,,,February 1989,Journal Article,,,"Applied Economics, February 1989, v. 21, iss. 2, pp. 143-53","Rational Expectations, Risk and Efficiency in the London Metal Exchange An Empirical Analysis",199006
"An empirical comparison of workers with and without advance notice of displacement indicates that advance notice of displacement reduces the duration without work. Between 1979 and 1984, about 4.2 million weeks without work were avoided because of advance notice. Workers without advance notice incurred an additional 3.8 million weeks without work. No relationship between advance notice and subsequent earnings is found. More workers were displaced due to slack work or abolishment of position or shift than plant closing or move. These workers experienced longer periods without work. This finding is noteworthy because advance-notice legislative activity has focused on plant closings.",0221272,"Love, Douglas O.; Torrence, William D.",,http//journal.southerneconomic.org/loi/soec,,,Employment Studies; Unemployment and Vacancies; Retirements and Quits          (8243),,,,U.S.,Northern America,,00384038,,,,January 1989,Journal Article,,,"Southern Economic Journal, January 1989, v. 55, iss. 3, pp. 626-43",The Value of Advance Notice of Worker Displacement,199006
,0237167,"Wu, Huoying",,,,Ph.D.,Human Capital; Value of Human Life          (8510),,,,,,,,,,,1989,Dissertation,Ohio State University,,1989,Two Essays in the Human Capital Theory,199012
"An examination of the relationship between the number of local governments within local labor markets and their expenditures, finding empirical support in both suburbs and central cities for the connection between the structure of the local public service market and its performance.",0698994,"Eberts, Randall W.; Gronberg, Timothy J.",Unlisted; Unlisted,,Information provided in collaboration with the RePEc Project http//repec.org,,,,,,,,,,Local government ;  Competition,,,1989,Working Paper,"Federal Reserve Bank of Cleveland, Working Paper 8910",,1989,"Structure, conduct, and performance in the local public sector",200404
,0255398,"Tanzi, Vito",IMF,,,,Economic Integration--Policy and Empirical Studies          (4233)Open Economy Macroeconomics; Exchange Rates--General          (4310),,"Bryant, Ralph C.",,,,,,,,,1989,Collective Volume Article,"Washington, D.C. International Monetary Fund; Washington, D.C. Brookings Institution; London Centre for Economic Policy Research",,"Macroeconomic policies in an interdependent world, 1989, pp. 47-50",The Theory and Practice of International Policy Coordination Does Coordination Pay? Comment,199203
,0235909,"Fichtenbaum, Rudy; Blair, John P.",Wright State U; Wright State U,http//journal.srsa.org/ojs/index.php/RRS/issue/archive,,,Geographic Labor Market Studies          (8241),,,,U.S.,Northern America,,0048749X,,,,Winter 1989,Journal Article,,,"Review of Regional Studies, Winter 1989, v. 19, iss. 1, pp. 72-76",Regional Differences in Labor Demand in the United States,199012
"Examines the early stages of the adoption and introduction of new technology into organizations. Reviews the empirical evidence relating to those objectives that have been adopted with regard to the introduction of new technology. Analyzes managerial strategies in relation to new technology and presents a model of the stages of new technology adoption. Presents four case studies two studies are of the adoption of branch office online terminal systems, linked to the head offices of two building societies; a third study examines the adoption of computer numerical control machine tools and computer-aided design and drafting in a capital equipment manufacturer; and the last study also examines computer-aided design and drafting adoption, as well as computerized order processing, inventory control and accounting, and payroll system, in a specialist batch engineering company. Relates the case study findings to each other and to the issues reviewed earlier. Preece is Senior Lecturer in the Department of Business and Management Studies, Coventry Polytechnic. Bibliography; index.",0046313,"Preece, David A.",,,,,Technological Change; Innovation; Research and Development General          (6210)Managerial Economics          (5120),,,,,,0-415-01273-2,,,,,1989,Book,Management and New Information Technology Series London and New York Routledge,,"1989, pp. xv, 288",Managing the adoption of new technology,199006
,0257794,"Zagorski, Krzysztof",Australian National U,,,,Regional Economic Studies          (9412),,"Higgins, Benjamin; Zagorski, Krzysztof",,Australia,Oceania,,,,,,1989,Collective Volume Article,"Australian Regional Developments series, no. 10 Canberra Department of Immigration, Local Government and Ethnic Affairs, Office of Local Government; distributed by Australian Government Publishing Service",,"Australian regional developments Readings in regional experiences, policies and prospects, 1989, pp. 151-72",Main Dimensions of Regional Differentiation,199203
"We develop a model of marriage market equilibrium that can be used to study effects of the age distribution of men and women on marriage patterns. The model clarifies issues in the literature such as the two-sex problem and the marriage squeeze. In particular, the fact that women tend to marry men who are older than they implies that when cohort sizes fluctuate, there are shifts in relative supply and demand of marriage partners of the two sexes. We consider age difference between spouses as an equilibrating mechanism in marriage markets. The model follows Becker's application of the Koopmans-Beckman assignment model to marriage markets. We show that even large differences in cohort sizes can be absorbed by relatively small changes in the age differential of spouses, with no necessary changes in the proportion of men and women ever marrying.",0958976,"Bergstrom, Ted; Lam, David","University of California, Santa Barbara; University of Michigan",http//repositories.cdlib.org/cgi/viewcontent.cgi?article=1140&context=ucsbecon,Information provided in collaboration with the RePEc Project http//repec.org,,,,,,,,,,"two-sex problem, age of marriage, marriage squeeze, marriage market,",,,1989,Working Paper,"Department of Economics, UC Santa Barbara, University of California at Santa Barbara, Economics Working Paper Series 1989C",,1989,The Two-Sex Problem and the Marriage Squeeze in an Equilibrium Model of Marriage Markets,200803
,0243227,"Khan, Ashfaque H.",Pakistan Institute of Development Econ,http//pide.org.pk/pdr/index.php/pdr/issue/archive,,,,,,,S. Asia; W. Europe,Asia; Europe,,00309729,,,,Winter 1989,Journal Article,,,"Pakistan Development Review, Winter 1989, v. 28, iss. 4, pp. 502-04",South Asia and Economic Integration--Lessons from the Past and Future Prospects Comments,199106
,0221382,"Goulet, Denis",,http//www.sciencedirect.com.turing.library.northwestern.edu/science/journal/0305750X,,,Economic Development Models and Theories          (1120)Economic Studies of Developing Countries--Asian Countries          (1214)Economic Studies of Developing Countries--Latin American and Caribbean Countries          (1216),,,,Sri Lanka; Brazil,Asia; Latin America and the Caribbean,,0305750X,,,,February 1989,Journal Article,,,"World Development, February 1989, v. 17, iss. 2, pp. 165-78",Participation in Development New Avenues,199006
"In this paper, the authors develop a neoclassical growth model to test the impact of an increase in bond financed government expenditures on private spending. The key issue concerns the effect that an increase in government debt has on private spending under the assumption of both complete and partial discounting of future taxes. The existence of partial discounting will depend upon the public's ability to associate an increase in the government's debt with an attempt to optimally allocate tax payments and will have a significant impact on whether increases in nominal government debt crowd out or crowd in private capital formation.",0240166,"Glennon, Dennis",U Louisville,,,,Fiscal Theory; Empirical Studies Illustrating Fiscal Theory          (3212)One and Two Sector Growth Models and Related Topics          (1112)Domestic Monetary Theory; Empirical Studies Illustrating Theory          (3112),,,,,,,00333476,,,,1989,Journal Article,,,"Public Finance, 1989, v. 44, iss. 3, pp. 394-405",A Note on the Long-run Effects of Bond Financed Government Expenditures,199103
,0257483,"Hancher, Leigh; Moran, Michael",U Leiden; Victoria U Manchester,,,,Market Structure Industrial Organization and Corporate Strategy          (6110)Economics of Regulation          (6190)Relation of Economics to Social Values          (0114),,"Hancher, Leigh; Moran, Michael",,U.K.; U.S.,Europe; Northern America,,,,,,1989,Collective Volume Article,"Government-Industry Relations series Oxford; New York; Toronto and Melbourne Oxford University Press, Clarendon Press",,"Capitalism, culture, and economic regulation, 1989, pp. 271-99",Organizing Regulatory Space,199203
"Fifteen papers, presented at a seminar held in Bangkok in August 1987, examine the linkages between the energy sector and economic development, assess the role of the energy sector in future development, and discuss energy policy options that will optimize economic growth. Papers focus on the international petroleum market; the energy sector and economic growth; energy trade in Asia and the Pacific; changes in the balance of payments and capital flows; property rights, and petroleum exploration and development in the Asian developing countries; the energy sector and economic issues in New Zealand; impacts of deregulation on the Australian petroleum industry; the effects of oil price changes on the Korean economy; energy sector performance and economic development in Taiwan; energy plans and strategies in Malaysia; Thailand's energy sector; energy and the economy in the Philippines; the energy outlook in Indonesia; energy and the economy in Pakistan; and the energy-economy link in Sri Lanka. Contributors include economists. James is Research Associate, Resource Systems Institute, East-West Center, and Associate Professor of Economics, University of Hawaii. Bibliography; index.",0046700,"James, William E., ed.",,,,,Energy          (7230),,,,,,0-275-93104-8,,,,,1989,Book,"New York and London Greenwood Press, Praeger",,"1989, pp. x, 205",The energy-economy link New strategies for the Asia-Pacific region,199006
"The main channels through which changes in macroeconomic conditions influence the size distribution of income are unemployment, inflation, and factor income shares. These effects are examined using both time-series and simulation approaches with U.K. data, with emphasis on the impact of higher unemployment. It is concluded that the rapid rise in unemployment and increases in the relative importance of investment and self-employment income have been major factors in the recent marked increase in inequality in the U.K. size distribution.",0218129,"Nolan, Brian",,http//mesharpe.metapress.com.turing.library.northwestern.edu/openurl.asp?genre=journal&issn=0160-3477,,,Income Distribution          (2213),,,,U.K.,Europe,,01603477,,,,Winter 1988-89,Journal Article,,,"Journal of Post Keynesian Economics, Winter 1988-89, v. 11, iss. 2, pp. 196-221",Macroeconomic Conditions and the Size Distribution of Income Evidence from the United Kingdom,199006
"In the absence of data needed to apply sophisticated decomposition techniques to aggregate-level fertility change, a simple decomposition analysis of recent fertility trends in Bangladesh, India, Nepal, Pakistan, and Sri Lanka illuminates the positioning of these countries along the demographic transition. The change in the total fertility rate between 1960-64 and 1980-84 is decomposed in this exercise into two components, one due to changes in age-specific proportions married and the other due to changes in age-specific marital birth rates. Each of these two major components is further decomposed by age.",0235631,"Retherford, Robert D.; Rele, J. R.","East-West Center, Honolulu; East-West Center, Honolulu",http//onlinelibrary.wiley.com.turing.library.northwestern.edu/journal/10.1111/%28ISSN%291728-4457/issues,,,Demographic Economics          (8410),,,,Bangladesh; India; Nepal; Pakistan; Sri Lanka,Asia,,00987921,,,,December 1989,Journal Article,,,"Population and Development Review, December 1989, v. 15, iss. 4, pp. 739-47",A Decomposition of Recent Fertility Changes in South Asia,199012
,0712697,"BENABOU, R.; LAROQUE, G.",Unlisted; Unlisted,,Information provided in collaboration with the RePEc Project http//repec.org,,,,,,,,,,financial market ;  information,,,1989,Working Paper,"Massachusetts Institute of Technology (MIT), Department of Economics, Working papers",,"1989, pp. 55 pages","USING PRIVILEGED INFORMATION TO MANIPULATE MARKETS INSIDERS, GURUS, AND CREDIBILITY.",200404
"Differences between the objectives of union leaders and those of the rank and file have traditionally been thought the result of political processes or irrationality. This paper shows that such differences will naturally arise as part of a rational bargaining strategy, since delegation of authority to a negotiator permits the union members to achieve advantageous commitment. This use of negotiators leads to revised interpretation of many popular theories of wage and employment determination, such as the efficient bargain and the right-to-manage models, and has implications for the interpretation of econometric modeling of union behavior.",0224596,"Jones, Stephen R. G.",McMaster U,http//onlinelibrary.wiley.com.turing.library.northwestern.edu/journal/10.1111/%28ISSN%291540-5982,,,Collective Bargaining--General          (8320)Labor Economics Theory and Empirical Studies Illustrating Theory          (8210)Game Theory and Bargaining Theory          (0262),,,,,,,00084085,,,,August 1989,Journal Article,,,"Canadian Journal of Economics, August 1989, v. 22, iss. 3, pp. 630-42",The Role of Negotiators in Union-Firm Bargaining,199006
,0222763,"Campbell, M. Karen; Donner, Allan",,http//amstat.tandfonline.com.turing.library.northwestern.edu/loi/uasa20,,,"Econometric and Statistical Methods and Models Multivariate Analysis, Statistical Information Theory, and Other Special Inferential Problems; Queuing Theory; Markov Chains          (2114)",,,,,,,01621459,,,,June 1989,Journal Article,,,"Journal of the American Statistical Association, June 1989, v. 84, iss. 406, pp. 587-91",Classification Efficiency of Multinomial Logistic Regression Relative to Ordinal Logistic Regression,199006
,0695955,"BENHABIB, J.; RUSTICHINI, A.",Unlisted; Unlisted,,Information provided in collaboration with the RePEc Project http//repec.org,,,,,,,,,,economic growth ;  economic equilibrium ;  technology,,,1989,Working Paper,"C.V. Starr Center for Applied Economics, New York University, Working Papers",,"1989, pp. 11 pages",EQUILIBRIUM CYCLING WITH SMALL DISCOUNTING A NOTE.,200404
,0261455,"Morishima, M.",Unlisted,,,,General Equilibrium and Disequilibrium Theory          (0210)History of Economic Thought--Individuals          (0322),,"Wood, John Cunningham; Woods, Ronald N.",,,,,,,,"Hicks, John R.",1989,Collective Volume Article,Critical Assessments of Contemporary Economists series London and New York Routledge,[1960],"Sir John R. Hicks Critical assessments. Volume 2, 1989, pp. 43-51",On the Three Hicksian Laws of Comparative Statics,199203
,0226582,"Fausten, D. K.",Monash U,http//www.kredit-und-kapital.de/archiv/,,,"Open Economy Macroeconomic Theory--Balance of Payments and Adjustment Mechanisms          (4312)Capital Markets Theory, Including Portfolio Selection, and Empirical Studies Illustrating Theory          (3131)",,,,,,,00234591,,,,1989,Journal Article,,,"Kredit und Kapital, 1989, v. 22, iss. 3, pp. 344-62",A Note on External Adjustment,199006
,0228458,"Love, James H.",U Strathclyde,http//muse.jhu.edu.turing.library.northwestern.edu/journals/jda/,,,Economic Studies of Developing Countries--General          (1210)Trade Relations          (4210),,,,LDCs,,,,,,,October 1989,Journal Article,,,"Journal of Developing Areas, October 1989, v. 24, iss. 1, pp. 19-26",Export Instability and Recurrent and Development Expenditure in a Sample of Developing Countries,199006
,0712718,"WOOLDRIDGE, J. M.",Unlisted,,Information provided in collaboration with the RePEc Project http//repec.org,,,,,,,,,,linear models ;  econometrics ;  dependent variables,,,1989,Working Paper,"Massachusetts Institute of Technology (MIT), Department of Economics, Working papers",,"1989, pp. 53 pages",SOME ALETERNATIVE TO THE BOX-COX REGRESSION MODEL.,200404
"Richard Easterlin has argued that fertility should fluctuate cyclically depending on the relative economic status of young adults. Evidence in support of this hypothesis has been derived primarily from the experience of the United States. This note explores the relevance of the ""Easterlin hypothesis"" in the European context. For a sample of Western European countries, simple time-series regression models are estimated and Granger causality tests are performed. Only limited support for the hypothesis is found.",0223610,"Wright, Robert E.",,http//onlinelibrary.wiley.com.turing.library.northwestern.edu/journal/10.1111/%28ISSN%291728-4457/issues,,,Demographic Economics          (8410),,,,W. Europe,Europe,,00987921,,,,March 1989,Journal Article,,,"Population and Development Review, March 1989, v. 15, iss. 1, pp. 107-22",The Easterlin Hypothesis and European Fertility Rates,199006
